G04 EAGLE Gerber RS-274X export*
G75*
%MOMM*%
%FSLAX34Y34*%
%LPD*%
%INSoldermask Bottom*%
%IPPOS*%
%AMOC8*
5,1,8,0,0,1.08239X$1,22.5*%
G01*
%ADD10C,2.743200*%
%ADD11C,1.203200*%
%ADD12C,1.611200*%
%ADD13C,1.320800*%
%ADD14C,1.211200*%
%ADD15P,2.168244X8X112.500000*%
%ADD16C,1.727200*%
%ADD17C,1.103200*%
%ADD18P,1.869504X8X202.500000*%
%ADD19C,2.298700*%
%ADD20P,4.343848X8X112.500000*%
%ADD21C,3.257200*%
%ADD22C,1.727200*%
%ADD23C,1.473200*%
%ADD24C,1.879600*%


D10*
X528638Y800894D03*
X1369219Y810419D03*
X1372394Y185738D03*
X492125Y75406D03*
D11*
X519113Y747713D03*
X1358900Y746919D03*
X1358106Y96838D03*
D12*
X1038213Y598488D03*
X838213Y598488D03*
D13*
X744569Y496888D02*
X733393Y496888D01*
X733393Y446088D02*
X744569Y446088D01*
X1040606Y413576D02*
X1040606Y402400D01*
X989806Y402400D02*
X989806Y413576D01*
D14*
X792900Y524669D03*
X781900Y524669D03*
D15*
X945356Y741363D03*
X945356Y792163D03*
X970756Y766763D03*
D16*
X1331532Y574326D02*
X1331532Y559086D01*
X1376744Y559086D02*
X1376744Y574326D01*
X1331532Y509302D02*
X1331532Y494062D01*
X1376744Y494062D02*
X1376744Y509302D01*
D17*
X1353344Y315344D03*
X1353344Y359344D03*
D16*
X1332325Y667036D02*
X1332325Y682276D01*
X1377537Y682276D02*
X1377537Y667036D01*
X1332325Y617252D02*
X1332325Y602012D01*
X1377537Y602012D02*
X1377537Y617252D01*
D18*
X895350Y737394D03*
X895350Y788194D03*
X874713Y737394D03*
X874713Y788194D03*
X854075Y737394D03*
X854075Y788194D03*
X833438Y737394D03*
X833438Y788194D03*
X812800Y737394D03*
X812800Y788194D03*
X792163Y737394D03*
X792163Y788194D03*
D19*
X1226344Y98584D02*
X1226344Y77629D01*
X1277144Y77629D02*
X1277144Y98584D01*
X1124744Y98584D02*
X1124744Y77629D01*
X1175544Y77629D02*
X1175544Y98584D01*
D16*
X1204119Y192405D02*
X1204119Y207645D01*
X1178719Y207645D02*
X1178719Y192405D01*
X1153319Y192405D02*
X1153319Y207645D01*
X1127919Y207645D02*
X1127919Y192405D01*
X571976Y365125D02*
X556736Y365125D01*
X556736Y339725D02*
X571976Y339725D01*
D20*
X564356Y146050D03*
X564356Y201613D03*
D21*
X564356Y73025D03*
D20*
X703263Y144463D03*
X703263Y200025D03*
D21*
X703263Y71438D03*
D20*
X846931Y146050D03*
X846931Y201613D03*
D21*
X846931Y73025D03*
D22*
X1117600Y438150D03*
X1117600Y483394D03*
X1000125Y764381D03*
X1000125Y829469D03*
X1031081Y319881D03*
X1081881Y319881D03*
X1152525Y315119D03*
X1152525Y357188D03*
X962819Y205581D03*
X962819Y173038D03*
X907256Y134144D03*
X955675Y133350D03*
X1255713Y407194D03*
X1314450Y407988D03*
X1276350Y599281D03*
X1230313Y598488D03*
X1015206Y582613D03*
X958056Y582613D03*
X1146175Y438150D03*
X1146175Y493713D03*
X1181100Y530225D03*
X1181100Y561975D03*
X668338Y340519D03*
X669131Y390525D03*
X1039019Y835025D03*
X1039813Y777081D03*
D23*
X872331Y404813D03*
X848519Y404813D03*
X916781Y377031D03*
X916781Y403225D03*
X900113Y381000D03*
X900113Y401638D03*
D22*
X710406Y623888D03*
X710406Y703263D03*
X731044Y624681D03*
X731044Y704056D03*
X751681Y623094D03*
X751681Y703263D03*
X777875Y627063D03*
X777875Y703263D03*
X1271588Y464344D03*
X1306513Y464344D03*
D24*
X616744Y685006D03*
X616744Y720725D03*
D22*
X519113Y747713D03*
X1358900Y746919D03*
M02*
