G04 EAGLE Gerber RS-274X export*
G75*
%MOMM*%
%FSLAX34Y34*%
%LPD*%
%INBottom Copper*%
%IPPOS*%
%AMOC8*
5,1,8,0,0,1.08239X$1,22.5*%
G01*
%ADD10R,2.700000X1.600000*%
%ADD11R,1.600000X2.700000*%
%ADD12C,1.879600*%
%ADD13C,1.408000*%
%ADD14R,1.498600X2.006600*%
%ADD15R,3.810000X2.006600*%
%ADD16C,1.117600*%
%ADD17C,1.008000*%
%ADD18R,1.100000X1.400000*%
%ADD19R,1.300000X1.500000*%
%ADD20P,1.948302X8X112.500000*%
%ADD21C,1.524000*%
%ADD22C,2.095500*%
%ADD23P,4.123906X8X112.500000*%
%ADD24C,1.508000*%
%ADD25R,1.270000X1.470000*%
%ADD26C,1.930400*%
%ADD27P,1.649562X8X202.500000*%
%ADD28R,1.400000X1.400000*%
%ADD29C,1.524000*%
%ADD30C,0.304800*%
%ADD31C,0.635000*%
%ADD32C,0.330200*%
%ADD33C,0.406400*%
%ADD34C,0.812800*%
%ADD35R,1.006400X1.006400*%
%ADD36C,0.609600*%
%ADD37C,1.270000*%
%ADD38C,1.676400*%
%ADD39C,0.254000*%
%ADD40C,2.184400*%

G36*
X1310254Y262016D02*
X1310254Y262016D01*
X1310380Y262023D01*
X1310427Y262036D01*
X1310475Y262042D01*
X1310594Y262084D01*
X1310715Y262119D01*
X1310757Y262143D01*
X1310803Y262159D01*
X1310874Y262205D01*
X1319428Y265748D01*
X1328522Y265748D01*
X1337051Y262216D01*
X1337132Y262177D01*
X1337242Y262116D01*
X1337289Y262103D01*
X1337333Y262082D01*
X1337456Y262056D01*
X1337578Y262021D01*
X1337639Y262017D01*
X1337673Y262009D01*
X1337721Y262010D01*
X1337822Y262002D01*
X1387497Y262002D01*
X1387523Y262005D01*
X1387549Y262003D01*
X1387696Y262025D01*
X1387843Y262042D01*
X1387868Y262050D01*
X1387894Y262054D01*
X1388032Y262109D01*
X1388172Y262159D01*
X1388194Y262173D01*
X1388218Y262183D01*
X1388340Y262268D01*
X1388464Y262348D01*
X1388483Y262367D01*
X1388504Y262382D01*
X1388603Y262492D01*
X1388707Y262599D01*
X1388720Y262621D01*
X1388738Y262641D01*
X1388809Y262771D01*
X1388885Y262898D01*
X1388893Y262923D01*
X1388906Y262946D01*
X1388947Y263089D01*
X1388992Y263230D01*
X1388994Y263256D01*
X1389001Y263281D01*
X1389021Y263525D01*
X1389021Y483263D01*
X1389009Y483363D01*
X1389007Y483463D01*
X1388989Y483535D01*
X1388981Y483609D01*
X1388947Y483704D01*
X1388922Y483801D01*
X1388888Y483867D01*
X1388863Y483937D01*
X1388809Y484022D01*
X1388763Y484111D01*
X1388714Y484168D01*
X1388674Y484230D01*
X1388602Y484300D01*
X1388537Y484376D01*
X1388477Y484420D01*
X1388423Y484472D01*
X1388337Y484524D01*
X1388257Y484583D01*
X1388188Y484613D01*
X1388124Y484651D01*
X1388029Y484682D01*
X1387937Y484721D01*
X1387863Y484735D01*
X1387792Y484757D01*
X1387692Y484765D01*
X1387594Y484783D01*
X1387519Y484779D01*
X1387445Y484785D01*
X1387346Y484770D01*
X1387245Y484765D01*
X1387174Y484745D01*
X1387100Y484734D01*
X1387007Y484697D01*
X1386911Y484669D01*
X1386846Y484632D01*
X1386777Y484605D01*
X1386694Y484548D01*
X1386606Y484499D01*
X1386530Y484433D01*
X1386490Y484406D01*
X1386467Y484379D01*
X1386420Y484340D01*
X1384513Y482433D01*
X1379472Y480345D01*
X1374015Y480345D01*
X1368974Y482433D01*
X1365115Y486292D01*
X1363027Y491333D01*
X1363027Y512030D01*
X1365115Y517072D01*
X1368974Y520930D01*
X1374015Y523018D01*
X1379472Y523018D01*
X1384513Y520930D01*
X1386420Y519023D01*
X1386499Y518961D01*
X1386571Y518891D01*
X1386635Y518853D01*
X1386693Y518807D01*
X1386784Y518764D01*
X1386870Y518712D01*
X1386941Y518690D01*
X1387008Y518658D01*
X1387106Y518637D01*
X1387202Y518606D01*
X1387276Y518600D01*
X1387349Y518585D01*
X1387449Y518586D01*
X1387549Y518578D01*
X1387623Y518589D01*
X1387697Y518591D01*
X1387795Y518615D01*
X1387894Y518630D01*
X1387963Y518657D01*
X1388035Y518676D01*
X1388125Y518722D01*
X1388218Y518759D01*
X1388279Y518801D01*
X1388345Y518835D01*
X1388422Y518900D01*
X1388504Y518958D01*
X1388554Y519013D01*
X1388611Y519061D01*
X1388670Y519142D01*
X1388738Y519216D01*
X1388774Y519281D01*
X1388818Y519341D01*
X1388858Y519433D01*
X1388906Y519521D01*
X1388926Y519593D01*
X1388956Y519661D01*
X1388974Y519760D01*
X1389001Y519857D01*
X1389009Y519957D01*
X1389017Y520004D01*
X1389016Y520040D01*
X1389021Y520101D01*
X1389021Y548287D01*
X1389009Y548387D01*
X1389007Y548487D01*
X1388989Y548559D01*
X1388981Y548633D01*
X1388947Y548728D01*
X1388922Y548825D01*
X1388888Y548891D01*
X1388863Y548961D01*
X1388809Y549046D01*
X1388763Y549135D01*
X1388714Y549192D01*
X1388674Y549254D01*
X1388602Y549324D01*
X1388537Y549400D01*
X1388477Y549444D01*
X1388423Y549496D01*
X1388337Y549548D01*
X1388257Y549607D01*
X1388188Y549637D01*
X1388124Y549675D01*
X1388029Y549706D01*
X1387937Y549745D01*
X1387863Y549759D01*
X1387792Y549781D01*
X1387692Y549789D01*
X1387594Y549807D01*
X1387519Y549803D01*
X1387445Y549809D01*
X1387346Y549794D01*
X1387245Y549789D01*
X1387174Y549769D01*
X1387100Y549758D01*
X1387007Y549721D01*
X1386911Y549693D01*
X1386846Y549656D01*
X1386777Y549629D01*
X1386694Y549572D01*
X1386606Y549523D01*
X1386530Y549457D01*
X1386490Y549430D01*
X1386467Y549403D01*
X1386420Y549364D01*
X1384513Y547457D01*
X1379472Y545369D01*
X1374015Y545369D01*
X1368974Y547457D01*
X1365115Y551316D01*
X1363027Y556357D01*
X1363027Y577054D01*
X1365115Y582096D01*
X1368974Y585954D01*
X1374015Y588042D01*
X1379472Y588042D01*
X1384513Y585954D01*
X1386420Y584047D01*
X1386499Y583985D01*
X1386571Y583915D01*
X1386635Y583877D01*
X1386693Y583831D01*
X1386784Y583788D01*
X1386870Y583736D01*
X1386941Y583714D01*
X1387008Y583682D01*
X1387106Y583661D01*
X1387202Y583630D01*
X1387276Y583624D01*
X1387349Y583609D01*
X1387449Y583610D01*
X1387549Y583602D01*
X1387623Y583613D01*
X1387697Y583615D01*
X1387795Y583639D01*
X1387894Y583654D01*
X1387963Y583681D01*
X1388035Y583700D01*
X1388125Y583746D01*
X1388218Y583783D01*
X1388279Y583825D01*
X1388345Y583859D01*
X1388422Y583924D01*
X1388504Y583982D01*
X1388554Y584037D01*
X1388611Y584085D01*
X1388670Y584166D01*
X1388738Y584240D01*
X1388774Y584305D01*
X1388818Y584365D01*
X1388858Y584457D01*
X1388906Y584545D01*
X1388926Y584617D01*
X1388956Y584685D01*
X1388974Y584784D01*
X1389001Y584881D01*
X1389009Y584981D01*
X1389017Y585028D01*
X1389016Y585064D01*
X1389021Y585125D01*
X1389021Y625344D01*
X1389009Y625444D01*
X1389007Y625544D01*
X1388989Y625617D01*
X1388981Y625690D01*
X1388947Y625785D01*
X1388922Y625882D01*
X1388888Y625949D01*
X1388863Y626019D01*
X1388809Y626103D01*
X1388763Y626192D01*
X1388714Y626249D01*
X1388674Y626311D01*
X1388602Y626381D01*
X1388537Y626458D01*
X1388477Y626502D01*
X1388423Y626554D01*
X1388337Y626605D01*
X1388257Y626665D01*
X1388188Y626694D01*
X1388124Y626732D01*
X1388029Y626763D01*
X1387937Y626803D01*
X1387863Y626816D01*
X1387792Y626839D01*
X1387692Y626847D01*
X1387593Y626864D01*
X1387519Y626861D01*
X1387445Y626867D01*
X1387346Y626852D01*
X1387245Y626846D01*
X1387174Y626826D01*
X1387100Y626815D01*
X1387007Y626778D01*
X1386911Y626750D01*
X1386846Y626714D01*
X1386777Y626686D01*
X1386694Y626629D01*
X1386606Y626580D01*
X1386530Y626515D01*
X1386490Y626487D01*
X1386467Y626461D01*
X1386420Y626421D01*
X1385307Y625308D01*
X1380266Y623220D01*
X1374809Y623220D01*
X1369767Y625308D01*
X1365909Y629167D01*
X1363821Y634208D01*
X1363821Y654905D01*
X1365909Y659947D01*
X1369767Y663805D01*
X1374809Y665893D01*
X1380266Y665893D01*
X1385307Y663805D01*
X1386420Y662692D01*
X1386499Y662630D01*
X1386571Y662560D01*
X1386635Y662522D01*
X1386693Y662476D01*
X1386784Y662433D01*
X1386870Y662381D01*
X1386941Y662358D01*
X1387008Y662327D01*
X1387106Y662306D01*
X1387202Y662275D01*
X1387276Y662269D01*
X1387349Y662253D01*
X1387449Y662255D01*
X1387549Y662247D01*
X1387623Y662258D01*
X1387697Y662259D01*
X1387795Y662284D01*
X1387894Y662299D01*
X1387963Y662326D01*
X1388035Y662344D01*
X1388125Y662390D01*
X1388218Y662427D01*
X1388279Y662470D01*
X1388345Y662504D01*
X1388422Y662569D01*
X1388504Y662626D01*
X1388554Y662681D01*
X1388611Y662730D01*
X1388670Y662811D01*
X1388738Y662885D01*
X1388774Y662950D01*
X1388818Y663010D01*
X1388858Y663102D01*
X1388906Y663190D01*
X1388926Y663262D01*
X1388956Y663330D01*
X1388974Y663429D01*
X1389001Y663526D01*
X1389009Y663626D01*
X1389017Y663673D01*
X1389016Y663709D01*
X1389021Y663769D01*
X1389021Y690368D01*
X1389009Y690468D01*
X1389007Y690568D01*
X1388989Y690641D01*
X1388981Y690714D01*
X1388947Y690809D01*
X1388922Y690906D01*
X1388888Y690973D01*
X1388863Y691043D01*
X1388809Y691127D01*
X1388763Y691216D01*
X1388714Y691273D01*
X1388674Y691335D01*
X1388602Y691405D01*
X1388537Y691482D01*
X1388477Y691526D01*
X1388423Y691578D01*
X1388337Y691629D01*
X1388257Y691689D01*
X1388188Y691718D01*
X1388124Y691756D01*
X1388029Y691787D01*
X1387937Y691827D01*
X1387863Y691840D01*
X1387792Y691863D01*
X1387692Y691871D01*
X1387593Y691888D01*
X1387519Y691885D01*
X1387445Y691891D01*
X1387346Y691876D01*
X1387245Y691870D01*
X1387174Y691850D01*
X1387100Y691839D01*
X1387007Y691802D01*
X1386911Y691774D01*
X1386846Y691738D01*
X1386777Y691710D01*
X1386694Y691653D01*
X1386606Y691604D01*
X1386530Y691539D01*
X1386490Y691511D01*
X1386467Y691485D01*
X1386420Y691445D01*
X1385307Y690332D01*
X1380266Y688244D01*
X1374809Y688244D01*
X1369767Y690332D01*
X1365909Y694191D01*
X1363821Y699232D01*
X1363821Y719929D01*
X1365909Y724971D01*
X1369767Y728829D01*
X1374809Y730917D01*
X1380266Y730917D01*
X1385307Y728829D01*
X1386420Y727716D01*
X1386499Y727654D01*
X1386571Y727584D01*
X1386635Y727546D01*
X1386693Y727500D01*
X1386784Y727457D01*
X1386870Y727405D01*
X1386941Y727382D01*
X1387008Y727351D01*
X1387106Y727330D01*
X1387202Y727299D01*
X1387276Y727293D01*
X1387349Y727277D01*
X1387449Y727279D01*
X1387549Y727271D01*
X1387623Y727282D01*
X1387697Y727283D01*
X1387795Y727308D01*
X1387894Y727323D01*
X1387963Y727350D01*
X1388035Y727368D01*
X1388125Y727414D01*
X1388218Y727451D01*
X1388279Y727494D01*
X1388345Y727528D01*
X1388422Y727593D01*
X1388504Y727650D01*
X1388554Y727705D01*
X1388611Y727754D01*
X1388670Y727835D01*
X1388738Y727909D01*
X1388774Y727974D01*
X1388818Y728034D01*
X1388858Y728126D01*
X1388906Y728214D01*
X1388926Y728286D01*
X1388956Y728354D01*
X1388974Y728453D01*
X1389001Y728550D01*
X1389009Y728650D01*
X1389017Y728697D01*
X1389016Y728733D01*
X1389021Y728793D01*
X1389021Y738165D01*
X1389006Y738291D01*
X1389000Y738417D01*
X1388986Y738463D01*
X1388981Y738511D01*
X1388938Y738630D01*
X1388903Y738752D01*
X1388879Y738794D01*
X1388863Y738840D01*
X1388795Y738946D01*
X1388733Y739056D01*
X1388693Y739102D01*
X1388674Y739132D01*
X1388639Y739166D01*
X1388574Y739242D01*
X1376661Y751156D01*
X1376583Y751218D01*
X1376510Y751288D01*
X1376446Y751326D01*
X1376388Y751372D01*
X1376297Y751415D01*
X1376211Y751467D01*
X1376140Y751489D01*
X1376073Y751521D01*
X1375975Y751542D01*
X1375879Y751573D01*
X1375805Y751579D01*
X1375732Y751595D01*
X1375632Y751593D01*
X1375532Y751601D01*
X1375458Y751590D01*
X1375384Y751589D01*
X1375287Y751564D01*
X1375187Y751549D01*
X1375118Y751522D01*
X1375046Y751504D01*
X1374956Y751457D01*
X1374863Y751420D01*
X1374802Y751378D01*
X1374736Y751344D01*
X1374659Y751279D01*
X1374577Y751222D01*
X1374527Y751166D01*
X1374471Y751118D01*
X1374411Y751037D01*
X1374344Y750963D01*
X1374308Y750898D01*
X1374263Y750838D01*
X1374224Y750746D01*
X1374175Y750658D01*
X1374155Y750586D01*
X1374125Y750518D01*
X1374108Y750419D01*
X1374080Y750322D01*
X1374072Y750222D01*
X1374064Y750175D01*
X1374066Y750139D01*
X1374061Y750079D01*
X1374061Y743903D01*
X1371753Y738331D01*
X1367488Y734066D01*
X1361916Y731758D01*
X1355884Y731758D01*
X1350312Y734066D01*
X1346047Y738331D01*
X1343739Y743903D01*
X1343739Y749934D01*
X1346047Y755507D01*
X1350312Y759771D01*
X1355884Y762079D01*
X1362060Y762079D01*
X1362160Y762091D01*
X1362260Y762093D01*
X1362332Y762111D01*
X1362406Y762119D01*
X1362500Y762153D01*
X1362598Y762178D01*
X1362664Y762212D01*
X1362734Y762237D01*
X1362818Y762291D01*
X1362908Y762337D01*
X1362964Y762386D01*
X1363027Y762426D01*
X1363097Y762498D01*
X1363173Y762563D01*
X1363217Y762623D01*
X1363269Y762677D01*
X1363321Y762763D01*
X1363380Y762843D01*
X1363410Y762912D01*
X1363448Y762976D01*
X1363479Y763071D01*
X1363518Y763163D01*
X1363531Y763237D01*
X1363554Y763308D01*
X1363562Y763408D01*
X1363580Y763506D01*
X1363576Y763581D01*
X1363582Y763655D01*
X1363567Y763754D01*
X1363562Y763855D01*
X1363541Y763926D01*
X1363530Y764000D01*
X1363493Y764093D01*
X1363466Y764189D01*
X1363429Y764254D01*
X1363402Y764323D01*
X1363344Y764406D01*
X1363295Y764494D01*
X1363230Y764570D01*
X1363203Y764610D01*
X1363176Y764633D01*
X1363137Y764680D01*
X1281385Y846432D01*
X1281285Y846511D01*
X1281191Y846596D01*
X1281149Y846619D01*
X1281112Y846649D01*
X1280997Y846703D01*
X1280886Y846764D01*
X1280840Y846777D01*
X1280796Y846798D01*
X1280673Y846824D01*
X1280550Y846859D01*
X1280490Y846864D01*
X1280456Y846871D01*
X1280408Y846870D01*
X1280306Y846878D01*
X602770Y846388D01*
X602645Y846374D01*
X602519Y846367D01*
X602472Y846354D01*
X602424Y846348D01*
X602306Y846306D01*
X602185Y846271D01*
X602142Y846247D01*
X602096Y846230D01*
X601990Y846162D01*
X601880Y846101D01*
X601834Y846061D01*
X601803Y846041D01*
X601770Y846006D01*
X601694Y845942D01*
X551288Y795536D01*
X551287Y795534D01*
X551285Y795533D01*
X551175Y795394D01*
X551071Y795263D01*
X551071Y795261D01*
X551069Y795260D01*
X550958Y795042D01*
X548018Y787944D01*
X541587Y781513D01*
X534489Y778573D01*
X534488Y778572D01*
X534486Y778572D01*
X534338Y778489D01*
X534185Y778404D01*
X534183Y778403D01*
X534182Y778402D01*
X533995Y778243D01*
X521226Y765474D01*
X521163Y765395D01*
X521093Y765323D01*
X521055Y765259D01*
X521009Y765201D01*
X520966Y765110D01*
X520915Y765024D01*
X520892Y764953D01*
X520860Y764885D01*
X520839Y764787D01*
X520808Y764692D01*
X520802Y764617D01*
X520787Y764545D01*
X520788Y764444D01*
X520780Y764344D01*
X520791Y764271D01*
X520793Y764196D01*
X520817Y764099D01*
X520832Y764000D01*
X520860Y763931D01*
X520878Y763858D01*
X520924Y763769D01*
X520961Y763676D01*
X521003Y763615D01*
X521037Y763549D01*
X521103Y763472D01*
X521160Y763390D01*
X521215Y763340D01*
X521263Y763283D01*
X521344Y763223D01*
X521419Y763156D01*
X521484Y763120D01*
X521543Y763076D01*
X521636Y763036D01*
X521724Y762988D01*
X521795Y762967D01*
X521863Y762938D01*
X521962Y762920D01*
X522059Y762893D01*
X522086Y762891D01*
X527700Y760565D01*
X531965Y756300D01*
X534273Y750728D01*
X534273Y744697D01*
X531965Y739125D01*
X527700Y734860D01*
X522128Y732552D01*
X516097Y732552D01*
X510525Y734860D01*
X506260Y739125D01*
X503934Y744739D01*
X503920Y744795D01*
X503912Y744868D01*
X503878Y744963D01*
X503854Y745060D01*
X503819Y745127D01*
X503794Y745197D01*
X503740Y745281D01*
X503694Y745370D01*
X503646Y745427D01*
X503605Y745489D01*
X503533Y745559D01*
X503468Y745636D01*
X503408Y745680D01*
X503355Y745732D01*
X503269Y745783D01*
X503188Y745843D01*
X503119Y745872D01*
X503056Y745910D01*
X502960Y745941D01*
X502868Y745981D01*
X502795Y745994D01*
X502724Y746017D01*
X502624Y746025D01*
X502525Y746042D01*
X502450Y746039D01*
X502376Y746045D01*
X502277Y746030D01*
X502177Y746025D01*
X502105Y746004D01*
X502032Y745993D01*
X501938Y745956D01*
X501842Y745928D01*
X501777Y745892D01*
X501708Y745864D01*
X501625Y745807D01*
X501538Y745758D01*
X501461Y745693D01*
X501422Y745665D01*
X501398Y745639D01*
X501351Y745599D01*
X487079Y731327D01*
X487063Y731307D01*
X487043Y731290D01*
X486955Y731170D01*
X486863Y731054D01*
X486851Y731030D01*
X486836Y731009D01*
X486777Y730873D01*
X486714Y730739D01*
X486708Y730713D01*
X486698Y730689D01*
X486671Y730543D01*
X486640Y730398D01*
X486641Y730372D01*
X486636Y730346D01*
X486644Y730198D01*
X486646Y730050D01*
X486653Y730024D01*
X486654Y729998D01*
X486695Y729856D01*
X486731Y729712D01*
X486743Y729689D01*
X486751Y729663D01*
X486823Y729534D01*
X486891Y729402D01*
X486908Y729382D01*
X486921Y729359D01*
X487079Y729173D01*
X488221Y728032D01*
X488221Y307975D01*
X488224Y307949D01*
X488221Y307923D01*
X488243Y307776D01*
X488260Y307629D01*
X488269Y307604D01*
X488273Y307578D01*
X488328Y307440D01*
X488378Y307301D01*
X488392Y307279D01*
X488402Y307254D01*
X488486Y307133D01*
X488567Y307008D01*
X488586Y306990D01*
X488601Y306968D01*
X488711Y306869D01*
X488818Y306766D01*
X488840Y306752D01*
X488860Y306735D01*
X488989Y306663D01*
X489117Y306587D01*
X489142Y306579D01*
X489165Y306566D01*
X489308Y306526D01*
X489449Y306481D01*
X489475Y306479D01*
X489500Y306471D01*
X489744Y306452D01*
X1021435Y306452D01*
X1021535Y306463D01*
X1021635Y306465D01*
X1021707Y306483D01*
X1021781Y306492D01*
X1021876Y306525D01*
X1021973Y306550D01*
X1022039Y306584D01*
X1022109Y306609D01*
X1022194Y306664D01*
X1022283Y306710D01*
X1022340Y306758D01*
X1022402Y306798D01*
X1022472Y306870D01*
X1022548Y306935D01*
X1022593Y306995D01*
X1022644Y307049D01*
X1022696Y307135D01*
X1022755Y307216D01*
X1022785Y307284D01*
X1022823Y307348D01*
X1022854Y307444D01*
X1022893Y307536D01*
X1022907Y307609D01*
X1022929Y307680D01*
X1022937Y307780D01*
X1022955Y307879D01*
X1022951Y307953D01*
X1022957Y308027D01*
X1022942Y308127D01*
X1022937Y308227D01*
X1022917Y308298D01*
X1022906Y308372D01*
X1022869Y308465D01*
X1022841Y308562D01*
X1022804Y308627D01*
X1022777Y308696D01*
X1022720Y308778D01*
X1022671Y308866D01*
X1022605Y308942D01*
X1022578Y308982D01*
X1022551Y309006D01*
X1022512Y309052D01*
X1019453Y312111D01*
X1017365Y317153D01*
X1017365Y322610D01*
X1019453Y327651D01*
X1023311Y331510D01*
X1028353Y333598D01*
X1033810Y333598D01*
X1038851Y331510D01*
X1042413Y327948D01*
X1042512Y327870D01*
X1042606Y327785D01*
X1042648Y327762D01*
X1042686Y327732D01*
X1042800Y327678D01*
X1042911Y327616D01*
X1042957Y327603D01*
X1043001Y327583D01*
X1043124Y327556D01*
X1043246Y327522D01*
X1043307Y327517D01*
X1043342Y327509D01*
X1043390Y327510D01*
X1043490Y327502D01*
X1069473Y327502D01*
X1069598Y327516D01*
X1069724Y327523D01*
X1069771Y327536D01*
X1069819Y327542D01*
X1069938Y327584D01*
X1070059Y327619D01*
X1070101Y327643D01*
X1070147Y327659D01*
X1070253Y327728D01*
X1070363Y327790D01*
X1070410Y327829D01*
X1070440Y327848D01*
X1070473Y327883D01*
X1070550Y327948D01*
X1074111Y331510D01*
X1079153Y333598D01*
X1084610Y333598D01*
X1089651Y331510D01*
X1093510Y327651D01*
X1095598Y322610D01*
X1095598Y317153D01*
X1093510Y312111D01*
X1090450Y309052D01*
X1090388Y308974D01*
X1090318Y308901D01*
X1090280Y308837D01*
X1090234Y308779D01*
X1090191Y308688D01*
X1090139Y308602D01*
X1090117Y308531D01*
X1090085Y308464D01*
X1090064Y308366D01*
X1090033Y308270D01*
X1090027Y308196D01*
X1090012Y308123D01*
X1090013Y308023D01*
X1090005Y307923D01*
X1090016Y307849D01*
X1090018Y307775D01*
X1090042Y307678D01*
X1090057Y307578D01*
X1090084Y307509D01*
X1090103Y307437D01*
X1090149Y307348D01*
X1090186Y307254D01*
X1090228Y307193D01*
X1090262Y307127D01*
X1090327Y307051D01*
X1090385Y306968D01*
X1090440Y306918D01*
X1090488Y306862D01*
X1090569Y306802D01*
X1090643Y306735D01*
X1090708Y306699D01*
X1090768Y306654D01*
X1090861Y306615D01*
X1090948Y306566D01*
X1091020Y306546D01*
X1091088Y306516D01*
X1091187Y306499D01*
X1091284Y306471D01*
X1091384Y306463D01*
X1091431Y306455D01*
X1091467Y306457D01*
X1091528Y306452D01*
X1138988Y306452D01*
X1139137Y306469D01*
X1139288Y306481D01*
X1139311Y306489D01*
X1139335Y306492D01*
X1139476Y306542D01*
X1139619Y306589D01*
X1139640Y306601D01*
X1139663Y306609D01*
X1139789Y306691D01*
X1139918Y306768D01*
X1139935Y306785D01*
X1139956Y306798D01*
X1140060Y306906D01*
X1140168Y307011D01*
X1140181Y307031D01*
X1140198Y307049D01*
X1140275Y307178D01*
X1140356Y307304D01*
X1140364Y307327D01*
X1140377Y307348D01*
X1140422Y307491D01*
X1140473Y307633D01*
X1140475Y307657D01*
X1140483Y307680D01*
X1140495Y307829D01*
X1140512Y307979D01*
X1140509Y308003D01*
X1140511Y308027D01*
X1140488Y308176D01*
X1140471Y308325D01*
X1140462Y308353D01*
X1140459Y308372D01*
X1140442Y308416D01*
X1140396Y308558D01*
X1138808Y312390D01*
X1138808Y317847D01*
X1140897Y322889D01*
X1144458Y326450D01*
X1144524Y326534D01*
X1144564Y326575D01*
X1144573Y326590D01*
X1144621Y326643D01*
X1144645Y326685D01*
X1144675Y326723D01*
X1144729Y326837D01*
X1144790Y326948D01*
X1144803Y326995D01*
X1144824Y327038D01*
X1144850Y327162D01*
X1144885Y327284D01*
X1144890Y327344D01*
X1144897Y327379D01*
X1144896Y327427D01*
X1144904Y327527D01*
X1144904Y344779D01*
X1144890Y344904D01*
X1144883Y345031D01*
X1144870Y345077D01*
X1144864Y345125D01*
X1144822Y345244D01*
X1144787Y345366D01*
X1144763Y345408D01*
X1144747Y345453D01*
X1144678Y345559D01*
X1144617Y345670D01*
X1144577Y345716D01*
X1144558Y345746D01*
X1144523Y345780D01*
X1144458Y345856D01*
X1140897Y349418D01*
X1138808Y354459D01*
X1138808Y359916D01*
X1140897Y364957D01*
X1144755Y368816D01*
X1149797Y370904D01*
X1155253Y370904D01*
X1160295Y368816D01*
X1164153Y364957D01*
X1166242Y359916D01*
X1166242Y354459D01*
X1164153Y349418D01*
X1160592Y345856D01*
X1160513Y345757D01*
X1160429Y345663D01*
X1160405Y345621D01*
X1160375Y345583D01*
X1160321Y345469D01*
X1160260Y345358D01*
X1160247Y345312D01*
X1160226Y345268D01*
X1160200Y345145D01*
X1160165Y345023D01*
X1160160Y344962D01*
X1160153Y344927D01*
X1160154Y344879D01*
X1160146Y344779D01*
X1160146Y327527D01*
X1160160Y327402D01*
X1160167Y327276D01*
X1160180Y327229D01*
X1160186Y327181D01*
X1160228Y327062D01*
X1160263Y326941D01*
X1160287Y326899D01*
X1160303Y326853D01*
X1160372Y326747D01*
X1160433Y326637D01*
X1160473Y326590D01*
X1160492Y326560D01*
X1160527Y326527D01*
X1160542Y326509D01*
X1160552Y326495D01*
X1160562Y326486D01*
X1160592Y326450D01*
X1164153Y322889D01*
X1166242Y317847D01*
X1166242Y312390D01*
X1164654Y308558D01*
X1164613Y308413D01*
X1164567Y308270D01*
X1164565Y308246D01*
X1164559Y308223D01*
X1164551Y308072D01*
X1164539Y307923D01*
X1164543Y307899D01*
X1164542Y307875D01*
X1164569Y307727D01*
X1164591Y307578D01*
X1164600Y307556D01*
X1164604Y307532D01*
X1164664Y307394D01*
X1164720Y307254D01*
X1164733Y307234D01*
X1164743Y307212D01*
X1164833Y307091D01*
X1164919Y306968D01*
X1164936Y306952D01*
X1164951Y306933D01*
X1165066Y306835D01*
X1165177Y306735D01*
X1165199Y306723D01*
X1165217Y306707D01*
X1165351Y306639D01*
X1165482Y306566D01*
X1165506Y306560D01*
X1165527Y306549D01*
X1165673Y306512D01*
X1165818Y306471D01*
X1165847Y306469D01*
X1165865Y306464D01*
X1165912Y306464D01*
X1166062Y306452D01*
X1241588Y306452D01*
X1285592Y262448D01*
X1285691Y262369D01*
X1285785Y262285D01*
X1285827Y262261D01*
X1285865Y262231D01*
X1285979Y262177D01*
X1286090Y262116D01*
X1286136Y262103D01*
X1286180Y262082D01*
X1286303Y262056D01*
X1286425Y262021D01*
X1286486Y262017D01*
X1286520Y262009D01*
X1286568Y262010D01*
X1286669Y262002D01*
X1310128Y262002D01*
X1310254Y262016D01*
G37*
%LPC*%
G36*
X748953Y609377D02*
X748953Y609377D01*
X743911Y611465D01*
X741646Y613731D01*
X741625Y613747D01*
X741608Y613767D01*
X741489Y613855D01*
X741373Y613947D01*
X741349Y613959D01*
X741328Y613974D01*
X741192Y614033D01*
X741058Y614096D01*
X741032Y614102D01*
X741008Y614112D01*
X740861Y614139D01*
X740717Y614170D01*
X740691Y614169D01*
X740665Y614174D01*
X740516Y614166D01*
X740369Y614164D01*
X740343Y614157D01*
X740317Y614156D01*
X740175Y614115D01*
X740031Y614079D01*
X740007Y614067D01*
X739982Y614059D01*
X739853Y613987D01*
X739721Y613919D01*
X739701Y613902D01*
X739678Y613889D01*
X739492Y613731D01*
X738814Y613053D01*
X733772Y610965D01*
X728315Y610965D01*
X723274Y613053D01*
X722199Y614128D01*
X722178Y614144D01*
X722161Y614164D01*
X722042Y614252D01*
X721926Y614344D01*
X721902Y614355D01*
X721881Y614371D01*
X721745Y614430D01*
X721611Y614493D01*
X721585Y614499D01*
X721561Y614509D01*
X721415Y614535D01*
X721270Y614567D01*
X721244Y614566D01*
X721218Y614571D01*
X721070Y614563D01*
X720922Y614561D01*
X720896Y614554D01*
X720870Y614553D01*
X720728Y614512D01*
X720584Y614476D01*
X720560Y614464D01*
X720535Y614456D01*
X720406Y614384D01*
X720274Y614316D01*
X720254Y614299D01*
X720231Y614286D01*
X720045Y614128D01*
X718176Y612259D01*
X713135Y610171D01*
X707678Y610171D01*
X702636Y612259D01*
X698778Y616118D01*
X696690Y621159D01*
X696690Y626616D01*
X698778Y631657D01*
X702339Y635219D01*
X702418Y635318D01*
X702503Y635412D01*
X702526Y635454D01*
X702556Y635492D01*
X702610Y635606D01*
X702671Y635717D01*
X702684Y635763D01*
X702705Y635807D01*
X702731Y635930D01*
X702766Y636052D01*
X702771Y636113D01*
X702778Y636148D01*
X702777Y636196D01*
X702786Y636296D01*
X702786Y699585D01*
X702771Y699711D01*
X702765Y699837D01*
X702751Y699883D01*
X702746Y699931D01*
X702703Y700050D01*
X702668Y700172D01*
X702644Y700214D01*
X702628Y700259D01*
X702560Y700366D01*
X702498Y700476D01*
X702458Y700522D01*
X702439Y700552D01*
X702404Y700586D01*
X702339Y700662D01*
X698778Y704224D01*
X696690Y709265D01*
X696690Y714722D01*
X698778Y719764D01*
X702636Y723622D01*
X707678Y725710D01*
X713135Y725710D01*
X718176Y723622D01*
X719251Y722547D01*
X719272Y722531D01*
X719289Y722511D01*
X719408Y722423D01*
X719524Y722331D01*
X719548Y722320D01*
X719569Y722304D01*
X719705Y722245D01*
X719839Y722182D01*
X719865Y722176D01*
X719889Y722166D01*
X720035Y722140D01*
X720180Y722108D01*
X720206Y722109D01*
X720232Y722104D01*
X720380Y722112D01*
X720528Y722114D01*
X720554Y722121D01*
X720580Y722122D01*
X720722Y722163D01*
X720866Y722199D01*
X720890Y722211D01*
X720915Y722219D01*
X721044Y722291D01*
X721176Y722359D01*
X721196Y722376D01*
X721219Y722389D01*
X721405Y722547D01*
X723274Y724416D01*
X728315Y726504D01*
X733772Y726504D01*
X738814Y724416D01*
X739888Y723341D01*
X739909Y723325D01*
X739926Y723305D01*
X740045Y723217D01*
X740162Y723124D01*
X740185Y723113D01*
X740206Y723098D01*
X740343Y723039D01*
X740477Y722976D01*
X740502Y722970D01*
X740526Y722960D01*
X740672Y722933D01*
X740817Y722902D01*
X740843Y722903D01*
X740869Y722898D01*
X741018Y722906D01*
X741166Y722908D01*
X741191Y722915D01*
X741217Y722916D01*
X741360Y722957D01*
X741504Y722993D01*
X741527Y723005D01*
X741552Y723012D01*
X741682Y723085D01*
X741814Y723153D01*
X741833Y723170D01*
X741856Y723183D01*
X742043Y723341D01*
X743911Y725210D01*
X748953Y727298D01*
X754410Y727298D01*
X759451Y725210D01*
X763310Y721351D01*
X763371Y721204D01*
X763420Y721116D01*
X763460Y721024D01*
X763504Y720964D01*
X763540Y720899D01*
X763608Y720825D01*
X763668Y720744D01*
X763724Y720696D01*
X763774Y720641D01*
X763857Y720584D01*
X763934Y720519D01*
X764000Y720485D01*
X764061Y720443D01*
X764154Y720406D01*
X764244Y720360D01*
X764316Y720342D01*
X764385Y720315D01*
X764485Y720300D01*
X764582Y720276D01*
X764656Y720275D01*
X764730Y720264D01*
X764830Y720272D01*
X764930Y720271D01*
X765003Y720287D01*
X765077Y720293D01*
X765173Y720324D01*
X765271Y720345D01*
X765338Y720377D01*
X765409Y720400D01*
X765495Y720452D01*
X765586Y720495D01*
X765644Y720541D01*
X765707Y720580D01*
X765780Y720650D01*
X765858Y720712D01*
X765904Y720771D01*
X765957Y720822D01*
X766012Y720907D01*
X766074Y720986D01*
X766120Y721075D01*
X766146Y721116D01*
X766158Y721150D01*
X766185Y721204D01*
X766247Y721351D01*
X770105Y725210D01*
X775147Y727298D01*
X780603Y727298D01*
X785645Y725210D01*
X789503Y721351D01*
X791592Y716310D01*
X791592Y710853D01*
X789503Y705811D01*
X785942Y702250D01*
X785863Y702151D01*
X785779Y702057D01*
X785755Y702015D01*
X785725Y701977D01*
X785671Y701863D01*
X785610Y701752D01*
X785597Y701705D01*
X785576Y701662D01*
X785550Y701538D01*
X785515Y701416D01*
X785510Y701356D01*
X785503Y701321D01*
X785504Y701273D01*
X785496Y701173D01*
X785496Y639471D01*
X785510Y639346D01*
X785517Y639219D01*
X785530Y639173D01*
X785536Y639125D01*
X785578Y639006D01*
X785613Y638884D01*
X785637Y638842D01*
X785653Y638797D01*
X785722Y638691D01*
X785783Y638580D01*
X785823Y638534D01*
X785842Y638504D01*
X785877Y638470D01*
X785942Y638394D01*
X789503Y634832D01*
X791592Y629791D01*
X791592Y624334D01*
X789503Y619293D01*
X785645Y615434D01*
X780603Y613346D01*
X775147Y613346D01*
X770105Y615434D01*
X766944Y618595D01*
X766827Y618688D01*
X766712Y618785D01*
X766690Y618796D01*
X766671Y618811D01*
X766535Y618876D01*
X766402Y618944D01*
X766378Y618950D01*
X766356Y618960D01*
X766209Y618992D01*
X766063Y619028D01*
X766039Y619029D01*
X766015Y619034D01*
X765866Y619031D01*
X765715Y619033D01*
X765691Y619028D01*
X765667Y619028D01*
X765521Y618991D01*
X765374Y618959D01*
X765353Y618949D01*
X765329Y618943D01*
X765195Y618874D01*
X765060Y618809D01*
X765041Y618794D01*
X765019Y618783D01*
X764904Y618685D01*
X764787Y618592D01*
X764772Y618573D01*
X764754Y618557D01*
X764664Y618436D01*
X764571Y618318D01*
X764558Y618292D01*
X764547Y618277D01*
X764528Y618234D01*
X764460Y618101D01*
X763310Y615324D01*
X759451Y611465D01*
X754410Y609377D01*
X748953Y609377D01*
G37*
%LPD*%
%LPC*%
G36*
X733300Y742727D02*
X733300Y742727D01*
X725265Y750762D01*
X725265Y762125D01*
X733720Y770581D01*
X733737Y770602D01*
X733757Y770619D01*
X733845Y770738D01*
X733937Y770854D01*
X733948Y770878D01*
X733964Y770899D01*
X734022Y771035D01*
X734086Y771169D01*
X734091Y771195D01*
X734102Y771219D01*
X734128Y771364D01*
X734159Y771510D01*
X734159Y771536D01*
X734163Y771562D01*
X734156Y771710D01*
X734153Y771858D01*
X734147Y771884D01*
X734145Y771910D01*
X734104Y772052D01*
X734068Y772196D01*
X734056Y772220D01*
X734049Y772245D01*
X733977Y772374D01*
X733909Y772506D01*
X733892Y772526D01*
X733879Y772549D01*
X733720Y772735D01*
X728821Y777635D01*
X728821Y779304D01*
X737965Y779304D01*
X737991Y779307D01*
X738017Y779305D01*
X738164Y779327D01*
X738311Y779344D01*
X738336Y779353D01*
X738362Y779357D01*
X738500Y779412D01*
X738639Y779462D01*
X738661Y779476D01*
X738686Y779486D01*
X738807Y779570D01*
X738932Y779651D01*
X738950Y779670D01*
X738972Y779685D01*
X738986Y779701D01*
X739071Y779618D01*
X739094Y779605D01*
X739113Y779587D01*
X739243Y779516D01*
X739370Y779440D01*
X739395Y779432D01*
X739418Y779419D01*
X739561Y779378D01*
X739702Y779333D01*
X739728Y779331D01*
X739754Y779324D01*
X739997Y779304D01*
X749142Y779304D01*
X749142Y777635D01*
X744242Y772735D01*
X744226Y772715D01*
X744206Y772698D01*
X744118Y772578D01*
X744026Y772462D01*
X744014Y772439D01*
X743999Y772417D01*
X743940Y772281D01*
X743877Y772147D01*
X743871Y772122D01*
X743861Y772097D01*
X743835Y771951D01*
X743803Y771806D01*
X743804Y771780D01*
X743799Y771754D01*
X743807Y771606D01*
X743809Y771458D01*
X743816Y771433D01*
X743817Y771406D01*
X743858Y771264D01*
X743894Y771120D01*
X743906Y771097D01*
X743914Y771072D01*
X743986Y770942D01*
X744054Y770810D01*
X744071Y770790D01*
X744084Y770767D01*
X744242Y770581D01*
X750604Y764219D01*
X750625Y764203D01*
X750642Y764183D01*
X750761Y764095D01*
X750877Y764003D01*
X750901Y763991D01*
X750922Y763976D01*
X751058Y763917D01*
X751192Y763854D01*
X751218Y763848D01*
X751242Y763838D01*
X751388Y763811D01*
X751533Y763780D01*
X751559Y763781D01*
X751585Y763776D01*
X751734Y763784D01*
X751881Y763786D01*
X751907Y763793D01*
X751933Y763794D01*
X752075Y763835D01*
X752219Y763871D01*
X752243Y763883D01*
X752268Y763891D01*
X752397Y763963D01*
X752529Y764031D01*
X752549Y764048D01*
X752572Y764061D01*
X752758Y764219D01*
X759120Y770581D01*
X759137Y770602D01*
X759157Y770619D01*
X759245Y770738D01*
X759337Y770854D01*
X759348Y770878D01*
X759364Y770899D01*
X759422Y771035D01*
X759486Y771169D01*
X759491Y771195D01*
X759502Y771219D01*
X759528Y771365D01*
X759559Y771510D01*
X759559Y771536D01*
X759563Y771562D01*
X759556Y771710D01*
X759553Y771858D01*
X759547Y771884D01*
X759545Y771910D01*
X759504Y772052D01*
X759468Y772196D01*
X759456Y772220D01*
X759449Y772245D01*
X759377Y772374D01*
X759309Y772506D01*
X759292Y772526D01*
X759279Y772549D01*
X759120Y772735D01*
X754221Y777635D01*
X754221Y779304D01*
X763365Y779304D01*
X763391Y779307D01*
X763417Y779305D01*
X763564Y779327D01*
X763711Y779344D01*
X763736Y779353D01*
X763762Y779357D01*
X763900Y779412D01*
X764039Y779462D01*
X764061Y779476D01*
X764086Y779486D01*
X764207Y779570D01*
X764332Y779651D01*
X764350Y779670D01*
X764372Y779685D01*
X764471Y779795D01*
X764574Y779901D01*
X764588Y779924D01*
X764605Y779943D01*
X764677Y780073D01*
X764753Y780201D01*
X764761Y780226D01*
X764774Y780249D01*
X764814Y780391D01*
X764859Y780533D01*
X764862Y780559D01*
X764869Y780584D01*
X764888Y780828D01*
X764888Y781337D01*
X765397Y781337D01*
X765423Y781340D01*
X765449Y781338D01*
X765596Y781360D01*
X765743Y781377D01*
X765768Y781385D01*
X765794Y781389D01*
X765932Y781444D01*
X766072Y781494D01*
X766094Y781508D01*
X766118Y781518D01*
X766240Y781603D01*
X766364Y781683D01*
X766383Y781702D01*
X766404Y781717D01*
X766503Y781827D01*
X766607Y781934D01*
X766620Y781956D01*
X766638Y781976D01*
X766709Y782106D01*
X766785Y782233D01*
X766793Y782258D01*
X766806Y782281D01*
X766847Y782424D01*
X766892Y782565D01*
X766894Y782591D01*
X766901Y782616D01*
X766921Y782860D01*
X766921Y792004D01*
X768590Y792004D01*
X773490Y787105D01*
X773510Y787088D01*
X773527Y787068D01*
X773647Y786980D01*
X773763Y786888D01*
X773786Y786877D01*
X773808Y786861D01*
X773944Y786803D01*
X774078Y786739D01*
X774103Y786734D01*
X774128Y786723D01*
X774274Y786697D01*
X774419Y786666D01*
X774445Y786666D01*
X774471Y786662D01*
X774619Y786669D01*
X774767Y786672D01*
X774792Y786678D01*
X774819Y786680D01*
X774961Y786721D01*
X775105Y786757D01*
X775128Y786769D01*
X775153Y786776D01*
X775283Y786848D01*
X775415Y786916D01*
X775435Y786933D01*
X775458Y786946D01*
X775644Y787105D01*
X784100Y795560D01*
X795463Y795560D01*
X801404Y789619D01*
X801425Y789603D01*
X801442Y789583D01*
X801561Y789495D01*
X801677Y789403D01*
X801701Y789391D01*
X801722Y789376D01*
X801858Y789317D01*
X801992Y789254D01*
X802018Y789248D01*
X802042Y789238D01*
X802188Y789211D01*
X802333Y789180D01*
X802359Y789181D01*
X802385Y789176D01*
X802534Y789184D01*
X802681Y789186D01*
X802707Y789193D01*
X802733Y789194D01*
X802876Y789235D01*
X803019Y789271D01*
X803043Y789283D01*
X803068Y789291D01*
X803197Y789363D01*
X803329Y789431D01*
X803349Y789448D01*
X803372Y789461D01*
X803558Y789619D01*
X809500Y795560D01*
X820863Y795560D01*
X829319Y787105D01*
X829339Y787088D01*
X829356Y787068D01*
X829476Y786980D01*
X829592Y786888D01*
X829615Y786877D01*
X829636Y786861D01*
X829773Y786803D01*
X829907Y786739D01*
X829932Y786734D01*
X829956Y786723D01*
X830103Y786697D01*
X830247Y786666D01*
X830274Y786666D01*
X830299Y786662D01*
X830448Y786669D01*
X830596Y786672D01*
X830621Y786678D01*
X830648Y786680D01*
X830790Y786721D01*
X830934Y786757D01*
X830957Y786769D01*
X830982Y786776D01*
X831112Y786849D01*
X831244Y786916D01*
X831264Y786933D01*
X831287Y786946D01*
X831473Y787105D01*
X836373Y792004D01*
X838042Y792004D01*
X838042Y782860D01*
X838045Y782834D01*
X838043Y782808D01*
X838065Y782661D01*
X838082Y782514D01*
X838091Y782489D01*
X838095Y782463D01*
X838149Y782325D01*
X838199Y782186D01*
X838214Y782164D01*
X838223Y782139D01*
X838308Y782018D01*
X838388Y781893D01*
X838407Y781875D01*
X838422Y781853D01*
X838532Y781754D01*
X838639Y781651D01*
X838662Y781637D01*
X838681Y781620D01*
X838811Y781548D01*
X838938Y781472D01*
X838963Y781464D01*
X838986Y781451D01*
X839129Y781411D01*
X839270Y781366D01*
X839296Y781363D01*
X839321Y781356D01*
X839565Y781337D01*
X841597Y781337D01*
X841623Y781340D01*
X841649Y781338D01*
X841796Y781360D01*
X841943Y781377D01*
X841968Y781385D01*
X841994Y781389D01*
X842132Y781444D01*
X842272Y781494D01*
X842294Y781508D01*
X842318Y781518D01*
X842440Y781603D01*
X842564Y781683D01*
X842583Y781702D01*
X842604Y781717D01*
X842703Y781827D01*
X842807Y781934D01*
X842820Y781956D01*
X842838Y781976D01*
X842909Y782106D01*
X842985Y782233D01*
X842993Y782258D01*
X843006Y782281D01*
X843047Y782424D01*
X843092Y782565D01*
X843094Y782591D01*
X843101Y782616D01*
X843121Y782860D01*
X843121Y792004D01*
X844790Y792004D01*
X849690Y787105D01*
X849710Y787088D01*
X849727Y787068D01*
X849847Y786980D01*
X849963Y786888D01*
X849986Y786877D01*
X850007Y786861D01*
X850144Y786803D01*
X850278Y786739D01*
X850303Y786734D01*
X850328Y786723D01*
X850474Y786697D01*
X850618Y786666D01*
X850645Y786666D01*
X850671Y786662D01*
X850819Y786669D01*
X850967Y786672D01*
X850992Y786678D01*
X851019Y786680D01*
X851161Y786721D01*
X851305Y786757D01*
X851328Y786769D01*
X851353Y786776D01*
X851483Y786848D01*
X851615Y786916D01*
X851635Y786933D01*
X851658Y786946D01*
X851844Y787105D01*
X860300Y795560D01*
X871663Y795560D01*
X880119Y787105D01*
X880139Y787088D01*
X880156Y787068D01*
X880276Y786980D01*
X880392Y786888D01*
X880415Y786877D01*
X880436Y786861D01*
X880573Y786803D01*
X880707Y786739D01*
X880732Y786734D01*
X880756Y786723D01*
X880903Y786697D01*
X881047Y786666D01*
X881074Y786666D01*
X881099Y786662D01*
X881248Y786669D01*
X881396Y786672D01*
X881421Y786678D01*
X881448Y786680D01*
X881590Y786721D01*
X881734Y786757D01*
X881757Y786769D01*
X881782Y786776D01*
X881912Y786849D01*
X882044Y786916D01*
X882064Y786933D01*
X882087Y786946D01*
X882273Y787105D01*
X887173Y792004D01*
X888842Y792004D01*
X888842Y782860D01*
X888845Y782834D01*
X888843Y782808D01*
X888865Y782661D01*
X888882Y782514D01*
X888891Y782489D01*
X888895Y782463D01*
X888949Y782325D01*
X888999Y782186D01*
X889014Y782164D01*
X889023Y782139D01*
X889108Y782018D01*
X889188Y781893D01*
X889207Y781875D01*
X889222Y781853D01*
X889332Y781754D01*
X889439Y781651D01*
X889462Y781637D01*
X889481Y781620D01*
X889611Y781548D01*
X889738Y781472D01*
X889763Y781464D01*
X889786Y781451D01*
X889929Y781411D01*
X890070Y781366D01*
X890096Y781363D01*
X890121Y781356D01*
X890365Y781337D01*
X890874Y781337D01*
X890874Y780828D01*
X890877Y780802D01*
X890875Y780775D01*
X890897Y780629D01*
X890914Y780481D01*
X890923Y780457D01*
X890927Y780431D01*
X890982Y780293D01*
X891032Y780153D01*
X891046Y780131D01*
X891056Y780107D01*
X891140Y779985D01*
X891221Y779861D01*
X891240Y779842D01*
X891254Y779821D01*
X891364Y779722D01*
X891471Y779618D01*
X891494Y779605D01*
X891513Y779587D01*
X891643Y779516D01*
X891770Y779440D01*
X891795Y779432D01*
X891818Y779419D01*
X891961Y779378D01*
X892102Y779333D01*
X892128Y779331D01*
X892154Y779324D01*
X892397Y779304D01*
X901542Y779304D01*
X901542Y777635D01*
X896642Y772735D01*
X896626Y772715D01*
X896606Y772698D01*
X896518Y772578D01*
X896426Y772462D01*
X896414Y772439D01*
X896399Y772417D01*
X896340Y772281D01*
X896277Y772147D01*
X896271Y772122D01*
X896261Y772097D01*
X896235Y771951D01*
X896203Y771806D01*
X896204Y771780D01*
X896199Y771754D01*
X896207Y771606D01*
X896209Y771458D01*
X896216Y771433D01*
X896217Y771406D01*
X896258Y771264D01*
X896294Y771120D01*
X896306Y771097D01*
X896314Y771072D01*
X896386Y770942D01*
X896454Y770810D01*
X896471Y770790D01*
X896484Y770767D01*
X896642Y770581D01*
X905098Y762125D01*
X905098Y750762D01*
X897063Y742727D01*
X885700Y742727D01*
X879758Y748668D01*
X879738Y748685D01*
X879721Y748705D01*
X879601Y748793D01*
X879485Y748885D01*
X879462Y748896D01*
X879441Y748912D01*
X879304Y748970D01*
X879170Y749034D01*
X879145Y749039D01*
X879121Y749050D01*
X878974Y749076D01*
X878830Y749107D01*
X878803Y749107D01*
X878778Y749111D01*
X878629Y749104D01*
X878481Y749101D01*
X878456Y749095D01*
X878429Y749093D01*
X878287Y749052D01*
X878143Y749016D01*
X878120Y749004D01*
X878095Y748997D01*
X877965Y748925D01*
X877833Y748857D01*
X877813Y748840D01*
X877790Y748827D01*
X877604Y748668D01*
X871663Y742727D01*
X860300Y742727D01*
X854358Y748668D01*
X854338Y748685D01*
X854321Y748705D01*
X854201Y748793D01*
X854085Y748885D01*
X854062Y748896D01*
X854041Y748912D01*
X853904Y748970D01*
X853770Y749034D01*
X853745Y749039D01*
X853721Y749050D01*
X853574Y749076D01*
X853430Y749107D01*
X853403Y749107D01*
X853378Y749111D01*
X853229Y749104D01*
X853081Y749101D01*
X853056Y749095D01*
X853029Y749093D01*
X852887Y749052D01*
X852743Y749016D01*
X852720Y749004D01*
X852695Y748997D01*
X852565Y748925D01*
X852433Y748857D01*
X852413Y748840D01*
X852390Y748827D01*
X852204Y748668D01*
X846263Y742727D01*
X834900Y742727D01*
X828958Y748668D01*
X828938Y748685D01*
X828921Y748705D01*
X828801Y748793D01*
X828685Y748885D01*
X828662Y748896D01*
X828641Y748912D01*
X828504Y748970D01*
X828370Y749034D01*
X828345Y749039D01*
X828320Y749050D01*
X828174Y749076D01*
X828030Y749107D01*
X828003Y749107D01*
X827977Y749111D01*
X827829Y749104D01*
X827681Y749101D01*
X827656Y749095D01*
X827629Y749093D01*
X827487Y749052D01*
X827343Y749016D01*
X827320Y749004D01*
X827295Y748997D01*
X827165Y748924D01*
X827033Y748857D01*
X827013Y748840D01*
X826990Y748827D01*
X826804Y748668D01*
X820863Y742727D01*
X809500Y742727D01*
X803558Y748668D01*
X803538Y748685D01*
X803521Y748705D01*
X803401Y748793D01*
X803285Y748885D01*
X803262Y748896D01*
X803241Y748912D01*
X803104Y748970D01*
X802970Y749034D01*
X802945Y749039D01*
X802921Y749050D01*
X802774Y749076D01*
X802630Y749107D01*
X802603Y749107D01*
X802578Y749111D01*
X802429Y749104D01*
X802281Y749101D01*
X802256Y749095D01*
X802229Y749093D01*
X802087Y749052D01*
X801943Y749016D01*
X801920Y749004D01*
X801895Y748997D01*
X801765Y748925D01*
X801633Y748857D01*
X801613Y748840D01*
X801590Y748827D01*
X801404Y748668D01*
X795463Y742727D01*
X784100Y742727D01*
X778158Y748668D01*
X778138Y748685D01*
X778121Y748705D01*
X778001Y748793D01*
X777885Y748885D01*
X777862Y748896D01*
X777841Y748912D01*
X777704Y748970D01*
X777570Y749034D01*
X777545Y749039D01*
X777521Y749050D01*
X777374Y749076D01*
X777230Y749107D01*
X777203Y749107D01*
X777178Y749111D01*
X777029Y749104D01*
X776881Y749101D01*
X776856Y749095D01*
X776829Y749093D01*
X776687Y749052D01*
X776543Y749016D01*
X776520Y749004D01*
X776495Y748997D01*
X776365Y748925D01*
X776233Y748857D01*
X776213Y748840D01*
X776190Y748827D01*
X776004Y748668D01*
X770063Y742727D01*
X758700Y742727D01*
X752758Y748668D01*
X752738Y748685D01*
X752721Y748705D01*
X752601Y748793D01*
X752485Y748885D01*
X752462Y748896D01*
X752441Y748912D01*
X752304Y748970D01*
X752170Y749034D01*
X752145Y749039D01*
X752121Y749050D01*
X751974Y749076D01*
X751830Y749107D01*
X751803Y749107D01*
X751778Y749111D01*
X751629Y749104D01*
X751481Y749101D01*
X751456Y749095D01*
X751429Y749093D01*
X751287Y749052D01*
X751143Y749016D01*
X751120Y749004D01*
X751095Y748997D01*
X750965Y748925D01*
X750833Y748857D01*
X750813Y748840D01*
X750790Y748827D01*
X750604Y748668D01*
X744663Y742727D01*
X733300Y742727D01*
G37*
%LPD*%
%LPC*%
G36*
X914305Y364585D02*
X914305Y364585D01*
X909731Y366479D01*
X906892Y369318D01*
X906832Y369366D01*
X906779Y369420D01*
X906696Y369474D01*
X906619Y369535D01*
X906550Y369567D01*
X906486Y369609D01*
X906393Y369642D01*
X906304Y369684D01*
X906229Y369700D01*
X906157Y369725D01*
X906059Y369736D01*
X905963Y369757D01*
X905887Y369756D01*
X905811Y369764D01*
X905713Y369753D01*
X905615Y369751D01*
X905541Y369732D01*
X905465Y369723D01*
X905323Y369678D01*
X905277Y369666D01*
X905260Y369657D01*
X905232Y369648D01*
X902588Y368553D01*
X897637Y368553D01*
X893062Y370448D01*
X889561Y373949D01*
X887666Y378524D01*
X887666Y383476D01*
X889561Y388051D01*
X891752Y390242D01*
X891768Y390262D01*
X891788Y390279D01*
X891876Y390399D01*
X891968Y390515D01*
X891980Y390538D01*
X891995Y390559D01*
X892054Y390695D01*
X892117Y390830D01*
X892123Y390855D01*
X892133Y390879D01*
X892160Y391026D01*
X892191Y391170D01*
X892190Y391197D01*
X892195Y391222D01*
X892187Y391371D01*
X892185Y391519D01*
X892178Y391544D01*
X892177Y391571D01*
X892136Y391713D01*
X892100Y391857D01*
X892088Y391880D01*
X892080Y391905D01*
X892008Y392035D01*
X891940Y392167D01*
X891923Y392187D01*
X891910Y392210D01*
X891752Y392396D01*
X889561Y394587D01*
X887666Y399162D01*
X887666Y401651D01*
X887660Y401701D01*
X887662Y401751D01*
X887640Y401873D01*
X887626Y401997D01*
X887609Y402044D01*
X887600Y402094D01*
X887550Y402208D01*
X887508Y402325D01*
X887481Y402367D01*
X887461Y402413D01*
X887387Y402513D01*
X887319Y402618D01*
X887283Y402653D01*
X887253Y402693D01*
X887158Y402773D01*
X887069Y402860D01*
X887026Y402886D01*
X886987Y402918D01*
X886876Y402975D01*
X886770Y403039D01*
X886722Y403054D01*
X886677Y403077D01*
X886556Y403107D01*
X886438Y403145D01*
X886387Y403149D01*
X886339Y403161D01*
X886214Y403163D01*
X886090Y403173D01*
X886041Y403165D01*
X885990Y403166D01*
X885869Y403140D01*
X885746Y403121D01*
X885699Y403103D01*
X885650Y403092D01*
X885537Y403038D01*
X885422Y402992D01*
X885381Y402964D01*
X885335Y402942D01*
X885238Y402864D01*
X885136Y402794D01*
X885102Y402756D01*
X885063Y402725D01*
X884985Y402627D01*
X884902Y402535D01*
X884878Y402491D01*
X884847Y402451D01*
X884735Y402233D01*
X882883Y397762D01*
X879382Y394261D01*
X874807Y392366D01*
X869855Y392366D01*
X865281Y394261D01*
X862796Y396746D01*
X862697Y396824D01*
X862603Y396909D01*
X862561Y396932D01*
X862523Y396962D01*
X862409Y397016D01*
X862298Y397077D01*
X862251Y397091D01*
X862208Y397111D01*
X862084Y397138D01*
X861962Y397172D01*
X861902Y397177D01*
X861867Y397185D01*
X861819Y397184D01*
X861719Y397192D01*
X859131Y397192D01*
X859006Y397177D01*
X858879Y397171D01*
X858833Y397157D01*
X858785Y397152D01*
X858666Y397109D01*
X858545Y397074D01*
X858502Y397051D01*
X858457Y397034D01*
X858351Y396966D01*
X858240Y396904D01*
X858194Y396865D01*
X858164Y396845D01*
X858131Y396811D01*
X858054Y396746D01*
X855569Y394261D01*
X850995Y392366D01*
X846043Y392366D01*
X841468Y394261D01*
X837967Y397762D01*
X836072Y402337D01*
X836072Y407288D01*
X837967Y411863D01*
X841468Y415364D01*
X846043Y417259D01*
X850995Y417259D01*
X855569Y415364D01*
X858054Y412879D01*
X858153Y412801D01*
X858247Y412716D01*
X858289Y412693D01*
X858327Y412663D01*
X858441Y412609D01*
X858552Y412548D01*
X858599Y412534D01*
X858642Y412514D01*
X858766Y412487D01*
X858888Y412453D01*
X858948Y412448D01*
X858983Y412440D01*
X859031Y412441D01*
X859131Y412433D01*
X861719Y412433D01*
X861844Y412448D01*
X861971Y412454D01*
X862017Y412468D01*
X862065Y412473D01*
X862184Y412516D01*
X862305Y412551D01*
X862348Y412574D01*
X862393Y412591D01*
X862499Y412659D01*
X862610Y412721D01*
X862656Y412760D01*
X862686Y412780D01*
X862719Y412814D01*
X862796Y412879D01*
X865281Y415364D01*
X869855Y417259D01*
X874807Y417259D01*
X879382Y415364D01*
X882883Y411863D01*
X884778Y407288D01*
X884778Y404799D01*
X884784Y404749D01*
X884781Y404699D01*
X884804Y404577D01*
X884818Y404453D01*
X884835Y404406D01*
X884844Y404356D01*
X884893Y404242D01*
X884935Y404125D01*
X884963Y404083D01*
X884983Y404037D01*
X885057Y403937D01*
X885124Y403832D01*
X885161Y403797D01*
X885191Y403757D01*
X885286Y403677D01*
X885375Y403590D01*
X885418Y403564D01*
X885457Y403532D01*
X885567Y403475D01*
X885674Y403411D01*
X885722Y403396D01*
X885767Y403373D01*
X885887Y403343D01*
X886006Y403305D01*
X886056Y403301D01*
X886105Y403289D01*
X886230Y403287D01*
X886353Y403277D01*
X886403Y403285D01*
X886454Y403284D01*
X886575Y403310D01*
X886698Y403329D01*
X886745Y403347D01*
X886794Y403358D01*
X886906Y403412D01*
X887022Y403458D01*
X887063Y403486D01*
X887109Y403508D01*
X887206Y403586D01*
X887308Y403656D01*
X887342Y403694D01*
X887381Y403725D01*
X887458Y403823D01*
X887542Y403915D01*
X887566Y403959D01*
X887597Y403999D01*
X887709Y404217D01*
X889561Y408688D01*
X893062Y412189D01*
X897637Y414084D01*
X902588Y414084D01*
X906916Y412292D01*
X906989Y412271D01*
X907059Y412240D01*
X907156Y412223D01*
X907251Y412196D01*
X907327Y412192D01*
X907402Y412179D01*
X907501Y412184D01*
X907599Y412179D01*
X907674Y412193D01*
X907751Y412197D01*
X907845Y412224D01*
X907942Y412242D01*
X908012Y412272D01*
X908085Y412293D01*
X908171Y412341D01*
X908262Y412381D01*
X908323Y412426D01*
X908390Y412463D01*
X908503Y412560D01*
X908541Y412588D01*
X908554Y412603D01*
X908576Y412622D01*
X909731Y413777D01*
X914305Y415672D01*
X919257Y415672D01*
X923832Y413777D01*
X927333Y410276D01*
X929228Y405701D01*
X929228Y400749D01*
X927333Y396174D01*
X924975Y393817D01*
X924897Y393718D01*
X924812Y393624D01*
X924789Y393581D01*
X924759Y393544D01*
X924705Y393429D01*
X924643Y393319D01*
X924630Y393272D01*
X924610Y393228D01*
X924583Y393105D01*
X924549Y392983D01*
X924544Y392922D01*
X924536Y392888D01*
X924537Y392840D01*
X924529Y392739D01*
X924529Y387517D01*
X924543Y387391D01*
X924550Y387265D01*
X924563Y387219D01*
X924569Y387171D01*
X924611Y387052D01*
X924646Y386930D01*
X924670Y386888D01*
X924686Y386842D01*
X924755Y386736D01*
X924817Y386626D01*
X924856Y386580D01*
X924875Y386550D01*
X924910Y386516D01*
X924975Y386440D01*
X927333Y384082D01*
X929228Y379507D01*
X929228Y374555D01*
X927333Y369981D01*
X923832Y366479D01*
X919257Y364585D01*
X914305Y364585D01*
G37*
%LPD*%
%LPC*%
G36*
X997397Y750665D02*
X997397Y750665D01*
X992355Y752753D01*
X988497Y756611D01*
X987453Y759131D01*
X987380Y759262D01*
X987311Y759396D01*
X987295Y759414D01*
X987284Y759435D01*
X987183Y759547D01*
X987085Y759661D01*
X987066Y759676D01*
X987050Y759693D01*
X986926Y759779D01*
X986805Y759868D01*
X986783Y759878D01*
X986763Y759892D01*
X986623Y759947D01*
X986485Y760006D01*
X986461Y760011D01*
X986439Y760019D01*
X986290Y760041D01*
X986142Y760068D01*
X986118Y760067D01*
X986094Y760070D01*
X985944Y760058D01*
X985794Y760050D01*
X985771Y760043D01*
X985747Y760041D01*
X985603Y759995D01*
X985459Y759954D01*
X985438Y759942D01*
X985415Y759934D01*
X985286Y759857D01*
X985155Y759783D01*
X985133Y759764D01*
X985116Y759755D01*
X985082Y759722D01*
X984969Y759625D01*
X977010Y751666D01*
X964503Y751666D01*
X955660Y760509D01*
X955660Y773016D01*
X964503Y781859D01*
X977010Y781859D01*
X985866Y773003D01*
X985866Y772985D01*
X985884Y772913D01*
X985893Y772839D01*
X985927Y772744D01*
X985951Y772647D01*
X985985Y772581D01*
X986010Y772511D01*
X986065Y772426D01*
X986111Y772337D01*
X986159Y772280D01*
X986199Y772218D01*
X986272Y772148D01*
X986337Y772072D01*
X986396Y772028D01*
X986450Y771976D01*
X986536Y771924D01*
X986617Y771865D01*
X986685Y771835D01*
X986749Y771797D01*
X986845Y771766D01*
X986937Y771727D01*
X987010Y771713D01*
X987081Y771691D01*
X987181Y771683D01*
X987280Y771665D01*
X987354Y771669D01*
X987428Y771663D01*
X987528Y771678D01*
X987628Y771683D01*
X987699Y771703D01*
X987773Y771714D01*
X987866Y771751D01*
X987963Y771779D01*
X988028Y771816D01*
X988097Y771843D01*
X988179Y771900D01*
X988267Y771949D01*
X988344Y772015D01*
X988383Y772042D01*
X988407Y772069D01*
X988453Y772108D01*
X990407Y774062D01*
X990486Y774161D01*
X990570Y774255D01*
X990594Y774297D01*
X990624Y774335D01*
X990678Y774449D01*
X990739Y774560D01*
X990752Y774606D01*
X990773Y774650D01*
X990799Y774773D01*
X990834Y774895D01*
X990839Y774956D01*
X990846Y774991D01*
X990845Y775039D01*
X990853Y775139D01*
X990853Y818711D01*
X990839Y818837D01*
X990832Y818963D01*
X990819Y819009D01*
X990813Y819057D01*
X990771Y819176D01*
X990736Y819298D01*
X990712Y819340D01*
X990696Y819385D01*
X990627Y819492D01*
X990566Y819602D01*
X990526Y819648D01*
X990507Y819678D01*
X990472Y819712D01*
X990407Y819788D01*
X988497Y821699D01*
X986408Y826740D01*
X986408Y832197D01*
X988497Y837239D01*
X992355Y841097D01*
X997397Y843185D01*
X1002853Y843185D01*
X1007895Y841097D01*
X1011753Y837239D01*
X1013842Y832197D01*
X1013842Y826740D01*
X1011753Y821699D01*
X1009843Y819788D01*
X1009764Y819689D01*
X1009680Y819595D01*
X1009656Y819553D01*
X1009626Y819515D01*
X1009572Y819401D01*
X1009511Y819290D01*
X1009498Y819244D01*
X1009477Y819200D01*
X1009451Y819077D01*
X1009416Y818955D01*
X1009411Y818894D01*
X1009404Y818859D01*
X1009405Y818811D01*
X1009397Y818711D01*
X1009397Y775139D01*
X1009411Y775013D01*
X1009418Y774887D01*
X1009431Y774841D01*
X1009437Y774793D01*
X1009479Y774674D01*
X1009514Y774552D01*
X1009538Y774510D01*
X1009554Y774465D01*
X1009623Y774358D01*
X1009684Y774248D01*
X1009724Y774202D01*
X1009743Y774172D01*
X1009778Y774138D01*
X1009843Y774062D01*
X1011753Y772151D01*
X1013842Y767110D01*
X1013842Y761653D01*
X1011753Y756611D01*
X1007895Y752753D01*
X1002853Y750665D01*
X997397Y750665D01*
G37*
%LPD*%
%LPC*%
G36*
X1114872Y424433D02*
X1114872Y424433D01*
X1109830Y426522D01*
X1105972Y430380D01*
X1103883Y435422D01*
X1103883Y440878D01*
X1105972Y445920D01*
X1109533Y449482D01*
X1109612Y449581D01*
X1109696Y449674D01*
X1109720Y449717D01*
X1109750Y449755D01*
X1109804Y449869D01*
X1109865Y449979D01*
X1109878Y450026D01*
X1109899Y450070D01*
X1109925Y450193D01*
X1109960Y450315D01*
X1109965Y450376D01*
X1109972Y450410D01*
X1109971Y450458D01*
X1109979Y450559D01*
X1109979Y470985D01*
X1109965Y471111D01*
X1109958Y471237D01*
X1109945Y471283D01*
X1109939Y471331D01*
X1109897Y471450D01*
X1109862Y471572D01*
X1109838Y471614D01*
X1109822Y471659D01*
X1109753Y471766D01*
X1109692Y471876D01*
X1109652Y471922D01*
X1109633Y471952D01*
X1109598Y471986D01*
X1109533Y472062D01*
X1105972Y475624D01*
X1103883Y480665D01*
X1103883Y486122D01*
X1105972Y491164D01*
X1109830Y495022D01*
X1114872Y497110D01*
X1120328Y497110D01*
X1125370Y495022D01*
X1129228Y491164D01*
X1131317Y486122D01*
X1131317Y480665D01*
X1129228Y475624D01*
X1125667Y472062D01*
X1125588Y471963D01*
X1125504Y471869D01*
X1125480Y471827D01*
X1125450Y471789D01*
X1125396Y471675D01*
X1125335Y471564D01*
X1125322Y471518D01*
X1125301Y471474D01*
X1125275Y471351D01*
X1125240Y471229D01*
X1125235Y471168D01*
X1125228Y471133D01*
X1125229Y471085D01*
X1125221Y470985D01*
X1125221Y450559D01*
X1125235Y450433D01*
X1125242Y450307D01*
X1125255Y450260D01*
X1125261Y450212D01*
X1125303Y450093D01*
X1125338Y449972D01*
X1125362Y449930D01*
X1125378Y449884D01*
X1125447Y449778D01*
X1125508Y449668D01*
X1125548Y449621D01*
X1125567Y449591D01*
X1125602Y449558D01*
X1125667Y449482D01*
X1129228Y445920D01*
X1131317Y440878D01*
X1131317Y435422D01*
X1129228Y430380D01*
X1125370Y426522D01*
X1120328Y424433D01*
X1114872Y424433D01*
G37*
%LPD*%
%LPC*%
G36*
X613864Y670528D02*
X613864Y670528D01*
X608542Y672732D01*
X604469Y676805D01*
X602265Y682126D01*
X602265Y687886D01*
X604469Y693208D01*
X608557Y697295D01*
X608575Y697302D01*
X608655Y697358D01*
X608741Y697406D01*
X608798Y697458D01*
X608861Y697501D01*
X608926Y697574D01*
X608999Y697640D01*
X609043Y697703D01*
X609094Y697760D01*
X609142Y697846D01*
X609198Y697927D01*
X609226Y697998D01*
X609263Y698065D01*
X609289Y698160D01*
X609325Y698251D01*
X609337Y698327D01*
X609357Y698401D01*
X609369Y698550D01*
X609376Y698596D01*
X609375Y698615D01*
X609377Y698644D01*
X609377Y707087D01*
X609368Y707163D01*
X609369Y707239D01*
X609348Y707336D01*
X609337Y707433D01*
X609311Y707505D01*
X609295Y707580D01*
X609253Y707669D01*
X609220Y707761D01*
X609178Y707825D01*
X609145Y707895D01*
X609084Y707972D01*
X609031Y708054D01*
X608976Y708107D01*
X608928Y708167D01*
X608851Y708228D01*
X608780Y708296D01*
X608714Y708336D01*
X608654Y708383D01*
X608563Y708429D01*
X604469Y712523D01*
X602265Y717845D01*
X602265Y723605D01*
X604469Y728927D01*
X608542Y732999D01*
X613864Y735204D01*
X619624Y735204D01*
X624945Y732999D01*
X629018Y728927D01*
X631222Y723605D01*
X631222Y717845D01*
X629018Y712523D01*
X624931Y708436D01*
X624913Y708429D01*
X624832Y708373D01*
X624746Y708325D01*
X624690Y708274D01*
X624627Y708230D01*
X624561Y708157D01*
X624488Y708091D01*
X624445Y708028D01*
X624393Y707971D01*
X624346Y707885D01*
X624290Y707804D01*
X624262Y707733D01*
X624225Y707666D01*
X624198Y707571D01*
X624162Y707480D01*
X624151Y707404D01*
X624130Y707331D01*
X624118Y707182D01*
X624111Y707135D01*
X624113Y707116D01*
X624110Y707087D01*
X624110Y698644D01*
X624119Y698568D01*
X624118Y698492D01*
X624139Y698396D01*
X624150Y698298D01*
X624176Y698226D01*
X624192Y698151D01*
X624235Y698062D01*
X624268Y697970D01*
X624309Y697906D01*
X624342Y697837D01*
X624404Y697760D01*
X624457Y697677D01*
X624512Y697624D01*
X624560Y697564D01*
X624637Y697503D01*
X624708Y697435D01*
X624773Y697396D01*
X624833Y697348D01*
X624924Y697302D01*
X629018Y693208D01*
X631222Y687886D01*
X631222Y682126D01*
X629018Y676805D01*
X624945Y672732D01*
X619624Y670528D01*
X613864Y670528D01*
G37*
%LPD*%
%LPC*%
G36*
X1268859Y450627D02*
X1268859Y450627D01*
X1263818Y452715D01*
X1259959Y456574D01*
X1257871Y461615D01*
X1257871Y467072D01*
X1259959Y472114D01*
X1263818Y475972D01*
X1268859Y478060D01*
X1274316Y478060D01*
X1279357Y475972D01*
X1282411Y472919D01*
X1282510Y472840D01*
X1282604Y472755D01*
X1282646Y472732D01*
X1282684Y472702D01*
X1282798Y472648D01*
X1282909Y472587D01*
X1282955Y472574D01*
X1282999Y472553D01*
X1283122Y472527D01*
X1283244Y472492D01*
X1283305Y472487D01*
X1283340Y472480D01*
X1283388Y472481D01*
X1283488Y472472D01*
X1294612Y472472D01*
X1294737Y472487D01*
X1294864Y472493D01*
X1294910Y472507D01*
X1294958Y472512D01*
X1295077Y472555D01*
X1295199Y472590D01*
X1295241Y472614D01*
X1295286Y472630D01*
X1295392Y472698D01*
X1295503Y472760D01*
X1295549Y472800D01*
X1295579Y472819D01*
X1295613Y472854D01*
X1295689Y472919D01*
X1298743Y475972D01*
X1303784Y478060D01*
X1309241Y478060D01*
X1314282Y475972D01*
X1318141Y472114D01*
X1320229Y467072D01*
X1320229Y461615D01*
X1318141Y456574D01*
X1314282Y452715D01*
X1309241Y450627D01*
X1303784Y450627D01*
X1298743Y452715D01*
X1295689Y455769D01*
X1295590Y455847D01*
X1295496Y455932D01*
X1295454Y455955D01*
X1295416Y455985D01*
X1295302Y456039D01*
X1295191Y456101D01*
X1295145Y456114D01*
X1295101Y456134D01*
X1294978Y456161D01*
X1294856Y456195D01*
X1294795Y456200D01*
X1294760Y456208D01*
X1294712Y456207D01*
X1294612Y456215D01*
X1283488Y456215D01*
X1283363Y456201D01*
X1283236Y456194D01*
X1283190Y456181D01*
X1283142Y456175D01*
X1283023Y456133D01*
X1282901Y456098D01*
X1282859Y456074D01*
X1282814Y456058D01*
X1282708Y455989D01*
X1282597Y455927D01*
X1282551Y455888D01*
X1282521Y455869D01*
X1282487Y455834D01*
X1282411Y455769D01*
X1279357Y452715D01*
X1274316Y450627D01*
X1268859Y450627D01*
G37*
%LPD*%
%LPC*%
G36*
X564266Y341950D02*
X564266Y341950D01*
X564244Y341964D01*
X564224Y341981D01*
X564094Y342053D01*
X563967Y342129D01*
X563942Y342137D01*
X563919Y342150D01*
X563776Y342190D01*
X563635Y342235D01*
X563609Y342237D01*
X563584Y342245D01*
X563340Y342264D01*
X546878Y342264D01*
X547320Y343625D01*
X548046Y345050D01*
X548986Y346344D01*
X550117Y347475D01*
X551411Y348415D01*
X552871Y349159D01*
X552905Y349182D01*
X552943Y349198D01*
X553050Y349278D01*
X553162Y349352D01*
X553190Y349382D01*
X553222Y349406D01*
X553309Y349508D01*
X553401Y349606D01*
X553421Y349641D01*
X553448Y349672D01*
X553508Y349791D01*
X553576Y349907D01*
X553588Y349946D01*
X553606Y349982D01*
X553639Y350112D01*
X553678Y350240D01*
X553681Y350281D01*
X553690Y350321D01*
X553692Y350454D01*
X553701Y350588D01*
X553695Y350628D01*
X553696Y350669D01*
X553667Y350800D01*
X553645Y350932D01*
X553630Y350970D01*
X553621Y351010D01*
X553564Y351130D01*
X553513Y351254D01*
X553489Y351288D01*
X553471Y351324D01*
X553388Y351429D01*
X553310Y351538D01*
X553280Y351565D01*
X553254Y351597D01*
X553149Y351680D01*
X553048Y351768D01*
X553013Y351787D01*
X552981Y351813D01*
X552763Y351924D01*
X548966Y353497D01*
X545108Y357355D01*
X543020Y362397D01*
X543020Y367853D01*
X545108Y372895D01*
X548966Y376753D01*
X554008Y378842D01*
X574705Y378842D01*
X579746Y376753D01*
X583605Y372895D01*
X585693Y367853D01*
X585693Y362397D01*
X583605Y357355D01*
X579746Y353497D01*
X575950Y351924D01*
X575914Y351904D01*
X575876Y351891D01*
X575762Y351820D01*
X575645Y351755D01*
X575615Y351727D01*
X575580Y351706D01*
X575486Y351611D01*
X575387Y351521D01*
X575364Y351487D01*
X575335Y351458D01*
X575265Y351344D01*
X575189Y351234D01*
X575174Y351196D01*
X575152Y351161D01*
X575110Y351034D01*
X575061Y350910D01*
X575055Y350869D01*
X575042Y350831D01*
X575030Y350697D01*
X575010Y350565D01*
X575013Y350524D01*
X575010Y350484D01*
X575028Y350351D01*
X575039Y350218D01*
X575052Y350179D01*
X575057Y350138D01*
X575105Y350013D01*
X575146Y349886D01*
X575167Y349851D01*
X575182Y349813D01*
X575257Y349702D01*
X575326Y349587D01*
X575354Y349558D01*
X575377Y349524D01*
X575475Y349433D01*
X575569Y349337D01*
X575603Y349315D01*
X575633Y349288D01*
X575841Y349159D01*
X577302Y348415D01*
X578596Y347475D01*
X579726Y346344D01*
X580667Y345050D01*
X581393Y343625D01*
X581835Y342264D01*
X565372Y342264D01*
X565346Y342261D01*
X565320Y342263D01*
X565173Y342241D01*
X565026Y342224D01*
X565002Y342216D01*
X564976Y342212D01*
X564838Y342157D01*
X564698Y342107D01*
X564676Y342093D01*
X564652Y342083D01*
X564530Y341998D01*
X564405Y341918D01*
X564387Y341899D01*
X564366Y341884D01*
X564351Y341868D01*
X564266Y341950D01*
G37*
%LPD*%
%LPC*%
G36*
X1329597Y688244D02*
X1329597Y688244D01*
X1324555Y690332D01*
X1320697Y694191D01*
X1318609Y699232D01*
X1318609Y719929D01*
X1320697Y724971D01*
X1324555Y728829D01*
X1329597Y730917D01*
X1335054Y730917D01*
X1340095Y728829D01*
X1343954Y724971D01*
X1346042Y719929D01*
X1346042Y699232D01*
X1343954Y694191D01*
X1340095Y690332D01*
X1335054Y688244D01*
X1329597Y688244D01*
G37*
%LPD*%
%LPC*%
G36*
X1329597Y623220D02*
X1329597Y623220D01*
X1324555Y625308D01*
X1320697Y629167D01*
X1318609Y634208D01*
X1318609Y654905D01*
X1320697Y659947D01*
X1324555Y663805D01*
X1329597Y665893D01*
X1335054Y665893D01*
X1340095Y663805D01*
X1343954Y659947D01*
X1346042Y654905D01*
X1346042Y634208D01*
X1343954Y629167D01*
X1340095Y625308D01*
X1335054Y623220D01*
X1329597Y623220D01*
G37*
%LPD*%
%LPC*%
G36*
X1328803Y480345D02*
X1328803Y480345D01*
X1323762Y482433D01*
X1319903Y486292D01*
X1317815Y491333D01*
X1317815Y512030D01*
X1319903Y517072D01*
X1323762Y520930D01*
X1328803Y523018D01*
X1334260Y523018D01*
X1339301Y520930D01*
X1343160Y517072D01*
X1345248Y512030D01*
X1345248Y491333D01*
X1343160Y486292D01*
X1339301Y482433D01*
X1334260Y480345D01*
X1328803Y480345D01*
G37*
%LPD*%
%LPC*%
G36*
X1328803Y545369D02*
X1328803Y545369D01*
X1323762Y547457D01*
X1319903Y551316D01*
X1317815Y556357D01*
X1317815Y577054D01*
X1319903Y582096D01*
X1323762Y585954D01*
X1328803Y588042D01*
X1334260Y588042D01*
X1339301Y585954D01*
X1343160Y582096D01*
X1345248Y577054D01*
X1345248Y556357D01*
X1343160Y551316D01*
X1339301Y547457D01*
X1334260Y545369D01*
X1328803Y545369D01*
G37*
%LPD*%
%LPC*%
G36*
X939103Y726266D02*
X939103Y726266D01*
X930260Y735109D01*
X930260Y747616D01*
X939103Y756459D01*
X951610Y756459D01*
X960453Y747616D01*
X960453Y735109D01*
X951610Y726266D01*
X939103Y726266D01*
G37*
%LPD*%
%LPC*%
G36*
X1038282Y390715D02*
X1038282Y390715D01*
X1033987Y392494D01*
X1030700Y395781D01*
X1028922Y400075D01*
X1028922Y415900D01*
X1030700Y420194D01*
X1033987Y423481D01*
X1038282Y425260D01*
X1042930Y425260D01*
X1047225Y423481D01*
X1050512Y420194D01*
X1052291Y415900D01*
X1052291Y400075D01*
X1050512Y395781D01*
X1047225Y392494D01*
X1042930Y390715D01*
X1038282Y390715D01*
G37*
%LPD*%
%LPC*%
G36*
X731069Y434403D02*
X731069Y434403D01*
X726774Y436182D01*
X723487Y439469D01*
X721709Y443763D01*
X721709Y448412D01*
X723487Y452706D01*
X726774Y455993D01*
X731069Y457772D01*
X746893Y457772D01*
X751188Y455993D01*
X754475Y452706D01*
X756254Y448412D01*
X756254Y443763D01*
X754475Y439469D01*
X751188Y436182D01*
X746893Y434403D01*
X731069Y434403D01*
G37*
%LPD*%
%LPC*%
G36*
X987482Y390715D02*
X987482Y390715D01*
X983187Y392494D01*
X979900Y395781D01*
X978122Y400075D01*
X978122Y415900D01*
X979900Y420194D01*
X983187Y423481D01*
X987482Y425260D01*
X992130Y425260D01*
X996425Y423481D01*
X999712Y420194D01*
X1001491Y415900D01*
X1001491Y400075D01*
X999712Y395781D01*
X996425Y392494D01*
X992130Y390715D01*
X987482Y390715D01*
G37*
%LPD*%
%LPC*%
G36*
X731069Y485203D02*
X731069Y485203D01*
X726774Y486982D01*
X723487Y490269D01*
X721709Y494563D01*
X721709Y499212D01*
X723487Y503506D01*
X726774Y506793D01*
X731069Y508572D01*
X746893Y508572D01*
X751188Y506793D01*
X754475Y503506D01*
X756254Y499212D01*
X756254Y494563D01*
X754475Y490269D01*
X751188Y486982D01*
X746893Y485203D01*
X731069Y485203D01*
G37*
%LPD*%
%LPC*%
G36*
X1350428Y300683D02*
X1350428Y300683D01*
X1345039Y302915D01*
X1340915Y307039D01*
X1338683Y312428D01*
X1338683Y318260D01*
X1340915Y323648D01*
X1345039Y327772D01*
X1350428Y330004D01*
X1356260Y330004D01*
X1361648Y327772D01*
X1365772Y323648D01*
X1368004Y318260D01*
X1368004Y312428D01*
X1365772Y307039D01*
X1361648Y302915D01*
X1356260Y300683D01*
X1350428Y300683D01*
G37*
%LPD*%
%LPC*%
G36*
X1350428Y344683D02*
X1350428Y344683D01*
X1345039Y346915D01*
X1340915Y351039D01*
X1338683Y356428D01*
X1338683Y362260D01*
X1340915Y367648D01*
X1345039Y371772D01*
X1350428Y374004D01*
X1356260Y374004D01*
X1361648Y371772D01*
X1365772Y367648D01*
X1368004Y362260D01*
X1368004Y356428D01*
X1365772Y351039D01*
X1361648Y346915D01*
X1356260Y344683D01*
X1350428Y344683D01*
G37*
%LPD*%
%LPC*%
G36*
X779685Y513532D02*
X779685Y513532D01*
X775592Y515228D01*
X772459Y518360D01*
X770763Y522454D01*
X770763Y526884D01*
X772459Y530977D01*
X775592Y534110D01*
X779685Y535805D01*
X784115Y535805D01*
X786817Y534686D01*
X786939Y534652D01*
X787058Y534609D01*
X787106Y534604D01*
X787152Y534591D01*
X787278Y534584D01*
X787404Y534570D01*
X787452Y534576D01*
X787500Y534574D01*
X787625Y534596D01*
X787750Y534611D01*
X787808Y534630D01*
X787843Y534636D01*
X787887Y534656D01*
X787983Y534686D01*
X790685Y535805D01*
X795115Y535805D01*
X799208Y534110D01*
X802341Y530977D01*
X804037Y526884D01*
X804037Y522454D01*
X802341Y518360D01*
X799208Y515228D01*
X795115Y513532D01*
X790685Y513532D01*
X787983Y514651D01*
X787861Y514686D01*
X787742Y514728D01*
X787694Y514734D01*
X787648Y514747D01*
X787522Y514753D01*
X787396Y514767D01*
X787348Y514761D01*
X787300Y514764D01*
X787175Y514741D01*
X787050Y514726D01*
X786992Y514708D01*
X786957Y514701D01*
X786913Y514682D01*
X786817Y514651D01*
X784115Y513532D01*
X779685Y513532D01*
G37*
%LPD*%
%LPC*%
G36*
X835599Y585351D02*
X835599Y585351D01*
X830771Y587351D01*
X827076Y591046D01*
X825076Y595874D01*
X825076Y601101D01*
X827076Y605929D01*
X830771Y609624D01*
X835599Y611624D01*
X840826Y611624D01*
X845654Y609624D01*
X849349Y605929D01*
X851349Y601101D01*
X851349Y595874D01*
X849349Y591046D01*
X845654Y587351D01*
X840826Y585351D01*
X835599Y585351D01*
G37*
%LPD*%
%LPC*%
G36*
X566896Y329564D02*
X566896Y329564D01*
X566896Y337186D01*
X581835Y337186D01*
X581393Y335825D01*
X580667Y334400D01*
X579726Y333106D01*
X578596Y331975D01*
X577302Y331035D01*
X575877Y330309D01*
X574356Y329814D01*
X572776Y329564D01*
X566896Y329564D01*
G37*
%LPD*%
%LPC*%
G36*
X555937Y329564D02*
X555937Y329564D01*
X554357Y329814D01*
X552836Y330309D01*
X551411Y331035D01*
X550117Y331975D01*
X548986Y333106D01*
X548046Y334400D01*
X547320Y335825D01*
X546878Y337186D01*
X561817Y337186D01*
X561817Y329564D01*
X555937Y329564D01*
G37*
%LPD*%
%LPC*%
G36*
X948356Y795162D02*
X948356Y795162D01*
X948356Y803703D01*
X950137Y803703D01*
X956897Y796943D01*
X956897Y795162D01*
X948356Y795162D01*
G37*
%LPD*%
%LPC*%
G36*
X948356Y780622D02*
X948356Y780622D01*
X948356Y789163D01*
X956897Y789163D01*
X956897Y787382D01*
X950137Y780622D01*
X948356Y780622D01*
G37*
%LPD*%
%LPC*%
G36*
X933816Y795162D02*
X933816Y795162D01*
X933816Y796943D01*
X940576Y803703D01*
X942357Y803703D01*
X942357Y795162D01*
X933816Y795162D01*
G37*
%LPD*%
%LPC*%
G36*
X940576Y780622D02*
X940576Y780622D01*
X933816Y787382D01*
X933816Y789163D01*
X942357Y789163D01*
X942357Y780622D01*
X940576Y780622D01*
G37*
%LPD*%
%LPC*%
G36*
X741521Y784383D02*
X741521Y784383D01*
X741521Y792004D01*
X743190Y792004D01*
X749142Y786052D01*
X749142Y784383D01*
X741521Y784383D01*
G37*
%LPD*%
%LPC*%
G36*
X893921Y784383D02*
X893921Y784383D01*
X893921Y792004D01*
X895590Y792004D01*
X901542Y786052D01*
X901542Y784383D01*
X893921Y784383D01*
G37*
%LPD*%
%LPC*%
G36*
X728821Y784383D02*
X728821Y784383D01*
X728821Y786052D01*
X734773Y792004D01*
X736442Y792004D01*
X736442Y784383D01*
X728821Y784383D01*
G37*
%LPD*%
%LPC*%
G36*
X754221Y784383D02*
X754221Y784383D01*
X754221Y786052D01*
X760173Y792004D01*
X761842Y792004D01*
X761842Y784383D01*
X754221Y784383D01*
G37*
%LPD*%
%LPC*%
G36*
X1040462Y600737D02*
X1040462Y600737D01*
X1040462Y607830D01*
X1041890Y607366D01*
X1043234Y606682D01*
X1044454Y605795D01*
X1045520Y604729D01*
X1046407Y603509D01*
X1047091Y602165D01*
X1047555Y600737D01*
X1040462Y600737D01*
G37*
%LPD*%
%LPC*%
G36*
X1040462Y596238D02*
X1040462Y596238D01*
X1047555Y596238D01*
X1047091Y594810D01*
X1046407Y593466D01*
X1045520Y592246D01*
X1044454Y591180D01*
X1043234Y590293D01*
X1041890Y589609D01*
X1040462Y589145D01*
X1040462Y596238D01*
G37*
%LPD*%
%LPC*%
G36*
X1028870Y600737D02*
X1028870Y600737D01*
X1029334Y602165D01*
X1030018Y603509D01*
X1030905Y604729D01*
X1031971Y605795D01*
X1033191Y606682D01*
X1034535Y607366D01*
X1035963Y607830D01*
X1035963Y600737D01*
X1028870Y600737D01*
G37*
%LPD*%
%LPC*%
G36*
X1034535Y589609D02*
X1034535Y589609D01*
X1033191Y590293D01*
X1031971Y591180D01*
X1030905Y592246D01*
X1030018Y593466D01*
X1029334Y594810D01*
X1028870Y596238D01*
X1035963Y596238D01*
X1035963Y589145D01*
X1034535Y589609D01*
G37*
%LPD*%
D10*
X319881Y571213D03*
X319881Y543213D03*
D11*
X259269Y627063D03*
X231269Y627063D03*
D12*
X206375Y723106D03*
X231775Y723106D03*
D13*
X1038213Y598488D03*
X838213Y598488D03*
D14*
X236950Y572834D03*
X259810Y572834D03*
X282670Y572834D03*
D15*
X259556Y509842D03*
D16*
X733393Y496888D02*
X744569Y496888D01*
X744569Y446088D02*
X733393Y446088D01*
X1040606Y413576D02*
X1040606Y402400D01*
X989806Y402400D02*
X989806Y413576D01*
D17*
X792900Y524669D03*
X781900Y524669D03*
D18*
X159069Y722313D03*
X179069Y722313D03*
D19*
X231006Y683419D03*
X250006Y683419D03*
D20*
X945356Y741363D03*
X945356Y792163D03*
X970756Y766763D03*
D21*
X1331532Y574326D02*
X1331532Y559086D01*
X1376744Y559086D02*
X1376744Y574326D01*
X1331532Y509302D02*
X1331532Y494062D01*
X1376744Y494062D02*
X1376744Y509302D01*
X1332325Y701961D02*
X1332325Y717201D01*
X1377537Y717201D02*
X1377537Y701961D01*
X1332325Y652177D02*
X1332325Y636937D01*
X1377537Y636937D02*
X1377537Y652177D01*
D22*
X1245394Y81121D02*
X1245394Y60166D01*
X1308894Y60166D02*
X1308894Y81121D01*
X1118394Y81121D02*
X1118394Y60166D01*
X1181894Y60166D02*
X1181894Y81121D01*
D21*
X1204119Y192405D02*
X1204119Y207645D01*
X1178719Y207645D02*
X1178719Y192405D01*
X1153319Y192405D02*
X1153319Y207645D01*
X1127919Y207645D02*
X1127919Y192405D01*
X571976Y365125D02*
X556736Y365125D01*
X556736Y339725D02*
X571976Y339725D01*
D23*
X561181Y94456D03*
X561181Y150019D03*
X700088Y93663D03*
X700088Y149225D03*
X845344Y92869D03*
X845344Y148431D03*
D24*
X352619Y106759D02*
X352619Y91679D01*
X277619Y91679D02*
X277619Y106759D01*
X353413Y139304D02*
X353413Y154384D01*
X278413Y154384D02*
X278413Y139304D01*
X351825Y186135D02*
X351825Y201215D01*
X276825Y201215D02*
X276825Y186135D01*
D25*
X175350Y92075D03*
X218350Y92075D03*
X175350Y134938D03*
X218350Y134938D03*
X176144Y197644D03*
X219144Y197644D03*
D26*
X327831Y237488D03*
X247831Y237488D03*
X177831Y667488D03*
X397831Y667488D03*
D21*
X265906Y718661D02*
X265906Y733901D01*
X291306Y733901D02*
X291306Y718661D01*
X133826Y87313D02*
X118586Y87313D01*
X118586Y112713D02*
X133826Y112713D01*
X133826Y138113D02*
X118586Y138113D01*
X118586Y163513D02*
X133826Y163513D01*
D27*
X891381Y756444D03*
X891381Y781844D03*
X865981Y756444D03*
X865981Y781844D03*
X840581Y756444D03*
X840581Y781844D03*
X815181Y756444D03*
X815181Y781844D03*
X789781Y756444D03*
X789781Y781844D03*
X764381Y756444D03*
X764381Y781844D03*
X738981Y756444D03*
X738981Y781844D03*
D28*
X326281Y720725D03*
X364281Y720725D03*
D21*
X421481Y728345D02*
X421481Y713105D01*
X396081Y713105D02*
X396081Y728345D01*
D29*
X1117600Y438150D03*
D30*
X1117600Y483394D01*
D29*
X1117600Y483394D03*
X1000125Y764381D03*
D31*
X1000125Y829469D01*
D29*
X1000125Y829469D03*
X1031081Y319881D03*
D30*
X1081881Y319881D01*
D29*
X1081881Y319881D03*
X1152525Y315119D03*
D30*
X1152525Y357188D01*
D29*
X1152525Y357188D03*
X963613Y210344D03*
D32*
X963613Y177800D01*
D29*
X963613Y177800D03*
X911225Y129381D03*
D32*
X958850Y129381D01*
D29*
X958850Y129381D03*
X950913Y78581D03*
D32*
X911225Y79375D01*
D29*
X911225Y79375D03*
X1255713Y407194D03*
D33*
X1311275Y407194D01*
X1314450Y407988D01*
D29*
X1314450Y407988D03*
X1276350Y599281D03*
D32*
X1231106Y599281D01*
X1230313Y598488D01*
D29*
X1230313Y598488D03*
X1015206Y582613D03*
D30*
X958056Y582613D01*
D29*
X958056Y582613D03*
X1146175Y438150D03*
D33*
X1146175Y493713D01*
D29*
X1146175Y493713D03*
X1181100Y530225D03*
D33*
X1181100Y561975D01*
D29*
X1181100Y561975D03*
X668338Y340519D03*
D31*
X668338Y389731D01*
X669131Y390525D01*
D29*
X669131Y390525D03*
X1039019Y835025D03*
D34*
X1039019Y777875D01*
X1039813Y777081D01*
D29*
X1039813Y777081D03*
D34*
X236538Y572421D02*
X236538Y554038D01*
X236538Y572421D02*
X236950Y572834D01*
X237331Y573215D02*
X237331Y592138D01*
X237331Y573215D02*
X236950Y572834D01*
X225969Y658019D02*
X225969Y661738D01*
X231775Y667544D01*
X231775Y683188D01*
X231006Y683419D01*
X252413Y726281D02*
X265906Y726281D01*
X252413Y726281D02*
X246856Y720725D01*
X234156Y720725D01*
X231775Y723106D01*
X234156Y720725D02*
X234156Y704850D01*
X231775Y702469D01*
X231775Y683650D01*
X231006Y683419D01*
X200875Y667488D02*
X177831Y667488D01*
X200875Y667488D02*
X210344Y658019D01*
X225969Y658019D01*
X236538Y554038D02*
X248444Y542131D01*
X315463Y542131D01*
X319881Y543213D01*
X231269Y598200D02*
X231269Y627063D01*
X231269Y598200D02*
X237331Y592138D01*
X225969Y632363D02*
X225969Y658019D01*
X225969Y632363D02*
X231269Y627063D01*
D35*
X1039019Y777875D03*
D36*
X421481Y731044D02*
X421481Y720725D01*
X421481Y731044D02*
X404019Y748506D01*
X280194Y748506D01*
X265906Y734219D01*
X265906Y726281D01*
D29*
X882650Y478631D03*
D37*
X872331Y404813D03*
D30*
X848519Y404813D01*
D37*
X848519Y404813D03*
X916781Y377031D03*
D32*
X916781Y403225D01*
D37*
X916781Y403225D03*
X900113Y381000D03*
D32*
X900113Y401638D01*
D37*
X900113Y401638D03*
D34*
X277019Y683419D02*
X250006Y683419D01*
X277019Y683419D02*
X289719Y670719D01*
X259810Y615410D02*
X259810Y572834D01*
X259810Y615410D02*
X270669Y626269D01*
X259269Y627063D01*
X250006Y683419D02*
X249238Y683650D01*
X277019Y683419D02*
X278606Y683419D01*
X291306Y696119D02*
X291306Y726281D01*
X291306Y696119D02*
X278606Y683419D01*
X289719Y670719D02*
X289719Y635794D01*
X280988Y627063D01*
X259269Y627063D01*
D36*
X296863Y720725D02*
X326281Y720725D01*
X296863Y720725D02*
X291306Y726281D01*
D34*
X292894Y292894D02*
X328613Y257175D01*
X328613Y238269D01*
X327831Y237488D01*
X352425Y223044D02*
X352425Y183956D01*
X351825Y193675D01*
X351031Y138113D01*
X353413Y146844D01*
X126206Y163513D02*
X126206Y240506D01*
X178594Y292894D01*
X292894Y292894D01*
X327831Y237488D02*
X337981Y237488D01*
X352425Y223044D01*
X353413Y146844D02*
X353413Y100013D01*
X352619Y99219D01*
X206375Y723106D02*
X179863Y723106D01*
X179069Y722313D01*
D29*
X710406Y623888D03*
D30*
X710406Y711994D01*
D29*
X710406Y711994D03*
X731044Y624681D03*
D30*
X731044Y712788D01*
D29*
X731044Y712788D03*
X751681Y623094D03*
D30*
X751681Y713581D01*
D29*
X751681Y713581D03*
X777875Y627063D03*
D30*
X777875Y713581D01*
D29*
X777875Y713581D03*
D34*
X316002Y572834D02*
X282670Y572834D01*
X397831Y614525D02*
X397831Y667488D01*
X397831Y614525D02*
X357981Y574675D01*
X318744Y574675D01*
X159069Y722313D02*
X143669Y722313D01*
X137319Y715963D01*
X137319Y544513D01*
X200819Y481013D01*
X338138Y481013D01*
X365125Y508000D01*
X365125Y567531D01*
X357981Y574675D01*
X319881Y571213D02*
X316002Y572834D01*
X318744Y574675D02*
X318744Y575575D01*
X319881Y571213D01*
D29*
X1271588Y464344D03*
D33*
X1306513Y464344D01*
D29*
X1306513Y464344D03*
D38*
X616744Y685006D03*
D39*
X616744Y720725D01*
D38*
X616744Y720725D03*
D29*
X519113Y747713D03*
X1358900Y746919D03*
D34*
X176144Y249169D02*
X176144Y197644D01*
X176144Y249169D02*
X195263Y268288D01*
X271463Y268288D01*
X176144Y197644D02*
X176144Y188844D01*
X155575Y168275D01*
X155575Y142875D01*
X150813Y138113D01*
X126206Y138113D01*
X276825Y193675D02*
X277813Y193675D01*
X295275Y211138D01*
X295275Y244475D01*
X271463Y268288D01*
D26*
X191294Y169863D03*
X239713Y169863D03*
D34*
X240506Y150813D01*
X256381Y134938D01*
X277619Y134938D01*
X278413Y146844D01*
X134144Y111919D02*
X126206Y112713D01*
X175350Y131694D02*
X175350Y134938D01*
X175350Y131694D02*
X154781Y111125D01*
X127794Y111125D01*
X126206Y112713D01*
X191294Y150881D02*
X191294Y169863D01*
X191294Y150881D02*
X175350Y134938D01*
X170588Y87313D02*
X126206Y87313D01*
X170588Y87313D02*
X175350Y92075D01*
X175350Y81031D01*
X185738Y70644D01*
X261938Y70644D01*
X277813Y86519D01*
X277813Y99025D01*
X277619Y99219D01*
X219144Y135731D02*
X219144Y197644D01*
X219144Y135731D02*
X218350Y134938D01*
X231138Y237488D02*
X247831Y237488D01*
X231138Y237488D02*
X219075Y225425D01*
X219075Y191363D01*
X219144Y197644D01*
X218350Y134938D02*
X218350Y92075D01*
D40*
X247650Y237331D03*
X327819Y237331D03*
X177800Y667544D03*
X397669Y667544D03*
D36*
X396081Y720725D02*
X364281Y720725D01*
M02*
