<?xml version="1.0" encoding="utf-8"?>
<!DOCTYPE eagle SYSTEM "eagle.dtd">
<eagle version="8.5.2">
<drawing>
<settings>
<setting alwaysvectorfont="no"/>
<setting verticaltext="up"/>
</settings>
<grid distance="0.1" unitdist="mm" unit="mm" style="lines" multiple="1" display="yes" altdistance="5" altunitdist="mil" altunit="mil"/>
<layers>
<layer number="1" name="Top" color="4" fill="1" visible="no" active="yes"/>
<layer number="16" name="Bottom" color="1" fill="1" visible="yes" active="yes"/>
<layer number="17" name="Pads" color="2" fill="1" visible="yes" active="yes"/>
<layer number="18" name="Vias" color="2" fill="1" visible="yes" active="yes"/>
<layer number="19" name="Unrouted" color="6" fill="1" visible="no" active="yes"/>
<layer number="20" name="Dimension" color="24" fill="1" visible="yes" active="yes"/>
<layer number="21" name="tPlace" color="7" fill="1" visible="no" active="yes"/>
<layer number="22" name="bPlace" color="7" fill="1" visible="no" active="yes"/>
<layer number="23" name="tOrigins" color="15" fill="1" visible="no" active="yes"/>
<layer number="24" name="bOrigins" color="15" fill="1" visible="no" active="yes"/>
<layer number="25" name="tNames" color="7" fill="1" visible="no" active="yes"/>
<layer number="26" name="bNames" color="7" fill="1" visible="no" active="yes"/>
<layer number="27" name="tValues" color="7" fill="1" visible="no" active="yes"/>
<layer number="28" name="bValues" color="7" fill="1" visible="no" active="yes"/>
<layer number="29" name="tStop" color="7" fill="3" visible="no" active="yes"/>
<layer number="30" name="bStop" color="7" fill="6" visible="no" active="yes"/>
<layer number="31" name="tCream" color="7" fill="4" visible="no" active="yes"/>
<layer number="32" name="bCream" color="7" fill="5" visible="no" active="yes"/>
<layer number="33" name="tFinish" color="6" fill="3" visible="no" active="yes"/>
<layer number="34" name="bFinish" color="6" fill="6" visible="no" active="yes"/>
<layer number="35" name="tGlue" color="7" fill="4" visible="no" active="yes"/>
<layer number="36" name="bGlue" color="7" fill="5" visible="no" active="yes"/>
<layer number="37" name="tTest" color="7" fill="1" visible="no" active="yes"/>
<layer number="38" name="bTest" color="7" fill="1" visible="no" active="yes"/>
<layer number="39" name="tKeepout" color="4" fill="11" visible="no" active="yes"/>
<layer number="40" name="bKeepout" color="1" fill="11" visible="no" active="yes"/>
<layer number="41" name="tRestrict" color="4" fill="10" visible="no" active="yes"/>
<layer number="42" name="bRestrict" color="1" fill="10" visible="no" active="yes"/>
<layer number="43" name="vRestrict" color="2" fill="10" visible="no" active="yes"/>
<layer number="44" name="Drills" color="7" fill="1" visible="no" active="yes"/>
<layer number="45" name="Holes" color="7" fill="1" visible="no" active="yes"/>
<layer number="46" name="Milling" color="3" fill="1" visible="no" active="yes"/>
<layer number="47" name="Measures" color="7" fill="1" visible="no" active="yes"/>
<layer number="48" name="Document" color="7" fill="1" visible="no" active="yes"/>
<layer number="49" name="Reference" color="7" fill="1" visible="no" active="yes"/>
<layer number="50" name="dxf" color="7" fill="1" visible="no" active="no"/>
<layer number="51" name="tDocu" color="7" fill="1" visible="no" active="yes"/>
<layer number="52" name="bDocu" color="7" fill="1" visible="no" active="yes"/>
<layer number="53" name="tGND_GNDA" color="7" fill="9" visible="no" active="no"/>
<layer number="54" name="bGND_GNDA" color="1" fill="9" visible="no" active="no"/>
<layer number="56" name="wert" color="7" fill="1" visible="no" active="no"/>
<layer number="57" name="tCAD" color="7" fill="1" visible="no" active="no"/>
<layer number="59" name="tCarbon" color="7" fill="1" visible="no" active="no"/>
<layer number="60" name="bCarbon" color="7" fill="1" visible="no" active="no"/>
<layer number="88" name="SimResults" color="9" fill="1" visible="no" active="no"/>
<layer number="89" name="SimProbes" color="9" fill="1" visible="no" active="no"/>
<layer number="90" name="Modules" color="5" fill="1" visible="no" active="no"/>
<layer number="91" name="Nets" color="2" fill="1" visible="no" active="no"/>
<layer number="92" name="Busses" color="1" fill="1" visible="no" active="no"/>
<layer number="93" name="Pins" color="2" fill="1" visible="no" active="no"/>
<layer number="94" name="Symbols" color="4" fill="1" visible="no" active="no"/>
<layer number="95" name="Names" color="7" fill="1" visible="no" active="no"/>
<layer number="96" name="Values" color="7" fill="1" visible="no" active="no"/>
<layer number="97" name="Info" color="7" fill="1" visible="no" active="no"/>
<layer number="98" name="Guide" color="6" fill="1" visible="no" active="no"/>
<layer number="99" name="SpiceOrder" color="7" fill="1" visible="no" active="no"/>
<layer number="100" name="Muster" color="7" fill="1" visible="no" active="no"/>
<layer number="101" name="Patch_Top" color="12" fill="4" visible="no" active="yes"/>
<layer number="102" name="Vscore" color="7" fill="1" visible="no" active="yes"/>
<layer number="103" name="fp3" color="7" fill="1" visible="no" active="yes"/>
<layer number="104" name="Name" color="7" fill="1" visible="no" active="yes"/>
<layer number="105" name="Beschreib" color="9" fill="1" visible="no" active="yes"/>
<layer number="106" name="BGA-Top" color="4" fill="1" visible="no" active="yes"/>
<layer number="107" name="BD-Top" color="5" fill="1" visible="no" active="yes"/>
<layer number="108" name="fp8" color="7" fill="1" visible="no" active="yes"/>
<layer number="109" name="fp9" color="7" fill="1" visible="no" active="yes"/>
<layer number="110" name="fp0" color="7" fill="1" visible="no" active="yes"/>
<layer number="111" name="LPC17xx" color="7" fill="1" visible="no" active="yes"/>
<layer number="112" name="tSilk" color="7" fill="1" visible="no" active="yes"/>
<layer number="113" name="ReferenceLS" color="7" fill="1" visible="no" active="no"/>
<layer number="116" name="Patch_BOT" color="9" fill="4" visible="no" active="yes"/>
<layer number="118" name="Rect_Pads" color="7" fill="1" visible="no" active="no"/>
<layer number="121" name="_tsilk" color="7" fill="1" visible="no" active="yes"/>
<layer number="122" name="_bsilk" color="7" fill="1" visible="no" active="yes"/>
<layer number="123" name="tTestmark" color="7" fill="1" visible="no" active="yes"/>
<layer number="124" name="bTestmark" color="7" fill="1" visible="no" active="yes"/>
<layer number="125" name="_tNames" color="7" fill="1" visible="no" active="yes"/>
<layer number="126" name="_bNames" color="7" fill="1" visible="no" active="yes"/>
<layer number="127" name="_tValues" color="7" fill="1" visible="no" active="yes"/>
<layer number="128" name="_bValues" color="7" fill="1" visible="no" active="yes"/>
<layer number="129" name="Mask" color="7" fill="1" visible="no" active="yes"/>
<layer number="131" name="tAdjust" color="7" fill="1" visible="no" active="yes"/>
<layer number="132" name="bAdjust" color="7" fill="1" visible="no" active="yes"/>
<layer number="144" name="Drill_legend" color="7" fill="1" visible="no" active="yes"/>
<layer number="150" name="Notes" color="7" fill="1" visible="no" active="yes"/>
<layer number="151" name="HeatSink" color="7" fill="1" visible="no" active="yes"/>
<layer number="152" name="_bDocu" color="7" fill="1" visible="no" active="yes"/>
<layer number="153" name="FabDoc1" color="6" fill="1" visible="no" active="no"/>
<layer number="154" name="FabDoc2" color="2" fill="1" visible="no" active="no"/>
<layer number="155" name="FabDoc3" color="7" fill="15" visible="no" active="no"/>
<layer number="199" name="Contour" color="7" fill="1" visible="no" active="yes"/>
<layer number="200" name="200bmp" color="1" fill="10" visible="no" active="yes"/>
<layer number="201" name="201bmp" color="2" fill="1" visible="no" active="no"/>
<layer number="202" name="202bmp" color="3" fill="1" visible="no" active="no"/>
<layer number="203" name="203bmp" color="4" fill="10" visible="no" active="yes"/>
<layer number="204" name="204bmp" color="5" fill="10" visible="no" active="yes"/>
<layer number="205" name="205bmp" color="6" fill="10" visible="no" active="yes"/>
<layer number="206" name="206bmp" color="7" fill="10" visible="no" active="yes"/>
<layer number="207" name="207bmp" color="8" fill="10" visible="no" active="yes"/>
<layer number="208" name="208bmp" color="9" fill="10" visible="no" active="yes"/>
<layer number="209" name="209bmp" color="7" fill="1" visible="no" active="yes"/>
<layer number="210" name="210bmp" color="7" fill="1" visible="no" active="yes"/>
<layer number="211" name="211bmp" color="7" fill="1" visible="no" active="yes"/>
<layer number="212" name="212bmp" color="7" fill="1" visible="no" active="yes"/>
<layer number="213" name="213bmp" color="7" fill="1" visible="no" active="yes"/>
<layer number="214" name="214bmp" color="7" fill="1" visible="no" active="yes"/>
<layer number="215" name="215bmp" color="7" fill="1" visible="no" active="yes"/>
<layer number="216" name="216bmp" color="7" fill="1" visible="no" active="yes"/>
<layer number="217" name="217bmp" color="18" fill="1" visible="no" active="no"/>
<layer number="218" name="218bmp" color="19" fill="1" visible="no" active="no"/>
<layer number="219" name="219bmp" color="20" fill="1" visible="no" active="no"/>
<layer number="220" name="220bmp" color="21" fill="1" visible="no" active="no"/>
<layer number="221" name="221bmp" color="22" fill="1" visible="no" active="no"/>
<layer number="222" name="222bmp" color="23" fill="1" visible="no" active="no"/>
<layer number="223" name="223bmp" color="24" fill="1" visible="no" active="no"/>
<layer number="224" name="224bmp" color="25" fill="1" visible="no" active="no"/>
<layer number="225" name="225bmp" color="7" fill="1" visible="no" active="yes"/>
<layer number="226" name="226bmp" color="7" fill="1" visible="no" active="yes"/>
<layer number="227" name="227bmp" color="7" fill="1" visible="no" active="yes"/>
<layer number="228" name="228bmp" color="7" fill="1" visible="no" active="yes"/>
<layer number="229" name="229bmp" color="7" fill="1" visible="no" active="yes"/>
<layer number="230" name="230bmp" color="7" fill="1" visible="no" active="yes"/>
<layer number="231" name="Eagle3D_PG1" color="7" fill="1" visible="no" active="no"/>
<layer number="232" name="Eagle3D_PG2" color="7" fill="1" visible="no" active="no"/>
<layer number="233" name="Eagle3D_PG3" color="7" fill="1" visible="no" active="no"/>
<layer number="248" name="Housing" color="7" fill="1" visible="no" active="yes"/>
<layer number="249" name="Edge" color="7" fill="1" visible="no" active="yes"/>
<layer number="250" name="Descript" color="7" fill="1" visible="no" active="no"/>
<layer number="251" name="SMDround" color="7" fill="1" visible="no" active="no"/>
<layer number="254" name="cooling" color="7" fill="1" visible="no" active="yes"/>
<layer number="255" name="routoute" color="7" fill="1" visible="no" active="yes"/>
</layers>
<board>
<plain>
<wire x1="0" y1="0" x2="0" y2="52" width="0.3048" layer="20"/>
<wire x1="0" y1="52" x2="83" y2="52" width="0.3048" layer="20"/>
<wire x1="83" y1="52" x2="83" y2="0" width="0.3048" layer="20"/>
<wire x1="83" y1="0" x2="0" y2="0" width="0.3048" layer="20"/>
<text x="80.6" y="3.4" size="1.778" layer="16" rot="MR0">GRIT SYSTEMS</text>
</plain>
<libraries>
<library name="adafruit">
<packages>
<package name="C025-024X044">
<description>&lt;b&gt;CAPACITOR&lt;/b&gt;&lt;p&gt;
grid 2.5 mm, outline 2.4 x 4.4 mm</description>
<wire x1="-2.159" y1="-0.635" x2="-2.159" y2="0.635" width="0.1524" layer="21"/>
<wire x1="-2.159" y1="0.635" x2="-1.651" y2="1.143" width="0.1524" layer="21" curve="-90"/>
<wire x1="-2.159" y1="-0.635" x2="-1.651" y2="-1.143" width="0.1524" layer="21" curve="90"/>
<wire x1="1.651" y1="1.143" x2="-1.651" y2="1.143" width="0.1524" layer="21"/>
<wire x1="2.159" y1="-0.635" x2="2.159" y2="0.635" width="0.1524" layer="21"/>
<wire x1="1.651" y1="-1.143" x2="-1.651" y2="-1.143" width="0.1524" layer="21"/>
<wire x1="1.651" y1="1.143" x2="2.159" y2="0.635" width="0.1524" layer="21" curve="-90"/>
<wire x1="1.651" y1="-1.143" x2="2.159" y2="-0.635" width="0.1524" layer="21" curve="90"/>
<wire x1="-0.3048" y1="0.762" x2="-0.3048" y2="-0.762" width="0.3048" layer="21"/>
<wire x1="0.3302" y1="0.762" x2="0.3302" y2="-0.762" width="0.3048" layer="21"/>
<wire x1="1.27" y1="0" x2="0.3302" y2="0" width="0.1524" layer="51"/>
<wire x1="-1.27" y1="0" x2="-0.3048" y2="0" width="0.1524" layer="51"/>
<pad name="1" x="-1.27" y="0" drill="0.8128" diameter="1.4224" shape="octagon"/>
<pad name="2" x="1.27" y="0" drill="0.8128" diameter="1.4224" shape="octagon"/>
<text x="-1.778" y="1.397" size="1.27" layer="25" ratio="10">&gt;NAME</text>
<text x="-1.778" y="-2.667" size="1.27" layer="27" ratio="10">&gt;VALUE</text>
</package>
</packages>
</library>
<library name="pinhead" urn="urn:adsk.eagle:library:325">
<description>&lt;b&gt;Pin Header Connectors&lt;/b&gt;&lt;p&gt;
&lt;author&gt;Created by librarian@cadsoft.de&lt;/author&gt;</description>
<packages>
<package name="1X08" urn="urn:adsk.eagle:footprint:22262/1" library_version="3">
<description>&lt;b&gt;PIN HEADER&lt;/b&gt;</description>
<wire x1="5.715" y1="1.27" x2="6.985" y2="1.27" width="0.1524" layer="21"/>
<wire x1="6.985" y1="1.27" x2="7.62" y2="0.635" width="0.1524" layer="21"/>
<wire x1="7.62" y1="0.635" x2="7.62" y2="-0.635" width="0.1524" layer="21"/>
<wire x1="7.62" y1="-0.635" x2="6.985" y2="-1.27" width="0.1524" layer="21"/>
<wire x1="2.54" y1="0.635" x2="3.175" y2="1.27" width="0.1524" layer="21"/>
<wire x1="3.175" y1="1.27" x2="4.445" y2="1.27" width="0.1524" layer="21"/>
<wire x1="4.445" y1="1.27" x2="5.08" y2="0.635" width="0.1524" layer="21"/>
<wire x1="5.08" y1="0.635" x2="5.08" y2="-0.635" width="0.1524" layer="21"/>
<wire x1="5.08" y1="-0.635" x2="4.445" y2="-1.27" width="0.1524" layer="21"/>
<wire x1="4.445" y1="-1.27" x2="3.175" y2="-1.27" width="0.1524" layer="21"/>
<wire x1="3.175" y1="-1.27" x2="2.54" y2="-0.635" width="0.1524" layer="21"/>
<wire x1="5.715" y1="1.27" x2="5.08" y2="0.635" width="0.1524" layer="21"/>
<wire x1="5.08" y1="-0.635" x2="5.715" y2="-1.27" width="0.1524" layer="21"/>
<wire x1="6.985" y1="-1.27" x2="5.715" y2="-1.27" width="0.1524" layer="21"/>
<wire x1="-1.905" y1="1.27" x2="-0.635" y2="1.27" width="0.1524" layer="21"/>
<wire x1="-0.635" y1="1.27" x2="0" y2="0.635" width="0.1524" layer="21"/>
<wire x1="0" y1="0.635" x2="0" y2="-0.635" width="0.1524" layer="21"/>
<wire x1="0" y1="-0.635" x2="-0.635" y2="-1.27" width="0.1524" layer="21"/>
<wire x1="0" y1="0.635" x2="0.635" y2="1.27" width="0.1524" layer="21"/>
<wire x1="0.635" y1="1.27" x2="1.905" y2="1.27" width="0.1524" layer="21"/>
<wire x1="1.905" y1="1.27" x2="2.54" y2="0.635" width="0.1524" layer="21"/>
<wire x1="2.54" y1="0.635" x2="2.54" y2="-0.635" width="0.1524" layer="21"/>
<wire x1="2.54" y1="-0.635" x2="1.905" y2="-1.27" width="0.1524" layer="21"/>
<wire x1="1.905" y1="-1.27" x2="0.635" y2="-1.27" width="0.1524" layer="21"/>
<wire x1="0.635" y1="-1.27" x2="0" y2="-0.635" width="0.1524" layer="21"/>
<wire x1="-5.08" y1="0.635" x2="-4.445" y2="1.27" width="0.1524" layer="21"/>
<wire x1="-4.445" y1="1.27" x2="-3.175" y2="1.27" width="0.1524" layer="21"/>
<wire x1="-3.175" y1="1.27" x2="-2.54" y2="0.635" width="0.1524" layer="21"/>
<wire x1="-2.54" y1="0.635" x2="-2.54" y2="-0.635" width="0.1524" layer="21"/>
<wire x1="-2.54" y1="-0.635" x2="-3.175" y2="-1.27" width="0.1524" layer="21"/>
<wire x1="-3.175" y1="-1.27" x2="-4.445" y2="-1.27" width="0.1524" layer="21"/>
<wire x1="-4.445" y1="-1.27" x2="-5.08" y2="-0.635" width="0.1524" layer="21"/>
<wire x1="-1.905" y1="1.27" x2="-2.54" y2="0.635" width="0.1524" layer="21"/>
<wire x1="-2.54" y1="-0.635" x2="-1.905" y2="-1.27" width="0.1524" layer="21"/>
<wire x1="-0.635" y1="-1.27" x2="-1.905" y2="-1.27" width="0.1524" layer="21"/>
<wire x1="-9.525" y1="1.27" x2="-8.255" y2="1.27" width="0.1524" layer="21"/>
<wire x1="-8.255" y1="1.27" x2="-7.62" y2="0.635" width="0.1524" layer="21"/>
<wire x1="-7.62" y1="0.635" x2="-7.62" y2="-0.635" width="0.1524" layer="21"/>
<wire x1="-7.62" y1="-0.635" x2="-8.255" y2="-1.27" width="0.1524" layer="21"/>
<wire x1="-7.62" y1="0.635" x2="-6.985" y2="1.27" width="0.1524" layer="21"/>
<wire x1="-6.985" y1="1.27" x2="-5.715" y2="1.27" width="0.1524" layer="21"/>
<wire x1="-5.715" y1="1.27" x2="-5.08" y2="0.635" width="0.1524" layer="21"/>
<wire x1="-5.08" y1="0.635" x2="-5.08" y2="-0.635" width="0.1524" layer="21"/>
<wire x1="-5.08" y1="-0.635" x2="-5.715" y2="-1.27" width="0.1524" layer="21"/>
<wire x1="-5.715" y1="-1.27" x2="-6.985" y2="-1.27" width="0.1524" layer="21"/>
<wire x1="-6.985" y1="-1.27" x2="-7.62" y2="-0.635" width="0.1524" layer="21"/>
<wire x1="-10.16" y1="0.635" x2="-10.16" y2="-0.635" width="0.1524" layer="21"/>
<wire x1="-9.525" y1="1.27" x2="-10.16" y2="0.635" width="0.1524" layer="21"/>
<wire x1="-10.16" y1="-0.635" x2="-9.525" y2="-1.27" width="0.1524" layer="21"/>
<wire x1="-8.255" y1="-1.27" x2="-9.525" y2="-1.27" width="0.1524" layer="21"/>
<wire x1="8.255" y1="1.27" x2="9.525" y2="1.27" width="0.1524" layer="21"/>
<wire x1="9.525" y1="1.27" x2="10.16" y2="0.635" width="0.1524" layer="21"/>
<wire x1="10.16" y1="0.635" x2="10.16" y2="-0.635" width="0.1524" layer="21"/>
<wire x1="10.16" y1="-0.635" x2="9.525" y2="-1.27" width="0.1524" layer="21"/>
<wire x1="8.255" y1="1.27" x2="7.62" y2="0.635" width="0.1524" layer="21"/>
<wire x1="7.62" y1="-0.635" x2="8.255" y2="-1.27" width="0.1524" layer="21"/>
<wire x1="9.525" y1="-1.27" x2="8.255" y2="-1.27" width="0.1524" layer="21"/>
<pad name="1" x="-8.89" y="0" drill="1.016" shape="long" rot="R90"/>
<pad name="2" x="-6.35" y="0" drill="1.016" shape="long" rot="R90"/>
<pad name="3" x="-3.81" y="0" drill="1.016" shape="long" rot="R90"/>
<pad name="4" x="-1.27" y="0" drill="1.016" shape="long" rot="R90"/>
<pad name="5" x="1.27" y="0" drill="1.016" shape="long" rot="R90"/>
<pad name="6" x="3.81" y="0" drill="1.016" shape="long" rot="R90"/>
<pad name="7" x="6.35" y="0" drill="1.016" shape="long" rot="R90"/>
<pad name="8" x="8.89" y="0" drill="1.016" shape="long" rot="R90"/>
<text x="-10.2362" y="1.8288" size="1.27" layer="25" ratio="10">&gt;NAME</text>
<text x="-10.16" y="-3.175" size="1.27" layer="27">&gt;VALUE</text>
<rectangle x1="6.096" y1="-0.254" x2="6.604" y2="0.254" layer="51"/>
<rectangle x1="3.556" y1="-0.254" x2="4.064" y2="0.254" layer="51"/>
<rectangle x1="1.016" y1="-0.254" x2="1.524" y2="0.254" layer="51"/>
<rectangle x1="-1.524" y1="-0.254" x2="-1.016" y2="0.254" layer="51"/>
<rectangle x1="-4.064" y1="-0.254" x2="-3.556" y2="0.254" layer="51"/>
<rectangle x1="-6.604" y1="-0.254" x2="-6.096" y2="0.254" layer="51"/>
<rectangle x1="-9.144" y1="-0.254" x2="-8.636" y2="0.254" layer="51"/>
<rectangle x1="8.636" y1="-0.254" x2="9.144" y2="0.254" layer="51"/>
</package>
<package name="1X03" urn="urn:adsk.eagle:footprint:22340/1" library_version="3">
<description>&lt;b&gt;PIN HEADER&lt;/b&gt;</description>
<wire x1="-3.175" y1="1.27" x2="-1.905" y2="1.27" width="0.1524" layer="21"/>
<wire x1="-1.905" y1="1.27" x2="-1.27" y2="0.635" width="0.1524" layer="21"/>
<wire x1="-1.27" y1="0.635" x2="-1.27" y2="-0.635" width="0.1524" layer="21"/>
<wire x1="-1.27" y1="-0.635" x2="-1.905" y2="-1.27" width="0.1524" layer="21"/>
<wire x1="-1.27" y1="0.635" x2="-0.635" y2="1.27" width="0.1524" layer="21"/>
<wire x1="-0.635" y1="1.27" x2="0.635" y2="1.27" width="0.1524" layer="21"/>
<wire x1="0.635" y1="1.27" x2="1.27" y2="0.635" width="0.1524" layer="21"/>
<wire x1="1.27" y1="0.635" x2="1.27" y2="-0.635" width="0.1524" layer="21"/>
<wire x1="1.27" y1="-0.635" x2="0.635" y2="-1.27" width="0.1524" layer="21"/>
<wire x1="0.635" y1="-1.27" x2="-0.635" y2="-1.27" width="0.1524" layer="21"/>
<wire x1="-0.635" y1="-1.27" x2="-1.27" y2="-0.635" width="0.1524" layer="21"/>
<wire x1="-3.81" y1="0.635" x2="-3.81" y2="-0.635" width="0.1524" layer="21"/>
<wire x1="-3.175" y1="1.27" x2="-3.81" y2="0.635" width="0.1524" layer="21"/>
<wire x1="-3.81" y1="-0.635" x2="-3.175" y2="-1.27" width="0.1524" layer="21"/>
<wire x1="-1.905" y1="-1.27" x2="-3.175" y2="-1.27" width="0.1524" layer="21"/>
<wire x1="1.27" y1="0.635" x2="1.905" y2="1.27" width="0.1524" layer="21"/>
<wire x1="1.905" y1="1.27" x2="3.175" y2="1.27" width="0.1524" layer="21"/>
<wire x1="3.175" y1="1.27" x2="3.81" y2="0.635" width="0.1524" layer="21"/>
<wire x1="3.81" y1="0.635" x2="3.81" y2="-0.635" width="0.1524" layer="21"/>
<wire x1="3.81" y1="-0.635" x2="3.175" y2="-1.27" width="0.1524" layer="21"/>
<wire x1="3.175" y1="-1.27" x2="1.905" y2="-1.27" width="0.1524" layer="21"/>
<wire x1="1.905" y1="-1.27" x2="1.27" y2="-0.635" width="0.1524" layer="21"/>
<pad name="1" x="-2.54" y="0" drill="1.016" shape="long" rot="R90"/>
<pad name="2" x="0" y="0" drill="1.016" shape="long" rot="R90"/>
<pad name="3" x="2.54" y="0" drill="1.016" shape="long" rot="R90"/>
<text x="-3.8862" y="1.8288" size="1.27" layer="25" ratio="10">&gt;NAME</text>
<text x="-3.81" y="-3.175" size="1.27" layer="27">&gt;VALUE</text>
<rectangle x1="-0.254" y1="-0.254" x2="0.254" y2="0.254" layer="51"/>
<rectangle x1="-2.794" y1="-0.254" x2="-2.286" y2="0.254" layer="51"/>
<rectangle x1="2.286" y1="-0.254" x2="2.794" y2="0.254" layer="51"/>
</package>
<package name="1X05" urn="urn:adsk.eagle:footprint:22354/1" library_version="3">
<description>&lt;b&gt;PIN HEADER&lt;/b&gt;</description>
<wire x1="1.905" y1="1.27" x2="3.175" y2="1.27" width="0.1524" layer="21"/>
<wire x1="3.175" y1="1.27" x2="3.81" y2="0.635" width="0.1524" layer="21"/>
<wire x1="3.81" y1="0.635" x2="3.81" y2="-0.635" width="0.1524" layer="21"/>
<wire x1="3.81" y1="-0.635" x2="3.175" y2="-1.27" width="0.1524" layer="21"/>
<wire x1="-1.27" y1="0.635" x2="-0.635" y2="1.27" width="0.1524" layer="21"/>
<wire x1="-0.635" y1="1.27" x2="0.635" y2="1.27" width="0.1524" layer="21"/>
<wire x1="0.635" y1="1.27" x2="1.27" y2="0.635" width="0.1524" layer="21"/>
<wire x1="1.27" y1="0.635" x2="1.27" y2="-0.635" width="0.1524" layer="21"/>
<wire x1="1.27" y1="-0.635" x2="0.635" y2="-1.27" width="0.1524" layer="21"/>
<wire x1="0.635" y1="-1.27" x2="-0.635" y2="-1.27" width="0.1524" layer="21"/>
<wire x1="-0.635" y1="-1.27" x2="-1.27" y2="-0.635" width="0.1524" layer="21"/>
<wire x1="1.905" y1="1.27" x2="1.27" y2="0.635" width="0.1524" layer="21"/>
<wire x1="1.27" y1="-0.635" x2="1.905" y2="-1.27" width="0.1524" layer="21"/>
<wire x1="3.175" y1="-1.27" x2="1.905" y2="-1.27" width="0.1524" layer="21"/>
<wire x1="-5.715" y1="1.27" x2="-4.445" y2="1.27" width="0.1524" layer="21"/>
<wire x1="-4.445" y1="1.27" x2="-3.81" y2="0.635" width="0.1524" layer="21"/>
<wire x1="-3.81" y1="0.635" x2="-3.81" y2="-0.635" width="0.1524" layer="21"/>
<wire x1="-3.81" y1="-0.635" x2="-4.445" y2="-1.27" width="0.1524" layer="21"/>
<wire x1="-3.81" y1="0.635" x2="-3.175" y2="1.27" width="0.1524" layer="21"/>
<wire x1="-3.175" y1="1.27" x2="-1.905" y2="1.27" width="0.1524" layer="21"/>
<wire x1="-1.905" y1="1.27" x2="-1.27" y2="0.635" width="0.1524" layer="21"/>
<wire x1="-1.27" y1="0.635" x2="-1.27" y2="-0.635" width="0.1524" layer="21"/>
<wire x1="-1.27" y1="-0.635" x2="-1.905" y2="-1.27" width="0.1524" layer="21"/>
<wire x1="-1.905" y1="-1.27" x2="-3.175" y2="-1.27" width="0.1524" layer="21"/>
<wire x1="-3.175" y1="-1.27" x2="-3.81" y2="-0.635" width="0.1524" layer="21"/>
<wire x1="-6.35" y1="0.635" x2="-6.35" y2="-0.635" width="0.1524" layer="21"/>
<wire x1="-5.715" y1="1.27" x2="-6.35" y2="0.635" width="0.1524" layer="21"/>
<wire x1="-6.35" y1="-0.635" x2="-5.715" y2="-1.27" width="0.1524" layer="21"/>
<wire x1="-4.445" y1="-1.27" x2="-5.715" y2="-1.27" width="0.1524" layer="21"/>
<wire x1="4.445" y1="1.27" x2="5.715" y2="1.27" width="0.1524" layer="21"/>
<wire x1="5.715" y1="1.27" x2="6.35" y2="0.635" width="0.1524" layer="21"/>
<wire x1="6.35" y1="0.635" x2="6.35" y2="-0.635" width="0.1524" layer="21"/>
<wire x1="6.35" y1="-0.635" x2="5.715" y2="-1.27" width="0.1524" layer="21"/>
<wire x1="4.445" y1="1.27" x2="3.81" y2="0.635" width="0.1524" layer="21"/>
<wire x1="3.81" y1="-0.635" x2="4.445" y2="-1.27" width="0.1524" layer="21"/>
<wire x1="5.715" y1="-1.27" x2="4.445" y2="-1.27" width="0.1524" layer="21"/>
<pad name="1" x="-5.08" y="0" drill="1.016" shape="long" rot="R90"/>
<pad name="2" x="-2.54" y="0" drill="1.016" shape="long" rot="R90"/>
<pad name="3" x="0" y="0" drill="1.016" shape="long" rot="R90"/>
<pad name="4" x="2.54" y="0" drill="1.016" shape="long" rot="R90"/>
<pad name="5" x="5.08" y="0" drill="1.016" shape="long" rot="R90"/>
<text x="-6.4262" y="1.8288" size="1.27" layer="25" ratio="10">&gt;NAME</text>
<text x="-6.35" y="-3.175" size="1.27" layer="27">&gt;VALUE</text>
<rectangle x1="2.286" y1="-0.254" x2="2.794" y2="0.254" layer="51"/>
<rectangle x1="-0.254" y1="-0.254" x2="0.254" y2="0.254" layer="51"/>
<rectangle x1="-2.794" y1="-0.254" x2="-2.286" y2="0.254" layer="51"/>
<rectangle x1="-5.334" y1="-0.254" x2="-4.826" y2="0.254" layer="51"/>
<rectangle x1="4.826" y1="-0.254" x2="5.334" y2="0.254" layer="51"/>
</package>
<package name="1X04" urn="urn:adsk.eagle:footprint:22258/1" library_version="3">
<description>&lt;b&gt;PIN HEADER&lt;/b&gt;</description>
<wire x1="0" y1="0.635" x2="0.635" y2="1.27" width="0.1524" layer="21"/>
<wire x1="0.635" y1="1.27" x2="1.905" y2="1.27" width="0.1524" layer="21"/>
<wire x1="1.905" y1="1.27" x2="2.54" y2="0.635" width="0.1524" layer="21"/>
<wire x1="2.54" y1="0.635" x2="2.54" y2="-0.635" width="0.1524" layer="21"/>
<wire x1="2.54" y1="-0.635" x2="1.905" y2="-1.27" width="0.1524" layer="21"/>
<wire x1="1.905" y1="-1.27" x2="0.635" y2="-1.27" width="0.1524" layer="21"/>
<wire x1="0.635" y1="-1.27" x2="0" y2="-0.635" width="0.1524" layer="21"/>
<wire x1="-4.445" y1="1.27" x2="-3.175" y2="1.27" width="0.1524" layer="21"/>
<wire x1="-3.175" y1="1.27" x2="-2.54" y2="0.635" width="0.1524" layer="21"/>
<wire x1="-2.54" y1="0.635" x2="-2.54" y2="-0.635" width="0.1524" layer="21"/>
<wire x1="-2.54" y1="-0.635" x2="-3.175" y2="-1.27" width="0.1524" layer="21"/>
<wire x1="-2.54" y1="0.635" x2="-1.905" y2="1.27" width="0.1524" layer="21"/>
<wire x1="-1.905" y1="1.27" x2="-0.635" y2="1.27" width="0.1524" layer="21"/>
<wire x1="-0.635" y1="1.27" x2="0" y2="0.635" width="0.1524" layer="21"/>
<wire x1="0" y1="0.635" x2="0" y2="-0.635" width="0.1524" layer="21"/>
<wire x1="0" y1="-0.635" x2="-0.635" y2="-1.27" width="0.1524" layer="21"/>
<wire x1="-0.635" y1="-1.27" x2="-1.905" y2="-1.27" width="0.1524" layer="21"/>
<wire x1="-1.905" y1="-1.27" x2="-2.54" y2="-0.635" width="0.1524" layer="21"/>
<wire x1="-5.08" y1="0.635" x2="-5.08" y2="-0.635" width="0.1524" layer="21"/>
<wire x1="-4.445" y1="1.27" x2="-5.08" y2="0.635" width="0.1524" layer="21"/>
<wire x1="-5.08" y1="-0.635" x2="-4.445" y2="-1.27" width="0.1524" layer="21"/>
<wire x1="-3.175" y1="-1.27" x2="-4.445" y2="-1.27" width="0.1524" layer="21"/>
<wire x1="3.175" y1="1.27" x2="4.445" y2="1.27" width="0.1524" layer="21"/>
<wire x1="4.445" y1="1.27" x2="5.08" y2="0.635" width="0.1524" layer="21"/>
<wire x1="5.08" y1="0.635" x2="5.08" y2="-0.635" width="0.1524" layer="21"/>
<wire x1="5.08" y1="-0.635" x2="4.445" y2="-1.27" width="0.1524" layer="21"/>
<wire x1="3.175" y1="1.27" x2="2.54" y2="0.635" width="0.1524" layer="21"/>
<wire x1="2.54" y1="-0.635" x2="3.175" y2="-1.27" width="0.1524" layer="21"/>
<wire x1="4.445" y1="-1.27" x2="3.175" y2="-1.27" width="0.1524" layer="21"/>
<pad name="1" x="-3.81" y="0" drill="1.016" shape="long" rot="R90"/>
<pad name="2" x="-1.27" y="0" drill="1.016" shape="long" rot="R90"/>
<pad name="3" x="1.27" y="0" drill="1.016" shape="long" rot="R90"/>
<pad name="4" x="3.81" y="0" drill="1.016" shape="long" rot="R90"/>
<text x="-5.1562" y="1.8288" size="1.27" layer="25" ratio="10">&gt;NAME</text>
<text x="-5.08" y="-3.175" size="1.27" layer="27">&gt;VALUE</text>
<rectangle x1="1.016" y1="-0.254" x2="1.524" y2="0.254" layer="51"/>
<rectangle x1="-1.524" y1="-0.254" x2="-1.016" y2="0.254" layer="51"/>
<rectangle x1="-4.064" y1="-0.254" x2="-3.556" y2="0.254" layer="51"/>
<rectangle x1="3.556" y1="-0.254" x2="4.064" y2="0.254" layer="51"/>
</package>
<package name="1X02" urn="urn:adsk.eagle:footprint:22309/1" library_version="3">
<description>&lt;b&gt;PIN HEADER&lt;/b&gt;</description>
<wire x1="-1.905" y1="1.27" x2="-0.635" y2="1.27" width="0.1524" layer="21"/>
<wire x1="-0.635" y1="1.27" x2="0" y2="0.635" width="0.1524" layer="21"/>
<wire x1="0" y1="0.635" x2="0" y2="-0.635" width="0.1524" layer="21"/>
<wire x1="0" y1="-0.635" x2="-0.635" y2="-1.27" width="0.1524" layer="21"/>
<wire x1="-2.54" y1="0.635" x2="-2.54" y2="-0.635" width="0.1524" layer="21"/>
<wire x1="-1.905" y1="1.27" x2="-2.54" y2="0.635" width="0.1524" layer="21"/>
<wire x1="-2.54" y1="-0.635" x2="-1.905" y2="-1.27" width="0.1524" layer="21"/>
<wire x1="-0.635" y1="-1.27" x2="-1.905" y2="-1.27" width="0.1524" layer="21"/>
<wire x1="0" y1="0.635" x2="0.635" y2="1.27" width="0.1524" layer="21"/>
<wire x1="0.635" y1="1.27" x2="1.905" y2="1.27" width="0.1524" layer="21"/>
<wire x1="1.905" y1="1.27" x2="2.54" y2="0.635" width="0.1524" layer="21"/>
<wire x1="2.54" y1="0.635" x2="2.54" y2="-0.635" width="0.1524" layer="21"/>
<wire x1="2.54" y1="-0.635" x2="1.905" y2="-1.27" width="0.1524" layer="21"/>
<wire x1="1.905" y1="-1.27" x2="0.635" y2="-1.27" width="0.1524" layer="21"/>
<wire x1="0.635" y1="-1.27" x2="0" y2="-0.635" width="0.1524" layer="21"/>
<pad name="1" x="-1.27" y="0" drill="1.016" shape="long" rot="R90"/>
<pad name="2" x="1.27" y="0" drill="1.016" shape="long" rot="R90"/>
<text x="-2.6162" y="1.8288" size="1.27" layer="25" ratio="10">&gt;NAME</text>
<text x="-2.54" y="-3.175" size="1.27" layer="27">&gt;VALUE</text>
<rectangle x1="-1.524" y1="-0.254" x2="-1.016" y2="0.254" layer="51"/>
<rectangle x1="1.016" y1="-0.254" x2="1.524" y2="0.254" layer="51"/>
</package>
<package name="1X06" urn="urn:adsk.eagle:footprint:22361/1" library_version="3">
<description>&lt;b&gt;PIN HEADER&lt;/b&gt;</description>
<wire x1="0.635" y1="1.27" x2="1.905" y2="1.27" width="0.1524" layer="21"/>
<wire x1="1.905" y1="1.27" x2="2.54" y2="0.635" width="0.1524" layer="21"/>
<wire x1="2.54" y1="0.635" x2="2.54" y2="-0.635" width="0.1524" layer="21"/>
<wire x1="2.54" y1="-0.635" x2="1.905" y2="-1.27" width="0.1524" layer="21"/>
<wire x1="2.54" y1="0.635" x2="3.175" y2="1.27" width="0.1524" layer="21"/>
<wire x1="3.175" y1="1.27" x2="4.445" y2="1.27" width="0.1524" layer="21"/>
<wire x1="4.445" y1="1.27" x2="5.08" y2="0.635" width="0.1524" layer="21"/>
<wire x1="5.08" y1="0.635" x2="5.08" y2="-0.635" width="0.1524" layer="21"/>
<wire x1="5.08" y1="-0.635" x2="4.445" y2="-1.27" width="0.1524" layer="21"/>
<wire x1="4.445" y1="-1.27" x2="3.175" y2="-1.27" width="0.1524" layer="21"/>
<wire x1="3.175" y1="-1.27" x2="2.54" y2="-0.635" width="0.1524" layer="21"/>
<wire x1="-2.54" y1="0.635" x2="-1.905" y2="1.27" width="0.1524" layer="21"/>
<wire x1="-1.905" y1="1.27" x2="-0.635" y2="1.27" width="0.1524" layer="21"/>
<wire x1="-0.635" y1="1.27" x2="0" y2="0.635" width="0.1524" layer="21"/>
<wire x1="0" y1="0.635" x2="0" y2="-0.635" width="0.1524" layer="21"/>
<wire x1="0" y1="-0.635" x2="-0.635" y2="-1.27" width="0.1524" layer="21"/>
<wire x1="-0.635" y1="-1.27" x2="-1.905" y2="-1.27" width="0.1524" layer="21"/>
<wire x1="-1.905" y1="-1.27" x2="-2.54" y2="-0.635" width="0.1524" layer="21"/>
<wire x1="0.635" y1="1.27" x2="0" y2="0.635" width="0.1524" layer="21"/>
<wire x1="0" y1="-0.635" x2="0.635" y2="-1.27" width="0.1524" layer="21"/>
<wire x1="1.905" y1="-1.27" x2="0.635" y2="-1.27" width="0.1524" layer="21"/>
<wire x1="-6.985" y1="1.27" x2="-5.715" y2="1.27" width="0.1524" layer="21"/>
<wire x1="-5.715" y1="1.27" x2="-5.08" y2="0.635" width="0.1524" layer="21"/>
<wire x1="-5.08" y1="0.635" x2="-5.08" y2="-0.635" width="0.1524" layer="21"/>
<wire x1="-5.08" y1="-0.635" x2="-5.715" y2="-1.27" width="0.1524" layer="21"/>
<wire x1="-5.08" y1="0.635" x2="-4.445" y2="1.27" width="0.1524" layer="21"/>
<wire x1="-4.445" y1="1.27" x2="-3.175" y2="1.27" width="0.1524" layer="21"/>
<wire x1="-3.175" y1="1.27" x2="-2.54" y2="0.635" width="0.1524" layer="21"/>
<wire x1="-2.54" y1="0.635" x2="-2.54" y2="-0.635" width="0.1524" layer="21"/>
<wire x1="-2.54" y1="-0.635" x2="-3.175" y2="-1.27" width="0.1524" layer="21"/>
<wire x1="-3.175" y1="-1.27" x2="-4.445" y2="-1.27" width="0.1524" layer="21"/>
<wire x1="-4.445" y1="-1.27" x2="-5.08" y2="-0.635" width="0.1524" layer="21"/>
<wire x1="-7.62" y1="0.635" x2="-7.62" y2="-0.635" width="0.1524" layer="21"/>
<wire x1="-6.985" y1="1.27" x2="-7.62" y2="0.635" width="0.1524" layer="21"/>
<wire x1="-7.62" y1="-0.635" x2="-6.985" y2="-1.27" width="0.1524" layer="21"/>
<wire x1="-5.715" y1="-1.27" x2="-6.985" y2="-1.27" width="0.1524" layer="21"/>
<wire x1="5.715" y1="1.27" x2="6.985" y2="1.27" width="0.1524" layer="21"/>
<wire x1="6.985" y1="1.27" x2="7.62" y2="0.635" width="0.1524" layer="21"/>
<wire x1="7.62" y1="0.635" x2="7.62" y2="-0.635" width="0.1524" layer="21"/>
<wire x1="7.62" y1="-0.635" x2="6.985" y2="-1.27" width="0.1524" layer="21"/>
<wire x1="5.715" y1="1.27" x2="5.08" y2="0.635" width="0.1524" layer="21"/>
<wire x1="5.08" y1="-0.635" x2="5.715" y2="-1.27" width="0.1524" layer="21"/>
<wire x1="6.985" y1="-1.27" x2="5.715" y2="-1.27" width="0.1524" layer="21"/>
<pad name="1" x="-6.35" y="0" drill="1.016" shape="long" rot="R90"/>
<pad name="2" x="-3.81" y="0" drill="1.016" shape="long" rot="R90"/>
<pad name="3" x="-1.27" y="0" drill="1.016" shape="long" rot="R90"/>
<pad name="4" x="1.27" y="0" drill="1.016" shape="long" rot="R90"/>
<pad name="5" x="3.81" y="0" drill="1.016" shape="long" rot="R90"/>
<pad name="6" x="6.35" y="0" drill="1.016" shape="long" rot="R90"/>
<text x="-7.6962" y="1.8288" size="1.27" layer="25" ratio="10">&gt;NAME</text>
<text x="-7.62" y="-3.175" size="1.27" layer="27">&gt;VALUE</text>
<rectangle x1="3.556" y1="-0.254" x2="4.064" y2="0.254" layer="51"/>
<rectangle x1="1.016" y1="-0.254" x2="1.524" y2="0.254" layer="51"/>
<rectangle x1="-1.524" y1="-0.254" x2="-1.016" y2="0.254" layer="51"/>
<rectangle x1="-4.064" y1="-0.254" x2="-3.556" y2="0.254" layer="51"/>
<rectangle x1="-6.604" y1="-0.254" x2="-6.096" y2="0.254" layer="51"/>
<rectangle x1="6.096" y1="-0.254" x2="6.604" y2="0.254" layer="51"/>
</package>
</packages>
<packages3d>
<package3d name="1X08" urn="urn:adsk.eagle:package:22409/2" type="model" library_version="3">
<description>PIN HEADER</description>
</package3d>
<package3d name="1X03" urn="urn:adsk.eagle:package:22458/2" type="model" library_version="3">
<description>PIN HEADER</description>
</package3d>
<package3d name="1X05" urn="urn:adsk.eagle:package:22469/2" type="model" library_version="3">
<description>PIN HEADER</description>
</package3d>
<package3d name="1X04" urn="urn:adsk.eagle:package:22407/2" type="model" library_version="3">
<description>PIN HEADER</description>
</package3d>
<package3d name="1X02" urn="urn:adsk.eagle:package:22435/2" type="model" library_version="3">
<description>PIN HEADER</description>
</package3d>
<package3d name="1X06" urn="urn:adsk.eagle:package:22472/2" type="model" library_version="3">
<description>PIN HEADER</description>
</package3d>
</packages3d>
</library>
<library name="IS62C1024AL-35QI-TR">
<packages>
<package name="SOIC127P1412X305-32N">
<wire x1="5.715" y1="10.1346" x2="5.715" y2="10.3632" width="0.1524" layer="21"/>
<wire x1="-5.715" y1="-10.1346" x2="-5.715" y2="-10.3632" width="0.1524" layer="21"/>
<wire x1="-5.715" y1="-10.3632" x2="5.715" y2="-10.3632" width="0.1524" layer="21"/>
<wire x1="5.715" y1="-10.3632" x2="5.715" y2="-10.1346" width="0.1524" layer="21"/>
<wire x1="5.715" y1="10.3632" x2="0.3048" y2="10.3632" width="0.1524" layer="21"/>
<wire x1="0.3048" y1="10.3632" x2="-0.3048" y2="10.3632" width="0.1524" layer="21"/>
<wire x1="-0.3048" y1="10.3632" x2="-5.715" y2="10.3632" width="0.1524" layer="21"/>
<wire x1="-5.715" y1="10.3632" x2="-5.715" y2="10.1346" width="0.1524" layer="21"/>
<wire x1="0.3048" y1="10.3632" x2="-0.3048" y2="10.3632" width="0.1524" layer="21" curve="-180"/>
<wire x1="-5.715" y1="9.271" x2="-5.715" y2="9.779" width="0" layer="51"/>
<wire x1="-5.715" y1="9.779" x2="-7.2136" y2="9.779" width="0" layer="51"/>
<wire x1="-7.2136" y1="9.779" x2="-7.2136" y2="9.271" width="0" layer="51"/>
<wire x1="-7.2136" y1="9.271" x2="-5.715" y2="9.271" width="0" layer="51"/>
<wire x1="-5.715" y1="8.001" x2="-5.715" y2="8.509" width="0" layer="51"/>
<wire x1="-5.715" y1="8.509" x2="-7.2136" y2="8.509" width="0" layer="51"/>
<wire x1="-7.2136" y1="8.509" x2="-7.2136" y2="8.001" width="0" layer="51"/>
<wire x1="-7.2136" y1="8.001" x2="-5.715" y2="8.001" width="0" layer="51"/>
<wire x1="-5.715" y1="6.731" x2="-5.715" y2="7.239" width="0" layer="51"/>
<wire x1="-5.715" y1="7.239" x2="-7.2136" y2="7.239" width="0" layer="51"/>
<wire x1="-7.2136" y1="7.239" x2="-7.2136" y2="6.731" width="0" layer="51"/>
<wire x1="-7.2136" y1="6.731" x2="-5.715" y2="6.731" width="0" layer="51"/>
<wire x1="-5.715" y1="5.461" x2="-5.715" y2="5.969" width="0" layer="51"/>
<wire x1="-5.715" y1="5.969" x2="-7.2136" y2="5.969" width="0" layer="51"/>
<wire x1="-7.2136" y1="5.969" x2="-7.2136" y2="5.461" width="0" layer="51"/>
<wire x1="-7.2136" y1="5.461" x2="-5.715" y2="5.461" width="0" layer="51"/>
<wire x1="-5.715" y1="4.191" x2="-5.715" y2="4.699" width="0" layer="51"/>
<wire x1="-5.715" y1="4.699" x2="-7.2136" y2="4.699" width="0" layer="51"/>
<wire x1="-7.2136" y1="4.699" x2="-7.2136" y2="4.191" width="0" layer="51"/>
<wire x1="-7.2136" y1="4.191" x2="-5.715" y2="4.191" width="0" layer="51"/>
<wire x1="-5.715" y1="2.921" x2="-5.715" y2="3.429" width="0" layer="51"/>
<wire x1="-5.715" y1="3.429" x2="-7.2136" y2="3.429" width="0" layer="51"/>
<wire x1="-7.2136" y1="3.429" x2="-7.2136" y2="2.921" width="0" layer="51"/>
<wire x1="-7.2136" y1="2.921" x2="-5.715" y2="2.921" width="0" layer="51"/>
<wire x1="-5.715" y1="1.651" x2="-5.715" y2="2.159" width="0" layer="51"/>
<wire x1="-5.715" y1="2.159" x2="-7.2136" y2="2.159" width="0" layer="51"/>
<wire x1="-7.2136" y1="2.159" x2="-7.2136" y2="1.651" width="0" layer="51"/>
<wire x1="-7.2136" y1="1.651" x2="-5.715" y2="1.651" width="0" layer="51"/>
<wire x1="-5.715" y1="0.381" x2="-5.715" y2="0.889" width="0" layer="51"/>
<wire x1="-5.715" y1="0.889" x2="-7.2136" y2="0.889" width="0" layer="51"/>
<wire x1="-7.2136" y1="0.889" x2="-7.2136" y2="0.381" width="0" layer="51"/>
<wire x1="-7.2136" y1="0.381" x2="-5.715" y2="0.381" width="0" layer="51"/>
<wire x1="-5.715" y1="-0.889" x2="-5.715" y2="-0.381" width="0" layer="51"/>
<wire x1="-5.715" y1="-0.381" x2="-7.2136" y2="-0.381" width="0" layer="51"/>
<wire x1="-7.2136" y1="-0.381" x2="-7.2136" y2="-0.889" width="0" layer="51"/>
<wire x1="-7.2136" y1="-0.889" x2="-5.715" y2="-0.889" width="0" layer="51"/>
<wire x1="-5.715" y1="-2.159" x2="-5.715" y2="-1.651" width="0" layer="51"/>
<wire x1="-5.715" y1="-1.651" x2="-7.2136" y2="-1.651" width="0" layer="51"/>
<wire x1="-7.2136" y1="-1.651" x2="-7.2136" y2="-2.159" width="0" layer="51"/>
<wire x1="-7.2136" y1="-2.159" x2="-5.715" y2="-2.159" width="0" layer="51"/>
<wire x1="-5.715" y1="-3.429" x2="-5.715" y2="-2.921" width="0" layer="51"/>
<wire x1="-5.715" y1="-2.921" x2="-7.2136" y2="-2.921" width="0" layer="51"/>
<wire x1="-7.2136" y1="-2.921" x2="-7.2136" y2="-3.429" width="0" layer="51"/>
<wire x1="-7.2136" y1="-3.429" x2="-5.715" y2="-3.429" width="0" layer="51"/>
<wire x1="-5.715" y1="-4.699" x2="-5.715" y2="-4.191" width="0" layer="51"/>
<wire x1="-5.715" y1="-4.191" x2="-7.2136" y2="-4.191" width="0" layer="51"/>
<wire x1="-7.2136" y1="-4.191" x2="-7.2136" y2="-4.699" width="0" layer="51"/>
<wire x1="-7.2136" y1="-4.699" x2="-5.715" y2="-4.699" width="0" layer="51"/>
<wire x1="-5.715" y1="-5.969" x2="-5.715" y2="-5.461" width="0" layer="51"/>
<wire x1="-5.715" y1="-5.461" x2="-7.2136" y2="-5.461" width="0" layer="51"/>
<wire x1="-7.2136" y1="-5.461" x2="-7.2136" y2="-5.969" width="0" layer="51"/>
<wire x1="-7.2136" y1="-5.969" x2="-5.715" y2="-5.969" width="0" layer="51"/>
<wire x1="-5.715" y1="-7.239" x2="-5.715" y2="-6.731" width="0" layer="51"/>
<wire x1="-5.715" y1="-6.731" x2="-7.2136" y2="-6.731" width="0" layer="51"/>
<wire x1="-7.2136" y1="-6.731" x2="-7.2136" y2="-7.239" width="0" layer="51"/>
<wire x1="-7.2136" y1="-7.239" x2="-5.715" y2="-7.239" width="0" layer="51"/>
<wire x1="-5.715" y1="-8.509" x2="-5.715" y2="-8.001" width="0" layer="51"/>
<wire x1="-5.715" y1="-8.001" x2="-7.2136" y2="-8.001" width="0" layer="51"/>
<wire x1="-7.2136" y1="-8.001" x2="-7.2136" y2="-8.509" width="0" layer="51"/>
<wire x1="-7.2136" y1="-8.509" x2="-5.715" y2="-8.509" width="0" layer="51"/>
<wire x1="-5.715" y1="-9.779" x2="-5.715" y2="-9.271" width="0" layer="51"/>
<wire x1="-5.715" y1="-9.271" x2="-7.2136" y2="-9.271" width="0" layer="51"/>
<wire x1="-7.2136" y1="-9.271" x2="-7.2136" y2="-9.779" width="0" layer="51"/>
<wire x1="-7.2136" y1="-9.779" x2="-5.715" y2="-9.779" width="0" layer="51"/>
<wire x1="5.715" y1="-9.271" x2="5.715" y2="-9.779" width="0" layer="51"/>
<wire x1="5.715" y1="-9.779" x2="7.2136" y2="-9.779" width="0" layer="51"/>
<wire x1="7.2136" y1="-9.779" x2="7.2136" y2="-9.271" width="0" layer="51"/>
<wire x1="7.2136" y1="-9.271" x2="5.715" y2="-9.271" width="0" layer="51"/>
<wire x1="5.715" y1="-8.001" x2="5.715" y2="-8.509" width="0" layer="51"/>
<wire x1="5.715" y1="-8.509" x2="7.2136" y2="-8.509" width="0" layer="51"/>
<wire x1="7.2136" y1="-8.509" x2="7.2136" y2="-8.001" width="0" layer="51"/>
<wire x1="7.2136" y1="-8.001" x2="5.715" y2="-8.001" width="0" layer="51"/>
<wire x1="5.715" y1="-6.731" x2="5.715" y2="-7.239" width="0" layer="51"/>
<wire x1="5.715" y1="-7.239" x2="7.2136" y2="-7.239" width="0" layer="51"/>
<wire x1="7.2136" y1="-7.239" x2="7.2136" y2="-6.731" width="0" layer="51"/>
<wire x1="7.2136" y1="-6.731" x2="5.715" y2="-6.731" width="0" layer="51"/>
<wire x1="5.715" y1="-5.461" x2="5.715" y2="-5.969" width="0" layer="51"/>
<wire x1="5.715" y1="-5.969" x2="7.2136" y2="-5.969" width="0" layer="51"/>
<wire x1="7.2136" y1="-5.969" x2="7.2136" y2="-5.461" width="0" layer="51"/>
<wire x1="7.2136" y1="-5.461" x2="5.715" y2="-5.461" width="0" layer="51"/>
<wire x1="5.715" y1="-4.191" x2="5.715" y2="-4.699" width="0" layer="51"/>
<wire x1="5.715" y1="-4.699" x2="7.2136" y2="-4.699" width="0" layer="51"/>
<wire x1="7.2136" y1="-4.699" x2="7.2136" y2="-4.191" width="0" layer="51"/>
<wire x1="7.2136" y1="-4.191" x2="5.715" y2="-4.191" width="0" layer="51"/>
<wire x1="5.715" y1="-2.921" x2="5.715" y2="-3.429" width="0" layer="51"/>
<wire x1="5.715" y1="-3.429" x2="7.2136" y2="-3.429" width="0" layer="51"/>
<wire x1="7.2136" y1="-3.429" x2="7.2136" y2="-2.921" width="0" layer="51"/>
<wire x1="7.2136" y1="-2.921" x2="5.715" y2="-2.921" width="0" layer="51"/>
<wire x1="5.715" y1="-1.651" x2="5.715" y2="-2.159" width="0" layer="51"/>
<wire x1="5.715" y1="-2.159" x2="7.2136" y2="-2.159" width="0" layer="51"/>
<wire x1="7.2136" y1="-2.159" x2="7.2136" y2="-1.651" width="0" layer="51"/>
<wire x1="7.2136" y1="-1.651" x2="5.715" y2="-1.651" width="0" layer="51"/>
<wire x1="5.715" y1="-0.381" x2="5.715" y2="-0.889" width="0" layer="51"/>
<wire x1="5.715" y1="-0.889" x2="7.2136" y2="-0.889" width="0" layer="51"/>
<wire x1="7.2136" y1="-0.889" x2="7.2136" y2="-0.381" width="0" layer="51"/>
<wire x1="7.2136" y1="-0.381" x2="5.715" y2="-0.381" width="0" layer="51"/>
<wire x1="5.715" y1="0.889" x2="5.715" y2="0.381" width="0" layer="51"/>
<wire x1="5.715" y1="0.381" x2="7.2136" y2="0.381" width="0" layer="51"/>
<wire x1="7.2136" y1="0.381" x2="7.2136" y2="0.889" width="0" layer="51"/>
<wire x1="7.2136" y1="0.889" x2="5.715" y2="0.889" width="0" layer="51"/>
<wire x1="5.715" y1="2.159" x2="5.715" y2="1.651" width="0" layer="51"/>
<wire x1="5.715" y1="1.651" x2="7.2136" y2="1.651" width="0" layer="51"/>
<wire x1="7.2136" y1="1.651" x2="7.2136" y2="2.159" width="0" layer="51"/>
<wire x1="7.2136" y1="2.159" x2="5.715" y2="2.159" width="0" layer="51"/>
<wire x1="5.715" y1="3.429" x2="5.715" y2="2.921" width="0" layer="51"/>
<wire x1="5.715" y1="2.921" x2="7.2136" y2="2.921" width="0" layer="51"/>
<wire x1="7.2136" y1="2.921" x2="7.2136" y2="3.429" width="0" layer="51"/>
<wire x1="7.2136" y1="3.429" x2="5.715" y2="3.429" width="0" layer="51"/>
<wire x1="5.715" y1="4.699" x2="5.715" y2="4.191" width="0" layer="51"/>
<wire x1="5.715" y1="4.191" x2="7.2136" y2="4.191" width="0" layer="51"/>
<wire x1="7.2136" y1="4.191" x2="7.2136" y2="4.699" width="0" layer="51"/>
<wire x1="7.2136" y1="4.699" x2="5.715" y2="4.699" width="0" layer="51"/>
<wire x1="5.715" y1="5.969" x2="5.715" y2="5.461" width="0" layer="51"/>
<wire x1="5.715" y1="5.461" x2="7.2136" y2="5.461" width="0" layer="51"/>
<wire x1="7.2136" y1="5.461" x2="7.2136" y2="5.969" width="0" layer="51"/>
<wire x1="7.2136" y1="5.969" x2="5.715" y2="5.969" width="0" layer="51"/>
<wire x1="5.715" y1="7.239" x2="5.715" y2="6.731" width="0" layer="51"/>
<wire x1="5.715" y1="6.731" x2="7.2136" y2="6.731" width="0" layer="51"/>
<wire x1="7.2136" y1="6.731" x2="7.2136" y2="7.239" width="0" layer="51"/>
<wire x1="7.2136" y1="7.239" x2="5.715" y2="7.239" width="0" layer="51"/>
<wire x1="5.715" y1="8.509" x2="5.715" y2="8.001" width="0" layer="51"/>
<wire x1="5.715" y1="8.001" x2="7.2136" y2="8.001" width="0" layer="51"/>
<wire x1="7.2136" y1="8.001" x2="7.2136" y2="8.509" width="0" layer="51"/>
<wire x1="7.2136" y1="8.509" x2="5.715" y2="8.509" width="0" layer="51"/>
<wire x1="5.715" y1="9.779" x2="5.715" y2="9.271" width="0" layer="51"/>
<wire x1="5.715" y1="9.271" x2="7.2136" y2="9.271" width="0" layer="51"/>
<wire x1="7.2136" y1="9.271" x2="7.2136" y2="9.779" width="0" layer="51"/>
<wire x1="7.2136" y1="9.779" x2="5.715" y2="9.779" width="0" layer="51"/>
<wire x1="-5.715" y1="-10.3632" x2="5.715" y2="-10.3632" width="0" layer="51"/>
<wire x1="5.715" y1="-10.3632" x2="5.715" y2="10.3632" width="0" layer="51"/>
<wire x1="5.715" y1="10.3632" x2="0.3048" y2="10.3632" width="0" layer="51"/>
<wire x1="0.3048" y1="10.3632" x2="-0.3048" y2="10.3632" width="0" layer="51"/>
<wire x1="-0.3048" y1="10.3632" x2="-5.715" y2="10.3632" width="0" layer="51"/>
<wire x1="-5.715" y1="10.3632" x2="-5.715" y2="-10.3632" width="0" layer="51"/>
<wire x1="0.3048" y1="10.3632" x2="-0.3048" y2="10.3632" width="0" layer="51" curve="-180"/>
<text x="-3.463540625" y="12.7335" size="2.0883" layer="25" ratio="10" rot="SR0">&gt;NAME</text>
<text x="-3.46963125" y="-14.6695" size="2.091990625" layer="27" ratio="10" rot="SR0">&gt;VALUE</text>
<smd name="1" x="-6.5786" y="9.525" dx="1.9812" dy="0.5588" layer="1"/>
<smd name="2" x="-6.5786" y="8.255" dx="1.9812" dy="0.5588" layer="1"/>
<smd name="3" x="-6.5786" y="6.985" dx="1.9812" dy="0.5588" layer="1"/>
<smd name="4" x="-6.5786" y="5.715" dx="1.9812" dy="0.5588" layer="1"/>
<smd name="5" x="-6.5786" y="4.445" dx="1.9812" dy="0.5588" layer="1"/>
<smd name="6" x="-6.5786" y="3.175" dx="1.9812" dy="0.5588" layer="1"/>
<smd name="7" x="-6.5786" y="1.905" dx="1.9812" dy="0.5588" layer="1"/>
<smd name="8" x="-6.5786" y="0.635" dx="1.9812" dy="0.5588" layer="1"/>
<smd name="9" x="-6.5786" y="-0.635" dx="1.9812" dy="0.5588" layer="1"/>
<smd name="10" x="-6.5786" y="-1.905" dx="1.9812" dy="0.5588" layer="1"/>
<smd name="11" x="-6.5786" y="-3.175" dx="1.9812" dy="0.5588" layer="1"/>
<smd name="12" x="-6.5786" y="-4.445" dx="1.9812" dy="0.5588" layer="1"/>
<smd name="13" x="-6.5786" y="-5.715" dx="1.9812" dy="0.5588" layer="1"/>
<smd name="14" x="-6.5786" y="-6.985" dx="1.9812" dy="0.5588" layer="1"/>
<smd name="15" x="-6.5786" y="-8.255" dx="1.9812" dy="0.5588" layer="1"/>
<smd name="16" x="-6.5786" y="-9.525" dx="1.9812" dy="0.5588" layer="1"/>
<smd name="17" x="6.5786" y="-9.525" dx="1.9812" dy="0.5588" layer="1"/>
<smd name="18" x="6.5786" y="-8.255" dx="1.9812" dy="0.5588" layer="1"/>
<smd name="19" x="6.5786" y="-6.985" dx="1.9812" dy="0.5588" layer="1"/>
<smd name="20" x="6.5786" y="-5.715" dx="1.9812" dy="0.5588" layer="1"/>
<smd name="21" x="6.5786" y="-4.445" dx="1.9812" dy="0.5588" layer="1"/>
<smd name="22" x="6.5786" y="-3.175" dx="1.9812" dy="0.5588" layer="1"/>
<smd name="23" x="6.5786" y="-1.905" dx="1.9812" dy="0.5588" layer="1"/>
<smd name="24" x="6.5786" y="-0.635" dx="1.9812" dy="0.5588" layer="1"/>
<smd name="25" x="6.5786" y="0.635" dx="1.9812" dy="0.5588" layer="1"/>
<smd name="26" x="6.5786" y="1.905" dx="1.9812" dy="0.5588" layer="1"/>
<smd name="27" x="6.5786" y="3.175" dx="1.9812" dy="0.5588" layer="1"/>
<smd name="28" x="6.5786" y="4.445" dx="1.9812" dy="0.5588" layer="1"/>
<smd name="29" x="6.5786" y="5.715" dx="1.9812" dy="0.5588" layer="1"/>
<smd name="30" x="6.5786" y="6.985" dx="1.9812" dy="0.5588" layer="1"/>
<smd name="31" x="6.5786" y="8.255" dx="1.9812" dy="0.5588" layer="1"/>
<smd name="32" x="6.5786" y="9.525" dx="1.9812" dy="0.5588" layer="1"/>
</package>
</packages>
</library>
</libraries>
<attributes>
</attributes>
<variantdefs>
</variantdefs>
<classes>
<class number="0" name="default" width="0.3048" drill="0.381">
<clearance class="0" value="0.2032"/>
</class>
<class number="1" name="5V_VDD" width="0.762" drill="0.381">
<clearance class="1" value="0.2032"/>
</class>
</classes>
<designrules name="default *">
<description language="de">&lt;b&gt;EAGLE Design Rules&lt;/b&gt;
&lt;p&gt;
Die Standard-Design-Rules sind so gewählt, dass sie für 
die meisten Anwendungen passen. Sollte ihre Platine 
besondere Anforderungen haben, treffen Sie die erforderlichen
Einstellungen hier und speichern die Design Rules unter 
einem neuen Namen ab.</description>
<description language="en">&lt;b&gt;EAGLE Design Rules&lt;/b&gt;
&lt;p&gt;
The default Design Rules have been set to cover
a wide range of applications. Your particular design
may have different requirements, so please make the
necessary adjustments and save your customized
design rules under a new name.</description>
<param name="layerSetup" value="(1*16)"/>
<param name="mtCopper" value="0.035mm 0.035mm 0.035mm 0.035mm 0.035mm 0.035mm 0.035mm 0.035mm 0.035mm 0.035mm 0.035mm 0.035mm 0.035mm 0.035mm 0.035mm 0.035mm"/>
<param name="mtIsolate" value="1.5mm 0.15mm 0.2mm 0.15mm 0.2mm 0.15mm 0.2mm 0.15mm 0.2mm 0.15mm 0.2mm 0.15mm 0.2mm 0.15mm 0.2mm"/>
<param name="mdWireWire" value="8mil"/>
<param name="mdWirePad" value="8mil"/>
<param name="mdWireVia" value="8mil"/>
<param name="mdPadPad" value="8mil"/>
<param name="mdPadVia" value="8mil"/>
<param name="mdViaVia" value="8mil"/>
<param name="mdSmdPad" value="8mil"/>
<param name="mdSmdVia" value="8mil"/>
<param name="mdSmdSmd" value="8mil"/>
<param name="mdViaViaSameLayer" value="6mil"/>
<param name="mnLayersViaInSmd" value="2"/>
<param name="mdCopperDimension" value="40mil"/>
<param name="mdDrill" value="8mil"/>
<param name="mdSmdStop" value="0mil"/>
<param name="msWidth" value="8mil"/>
<param name="msDrill" value="0.35mm"/>
<param name="msMicroVia" value="9.99mm"/>
<param name="msBlindViaRatio" value="0.5"/>
<param name="rvPadTop" value="0.25"/>
<param name="rvPadInner" value="0.25"/>
<param name="rvPadBottom" value="0.25"/>
<param name="rvViaOuter" value="0.25"/>
<param name="rvViaInner" value="0.25"/>
<param name="rvMicroViaOuter" value="0.25"/>
<param name="rvMicroViaInner" value="0.25"/>
<param name="rlMinPadTop" value="10mil"/>
<param name="rlMaxPadTop" value="20mil"/>
<param name="rlMinPadInner" value="10mil"/>
<param name="rlMaxPadInner" value="20mil"/>
<param name="rlMinPadBottom" value="10mil"/>
<param name="rlMaxPadBottom" value="20mil"/>
<param name="rlMinViaOuter" value="8mil"/>
<param name="rlMaxViaOuter" value="20mil"/>
<param name="rlMinViaInner" value="8mil"/>
<param name="rlMaxViaInner" value="20mil"/>
<param name="rlMinMicroViaOuter" value="4mil"/>
<param name="rlMaxMicroViaOuter" value="20mil"/>
<param name="rlMinMicroViaInner" value="4mil"/>
<param name="rlMaxMicroViaInner" value="20mil"/>
<param name="psTop" value="-1"/>
<param name="psBottom" value="-1"/>
<param name="psFirst" value="-1"/>
<param name="psElongationLong" value="100"/>
<param name="psElongationOffset" value="100"/>
<param name="mvStopFrame" value="1"/>
<param name="mvCreamFrame" value="0"/>
<param name="mlMinStopFrame" value="4mil"/>
<param name="mlMaxStopFrame" value="4mil"/>
<param name="mlMinCreamFrame" value="0mil"/>
<param name="mlMaxCreamFrame" value="0mil"/>
<param name="mlViaStopLimit" value="0mil"/>
<param name="srRoundness" value="0"/>
<param name="srMinRoundness" value="0mil"/>
<param name="srMaxRoundness" value="0mil"/>
<param name="slThermalIsolate" value="10mil"/>
<param name="slThermalsForVias" value="0"/>
<param name="dpMaxLengthDifference" value="10mm"/>
<param name="dpGapFactor" value="2.5"/>
<param name="checkAngle" value="0"/>
<param name="checkFont" value="1"/>
<param name="checkRestrict" value="1"/>
<param name="checkStop" value="0"/>
<param name="checkValues" value="0"/>
<param name="useDiameter" value="13"/>
<param name="maxErrors" value="50"/>
</designrules>
<autorouter>
<pass name="Default">
<param name="RoutingGrid" value="50mil"/>
<param name="AutoGrid" value="1"/>
<param name="Efforts" value="2"/>
<param name="TopRouterVariant" value="1"/>
<param name="tpViaShape" value="round"/>
<param name="PrefDir.1" value="0"/>
<param name="PrefDir.2" value="0"/>
<param name="PrefDir.3" value="0"/>
<param name="PrefDir.4" value="0"/>
<param name="PrefDir.5" value="0"/>
<param name="PrefDir.6" value="0"/>
<param name="PrefDir.7" value="0"/>
<param name="PrefDir.8" value="0"/>
<param name="PrefDir.9" value="0"/>
<param name="PrefDir.10" value="0"/>
<param name="PrefDir.11" value="0"/>
<param name="PrefDir.12" value="0"/>
<param name="PrefDir.13" value="0"/>
<param name="PrefDir.14" value="0"/>
<param name="PrefDir.15" value="0"/>
<param name="PrefDir.16" value="a"/>
<param name="cfVia" value="8"/>
<param name="cfNonPref" value="5"/>
<param name="cfChangeDir" value="2"/>
<param name="cfOrthStep" value="2"/>
<param name="cfDiagStep" value="3"/>
<param name="cfExtdStep" value="0"/>
<param name="cfBonusStep" value="1"/>
<param name="cfMalusStep" value="1"/>
<param name="cfPadImpact" value="4"/>
<param name="cfSmdImpact" value="4"/>
<param name="cfBusImpact" value="0"/>
<param name="cfHugging" value="3"/>
<param name="cfAvoid" value="4"/>
<param name="cfPolygon" value="10"/>
<param name="cfBase.1" value="0"/>
<param name="cfBase.2" value="1"/>
<param name="cfBase.3" value="1"/>
<param name="cfBase.4" value="1"/>
<param name="cfBase.5" value="1"/>
<param name="cfBase.6" value="1"/>
<param name="cfBase.7" value="1"/>
<param name="cfBase.8" value="1"/>
<param name="cfBase.9" value="1"/>
<param name="cfBase.10" value="1"/>
<param name="cfBase.11" value="1"/>
<param name="cfBase.12" value="1"/>
<param name="cfBase.13" value="1"/>
<param name="cfBase.14" value="1"/>
<param name="cfBase.15" value="1"/>
<param name="cfBase.16" value="0"/>
<param name="mnVias" value="20"/>
<param name="mnSegments" value="9999"/>
<param name="mnExtdSteps" value="9999"/>
<param name="mnRipupLevel" value="10"/>
<param name="mnRipupSteps" value="100"/>
<param name="mnRipupTotal" value="100"/>
</pass>
<pass name="Follow-me" refer="Default" active="yes">
</pass>
<pass name="Busses" refer="Default" active="yes">
<param name="cfNonPref" value="4"/>
<param name="cfBusImpact" value="4"/>
<param name="cfHugging" value="0"/>
<param name="mnVias" value="0"/>
</pass>
<pass name="Route" refer="Default" active="yes">
</pass>
<pass name="Optimize1" refer="Default" active="yes">
<param name="cfVia" value="99"/>
<param name="cfExtdStep" value="10"/>
<param name="cfHugging" value="1"/>
<param name="mnExtdSteps" value="1"/>
<param name="mnRipupLevel" value="0"/>
</pass>
<pass name="Optimize2" refer="Optimize1" active="yes">
<param name="cfNonPref" value="0"/>
<param name="cfChangeDir" value="6"/>
<param name="cfExtdStep" value="0"/>
<param name="cfBonusStep" value="2"/>
<param name="cfMalusStep" value="2"/>
<param name="cfPadImpact" value="2"/>
<param name="cfSmdImpact" value="2"/>
<param name="cfHugging" value="0"/>
</pass>
<pass name="Optimize3" refer="Optimize2" active="yes">
<param name="cfChangeDir" value="8"/>
<param name="cfPadImpact" value="0"/>
<param name="cfSmdImpact" value="0"/>
</pass>
<pass name="Optimize4" refer="Optimize3" active="yes">
<param name="cfChangeDir" value="25"/>
</pass>
</autorouter>
<elements>
<element name="C1" library="adafruit" package="C025-024X044" value="" x="11.8" y="16.87"/>
<element name="C2" library="adafruit" package="C025-024X044" value="" x="50.71" y="16.87" rot="R180"/>
<element name="U1" library="IS62C1024AL-35QI-TR" package="SOIC127P1412X305-32N" value="IS62C1024AL-35QI-TR" x="61.6" y="26.1" rot="MR270">
<attribute name="DESCRIPTION" value=" SRAM Chip Async Single 5V 1M-Bit 128K x 8 35ns 32-Pin SOP T/R " x="61.6" y="26.1" size="1.778" layer="28" rot="MR270" display="off"/>
<attribute name="DIGI-KEY_PART_NUMBER" value="" x="61.6" y="26.1" size="1.778" layer="28" rot="MR270" display="off"/>
<attribute name="DIGI-KEY_PURCHASE_URL" value="" x="61.6" y="26.1" size="1.778" layer="28" rot="MR270" display="off"/>
<attribute name="MF" value="ISSI" x="61.6" y="26.1" size="1.778" layer="28" rot="MR270" display="off"/>
<attribute name="MP" value="IS62C1024AL-35QI-TR" x="61.6" y="26.1" size="1.778" layer="28" rot="MR270" display="off"/>
<attribute name="PACKAGE" value="SOP-32 ISSI" x="61.6" y="26.1" size="1.778" layer="28" rot="MR270" display="off"/>
</element>
<element name="U2" library="IS62C1024AL-35QI-TR" package="SOIC127P1412X305-32N" value="IS62C1024AL-35QI-TR" x="22.6" y="26.1" rot="MR270">
<attribute name="DESCRIPTION" value=" SRAM Chip Async Single 5V 1M-Bit 128K x 8 35ns 32-Pin SOP T/R " x="22.6" y="26.1" size="1.778" layer="28" rot="MR270" display="off"/>
<attribute name="DIGI-KEY_PART_NUMBER" value="" x="22.6" y="26.1" size="1.778" layer="28" rot="MR270" display="off"/>
<attribute name="DIGI-KEY_PURCHASE_URL" value="" x="22.6" y="26.1" size="1.778" layer="28" rot="MR270" display="off"/>
<attribute name="MF" value="ISSI" x="22.6" y="26.1" size="1.778" layer="28" rot="MR270" display="off"/>
<attribute name="MP" value="IS62C1024AL-35QI-TR" x="22.6" y="26.1" size="1.778" layer="28" rot="MR270" display="off"/>
<attribute name="PACKAGE" value="SOP-32 ISSI" x="22.6" y="26.1" size="1.778" layer="28" rot="MR270" display="off"/>
</element>
<element name="JP4" library="pinhead" library_urn="urn:adsk.eagle:library:325" package="1X08" package3d_urn="urn:adsk.eagle:package:22409/2" value="" x="25.8" y="37.5" rot="R180"/>
<element name="JP3" library="pinhead" library_urn="urn:adsk.eagle:library:325" package="1X03" package3d_urn="urn:adsk.eagle:package:22458/2" value="" x="66" y="37.5"/>
<element name="JP6" library="pinhead" library_urn="urn:adsk.eagle:library:325" package="1X05" package3d_urn="urn:adsk.eagle:package:22469/2" value="" x="66" y="13.6" rot="R180"/>
<element name="JP2" library="pinhead" library_urn="urn:adsk.eagle:library:325" package="1X04" package3d_urn="urn:adsk.eagle:package:22407/2" value="" x="20.4" y="13.6" rot="R180"/>
<element name="JP8" library="pinhead" library_urn="urn:adsk.eagle:library:325" package="1X04" package3d_urn="urn:adsk.eagle:package:22407/2" value="" x="42.4" y="13.6"/>
<element name="JP9" library="pinhead" library_urn="urn:adsk.eagle:library:325" package="1X02" package3d_urn="urn:adsk.eagle:package:22435/2" value="" x="50.7" y="13.6" rot="R180"/>
<element name="JP1" library="pinhead" library_urn="urn:adsk.eagle:library:325" package="1X03" package3d_urn="urn:adsk.eagle:package:22458/2" value="" x="6.9" y="35.2" rot="R270"/>
<element name="JP5" library="pinhead" library_urn="urn:adsk.eagle:library:325" package="1X06" package3d_urn="urn:adsk.eagle:package:22472/2" value="" x="6.9" y="21.3" rot="R90"/>
</elements>
<signals>
<signal name="GND">
<contactref element="U1" pad="16"/>
<contactref element="U2" pad="16"/>
<contactref element="C2" pad="2"/>
<contactref element="C1" pad="2"/>
<contactref element="JP9" pad="2"/>
<wire x1="32.125" y1="32.6786" x2="34.3786" y2="32.6786" width="0.381" layer="16"/>
<wire x1="41.54933125" y1="40.965" x2="68.7" y2="40.965" width="0.381" layer="16"/>
<wire x1="41.54933125" y1="40.965" x2="37.192165625" y2="36.607834375" width="0.381" layer="16"/>
<wire x1="68.7" y1="40.965" x2="71.125" y2="38.54" width="0.381" layer="16"/>
<wire x1="71.125" y1="38.54" x2="71.125" y2="32.6786" width="0.381" layer="16"/>
<wire x1="49.44" y1="12.51" x2="49.43" y2="13.6" width="0.381" layer="16"/>
<wire x1="49.44" y1="16.87" x2="49.44" y2="12.51" width="0.6028" layer="16"/>
<wire x1="49.43" y1="11.93" x2="49.43" y2="13.6" width="0.6028" layer="16"/>
<wire x1="13.2" y1="12.4" x2="14.4" y2="11.2" width="0.6028" layer="16"/>
<wire x1="13.2" y1="12.4" x2="13.2" y2="16.74" width="0.6028" layer="16"/>
<wire x1="13.2" y1="16.74" x2="13.07" y2="16.87" width="0.6028" layer="16"/>
<wire x1="48.7" y1="11.2" x2="49.43" y2="11.93" width="0.6028" layer="16"/>
<wire x1="14.4" y1="11.2" x2="34.5" y2="11.2" width="0.6028" layer="16"/>
<wire x1="34.5" y1="11.2" x2="48.7" y2="11.2" width="0.6028" layer="16"/>
<wire x1="34.3786" y1="32.6786" x2="34.4" y2="32.7" width="0.381" layer="16"/>
<via x="34.4" y="32.7" extent="1-16" drill="0.381" diameter="1.2"/>
<wire x1="34.4" y1="32.7" x2="34.4" y2="13.3" width="0.381" layer="1"/>
<via x="34.4" y="13.3" extent="1-16" drill="0.381" diameter="1"/>
<wire x1="34.4" y1="13.3" x2="34.4" y2="11.3" width="0.381" layer="16"/>
<wire x1="34.4" y1="11.3" x2="34.5" y2="11.2" width="0.381" layer="16"/>
<wire x1="37.192165625" y1="36.607834375" x2="37.192165625" y2="35.492165625" width="0.508" layer="16"/>
<wire x1="37.192165625" y1="35.492165625" x2="34.4" y2="32.7" width="0.508" layer="16"/>
</signal>
<signal name="A5">
<contactref element="U2" pad="7"/>
<contactref element="U1" pad="7"/>
<contactref element="JP4" pad="6"/>
<wire x1="59.7" y1="32.6736" x2="59.695" y2="32.6786" width="0.381" layer="16"/>
<wire x1="20.8" y1="32.7836" x2="20.695" y2="32.6786" width="0.381" layer="16"/>
<wire x1="20.8" y1="33.1" x2="20.8" y2="32.7836" width="0.381" layer="16"/>
<wire x1="21.99" y1="37.5" x2="21.99" y2="37.3" width="0.381" layer="16"/>
<wire x1="21.99" y1="37.3" x2="21.99" y2="36.19" width="0.381" layer="16"/>
<wire x1="20.7" y1="34.9" x2="20.7" y2="33.2" width="0.381" layer="16"/>
<wire x1="20.7" y1="33.2" x2="20.8" y2="33.1" width="0.381" layer="16"/>
<wire x1="21.99" y1="36.19" x2="20.7" y2="34.9" width="0.381" layer="16"/>
<wire x1="59.695" y1="32.6786" x2="59.695" y2="31.405" width="0.3048" layer="16"/>
<wire x1="59.695" y1="31.405" x2="61.3" y2="29.8" width="0.3048" layer="16"/>
<wire x1="61.3" y1="29.8" x2="72.7" y2="29.8" width="0.3048" layer="16"/>
<wire x1="72.7" y1="29.8" x2="74.1" y2="31.2" width="0.3048" layer="16"/>
<wire x1="74.1" y1="31.2" x2="74.1" y2="39" width="0.3048" layer="16"/>
<wire x1="69.7" y1="43.4" x2="26.5" y2="43.4" width="0.3048" layer="16"/>
<wire x1="21.9" y1="37.39" x2="21.99" y2="37.3" width="0.3048" layer="16"/>
<wire x1="74.1" y1="39" x2="69.7" y2="43.4" width="0.3048" layer="16"/>
<wire x1="26.5" y1="43.4" x2="21.9" y2="38.8" width="0.3048" layer="16"/>
<wire x1="21.9" y1="38.8" x2="21.9" y2="37.39" width="0.3048" layer="16"/>
</signal>
<signal name="A6">
<contactref element="U1" pad="6"/>
<contactref element="U2" pad="6"/>
<contactref element="JP4" pad="7"/>
<wire x1="58.425" y1="32.2" x2="58.425" y2="32.6786" width="0.381" layer="16"/>
<wire x1="19.45" y1="37.5" x2="19.55" y2="32.8036" width="0.381" layer="16"/>
<wire x1="19.55" y1="32.8036" x2="19.425" y2="32.6786" width="0.381" layer="16"/>
<wire x1="19.45" y1="37.5" x2="26.45" y2="44.5" width="0.3048" layer="16"/>
<wire x1="70.3" y1="44.5" x2="74.9" y2="39.9" width="0.3048" layer="16"/>
<wire x1="74.9" y1="30.5" x2="74.9" y2="39.9" width="0.3048" layer="16"/>
<wire x1="26.45" y1="44.5" x2="70.3" y2="44.5" width="0.3048" layer="16"/>
<wire x1="58.425" y1="31.175" x2="60.65" y2="28.95" width="0.3048" layer="16"/>
<wire x1="58.425" y1="31.175" x2="58.425" y2="32.2" width="0.3048" layer="16"/>
<wire x1="60.65" y1="28.95" x2="73.35" y2="28.95" width="0.3048" layer="16"/>
<wire x1="73.35" y1="28.95" x2="74.9" y2="30.5" width="0.3048" layer="16"/>
</signal>
<signal name="A8">
<contactref element="U1" pad="27"/>
<contactref element="U2" pad="27"/>
<contactref element="JP5" pad="3"/>
<wire x1="58.425" y1="19.5214" x2="58.425" y2="17.925" width="0.3048" layer="16"/>
<wire x1="55.3" y1="14.8" x2="55.3" y2="9.9" width="0.3048" layer="16"/>
<wire x1="55.3" y1="9.9" x2="50.8" y2="5.4" width="0.3048" layer="16"/>
<wire x1="3.9" y1="17.9" x2="6.1" y2="20.1" width="0.3048" layer="16"/>
<wire x1="6.1" y1="20.1" x2="6.17" y2="20.03" width="0.3048" layer="16"/>
<wire x1="6.17" y1="20.03" x2="6.4" y2="20.03" width="0.3048" layer="16"/>
<wire x1="6.4" y1="20.03" x2="6.9" y2="20.03" width="0.3048" layer="16"/>
<wire x1="58.425" y1="17.925" x2="55.3" y2="14.8" width="0.3048" layer="16"/>
<wire x1="50.8" y1="5.4" x2="8.4" y2="5.4" width="0.3048" layer="16"/>
<wire x1="8.4" y1="5.4" x2="3.9" y2="9.9" width="0.3048" layer="16"/>
<wire x1="3.9" y1="9.9" x2="3.9" y2="17.9" width="0.3048" layer="16"/>
<wire x1="19.425" y1="19.5214" x2="19.425" y2="20.475" width="0.3048" layer="16"/>
<wire x1="19.425" y1="20.475" x2="17.1" y2="22.8" width="0.3048" layer="16"/>
<wire x1="17.1" y1="22.8" x2="10.1" y2="22.8" width="0.3048" layer="16"/>
<wire x1="7.8" y1="20.5" x2="7.8" y2="20.1" width="0.3048" layer="16"/>
<wire x1="7.8" y1="20.1" x2="7.73" y2="20.03" width="0.3048" layer="16"/>
<wire x1="7.73" y1="20.03" x2="6.9" y2="20.03" width="0.3048" layer="16"/>
<wire x1="10.1" y1="22.8" x2="7.8" y2="20.5" width="0.3048" layer="16"/>
</signal>
<signal name="A7">
<contactref element="U1" pad="5"/>
<contactref element="U2" pad="5"/>
<contactref element="JP4" pad="8"/>
<wire x1="18.155" y1="32.6786" x2="18.155" y2="34.245" width="0.381" layer="16"/>
<wire x1="17.01" y1="35.39" x2="16.91" y2="37.5" width="0.381" layer="16"/>
<wire x1="18.155" y1="34.245" x2="17.01" y2="35.39" width="0.381" layer="16"/>
<wire x1="16.91" y1="38.9" x2="16.91" y2="37.5" width="0.381" layer="16"/>
<wire x1="57.155" y1="32.6786" x2="57.155" y2="31.245" width="0.3048" layer="16"/>
<wire x1="57.155" y1="31.245" x2="60.2" y2="28.2" width="0.3048" layer="16"/>
<wire x1="76" y1="30.5" x2="76" y2="39.9" width="0.3048" layer="16"/>
<wire x1="23.51" y1="45.5" x2="16.91" y2="38.9" width="0.3048" layer="16"/>
<wire x1="76" y1="39.9" x2="70.4" y2="45.5" width="0.3048" layer="16"/>
<wire x1="70.4" y1="45.5" x2="23.51" y2="45.5" width="0.3048" layer="16"/>
<wire x1="60.2" y1="28.2" x2="73.7" y2="28.2" width="0.3048" layer="16"/>
<wire x1="73.7" y1="28.2" x2="76" y2="30.5" width="0.3048" layer="16"/>
</signal>
<signal name="IO0">
<contactref element="U1" pad="13"/>
<contactref element="U2" pad="13"/>
<contactref element="JP3" pad="1"/>
<wire x1="63.46" y1="37.5" x2="63.46" y2="36.24" width="0.3048" layer="16"/>
<wire x1="65.05" y1="34.65" x2="66.25" y2="34.65" width="0.3048" layer="16"/>
<wire x1="63.46" y1="36.24" x2="65.05" y2="34.65" width="0.3048" layer="16"/>
<wire x1="66.25" y1="34.65" x2="67.315" y2="33.585" width="0.3048" layer="16"/>
<wire x1="67.315" y1="33.585" x2="67.315" y2="32.6786" width="0.3048" layer="16"/>
<wire x1="28.315" y1="32.6786" x2="28.315" y2="30.885" width="0.3048" layer="16"/>
<wire x1="28.315" y1="30.885" x2="30.4" y2="28.8" width="0.3048" layer="16"/>
<wire x1="30.4" y1="28.8" x2="36" y2="28.8" width="0.3048" layer="16"/>
<wire x1="36" y1="28.8" x2="44.6" y2="37.4" width="0.3048" layer="16"/>
<wire x1="44.6" y1="37.4" x2="63.36" y2="37.4" width="0.3048" layer="16"/>
<wire x1="63.36" y1="37.4" x2="63.46" y2="37.5" width="0.3048" layer="16"/>
</signal>
<signal name="IO1">
<contactref element="U2" pad="14"/>
<contactref element="U1" pad="14"/>
<contactref element="JP3" pad="2"/>
<wire x1="66" y1="37.5" x2="66" y2="36.4" width="0.3048" layer="16"/>
<wire x1="66" y1="36.4" x2="68.585" y2="33.815" width="0.3048" layer="16"/>
<wire x1="68.585" y1="33.815" x2="68.585" y2="32.6786" width="0.3048" layer="16"/>
<wire x1="66" y1="37.5" x2="66" y2="39.3" width="0.3048" layer="16"/>
<wire x1="66" y1="39.3" x2="65.6" y2="39.7" width="0.3048" layer="16"/>
<wire x1="65.6" y1="39.7" x2="45.7" y2="39.7" width="0.3048" layer="16"/>
<wire x1="45.7" y1="39.7" x2="35.5" y2="29.5" width="0.3048" layer="16"/>
<wire x1="35.5" y1="29.5" x2="30.8" y2="29.5" width="0.3048" layer="16"/>
<wire x1="29.585" y1="30.715" x2="29.585" y2="32.6786" width="0.3048" layer="16"/>
<wire x1="30.8" y1="29.5" x2="29.585" y2="30.715" width="0.3048" layer="16"/>
</signal>
<signal name="IO2">
<contactref element="U1" pad="15"/>
<contactref element="U2" pad="15"/>
<contactref element="JP3" pad="3"/>
<wire x1="30.855" y1="32.6786" x2="30.855" y2="31.245" width="0.3048" layer="16"/>
<wire x1="30.855" y1="31.245" x2="31.6" y2="30.5" width="0.3048" layer="16"/>
<wire x1="31.6" y1="30.5" x2="35.4" y2="30.5" width="0.3048" layer="16"/>
<wire x1="45.2" y1="40.3" x2="68" y2="40.3" width="0.3048" layer="16"/>
<wire x1="68" y1="40.3" x2="68.54" y2="39.76" width="0.3048" layer="16"/>
<wire x1="68.54" y1="39.76" x2="68.54" y2="37.5" width="0.3048" layer="16"/>
<wire x1="35.4" y1="30.5" x2="45.2" y2="40.3" width="0.3048" layer="16"/>
<wire x1="68.54" y1="37.5" x2="68.54" y2="35.66" width="0.3048" layer="16"/>
<wire x1="69.855" y1="34.345" x2="69.855" y2="32.6786" width="0.3048" layer="16"/>
<wire x1="68.54" y1="35.66" x2="69.855" y2="34.345" width="0.3048" layer="16"/>
</signal>
<signal name="IO3">
<contactref element="U2" pad="17"/>
<contactref element="U1" pad="17"/>
<contactref element="JP6" pad="1"/>
<wire x1="71.125" y1="14.3" x2="71.125" y2="12.945" width="0.508" layer="16"/>
<wire x1="71.125" y1="12.945" x2="71.08" y2="13.6" width="0.508" layer="16"/>
<wire x1="71.125" y1="19.5214" x2="71.125" y2="23.8335" width="0.3048" layer="16"/>
<wire x1="32.1" y1="18.7" x2="32.1" y2="19.4964" width="0.3048" layer="16"/>
<wire x1="32.1" y1="19.4964" x2="32.125" y2="19.5214" width="0.3048" layer="16"/>
<wire x1="71.125" y1="19.5214" x2="71.125" y2="14.3" width="0.3048" layer="16"/>
<wire x1="33.6" y1="18.7" x2="32.1" y2="18.7" width="0.3048" layer="16"/>
<wire x1="71.125" y1="23.8335" x2="69.6665" y2="25.292" width="0.3048" layer="16"/>
<wire x1="69.6665" y1="25.292" x2="58.8" y2="25.292" width="0.3048" layer="16"/>
<wire x1="57.592" y1="26.5" x2="41.4" y2="26.5" width="0.3048" layer="16"/>
<wire x1="58.8" y1="25.292" x2="57.592" y2="26.5" width="0.3048" layer="16"/>
<wire x1="41.4" y1="26.5" x2="33.6" y2="18.7" width="0.3048" layer="16"/>
</signal>
<signal name="IO4">
<contactref element="U1" pad="18"/>
<contactref element="U2" pad="18"/>
<contactref element="JP6" pad="2"/>
<wire x1="68.54" y1="14.6" x2="68.54" y2="13.6" width="0.508" layer="16"/>
<wire x1="69.855" y1="19.5214" x2="69.855" y2="15.915" width="0.3048" layer="16"/>
<wire x1="69.855" y1="15.915" x2="68.54" y2="14.6" width="0.3048" layer="16"/>
<wire x1="69.855" y1="22.845" x2="69.855" y2="19.5214" width="0.3048" layer="16"/>
<wire x1="31.5" y1="17.7" x2="33.7" y2="17.7" width="0.3048" layer="16"/>
<wire x1="30.855" y1="19.5214" x2="30.855" y2="18.345" width="0.3048" layer="16"/>
<wire x1="30.855" y1="18.345" x2="31.5" y2="17.7" width="0.3048" layer="16"/>
<wire x1="58.5" y1="24.6" x2="68.1" y2="24.6" width="0.3048" layer="16"/>
<wire x1="68.1" y1="24.6" x2="69.855" y2="22.845" width="0.3048" layer="16"/>
<wire x1="33.7" y1="17.7" x2="41.8" y2="25.8" width="0.3048" layer="16"/>
<wire x1="41.8" y1="25.8" x2="57.3" y2="25.8" width="0.3048" layer="16"/>
<wire x1="57.3" y1="25.8" x2="58.5" y2="24.6" width="0.3048" layer="16"/>
</signal>
<signal name="IO5">
<contactref element="U2" pad="19"/>
<contactref element="U1" pad="19"/>
<contactref element="JP6" pad="3"/>
<wire x1="65.9" y1="14.6" x2="65.9" y2="13" width="0.508" layer="16"/>
<wire x1="65.9" y1="13" x2="66" y2="13.6" width="0.508" layer="16"/>
<wire x1="29.6" y1="19.5064" x2="29.585" y2="19.5214" width="0.508" layer="16"/>
<wire x1="68.585" y1="19.5214" x2="68.585" y2="17.285" width="0.3048" layer="16"/>
<wire x1="68.585" y1="17.285" x2="65.9" y2="14.6" width="0.3048" layer="16"/>
<wire x1="29.585" y1="19.5214" x2="29.585" y2="18.415" width="0.3048" layer="16"/>
<wire x1="34" y1="16.9" x2="31.1" y2="16.9" width="0.3048" layer="16"/>
<wire x1="68.585" y1="22.615" x2="68.585" y2="19.5214" width="0.3048" layer="16"/>
<wire x1="29.585" y1="18.415" x2="31.1" y2="16.9" width="0.3048" layer="16"/>
<wire x1="67.3" y1="23.9" x2="58.1" y2="23.9" width="0.3048" layer="16"/>
<wire x1="67.3" y1="23.9" x2="68.585" y2="22.615" width="0.3048" layer="16"/>
<wire x1="58.1" y1="23.9" x2="57" y2="25" width="0.3048" layer="16"/>
<wire x1="57" y1="25" x2="42.1" y2="25" width="0.3048" layer="16"/>
<wire x1="42.1" y1="25" x2="34" y2="16.9" width="0.3048" layer="16"/>
</signal>
<signal name="IO6">
<contactref element="U1" pad="20"/>
<contactref element="U2" pad="20"/>
<contactref element="JP6" pad="4"/>
<wire x1="67.315" y1="19.2" x2="67.315" y2="19.5214" width="0.508" layer="16"/>
<wire x1="63.46" y1="13.6" x2="63.46" y2="14.26" width="0.3048" layer="16"/>
<wire x1="63.46" y1="14.26" x2="67.15" y2="17.95" width="0.3048" layer="16"/>
<wire x1="67.15" y1="17.95" x2="67.15" y2="19.035" width="0.3048" layer="16"/>
<wire x1="67.15" y1="19.035" x2="67.315" y2="19.2" width="0.3048" layer="16"/>
<wire x1="67.315" y1="19.5214" x2="67.315" y2="22.185" width="0.3048" layer="16"/>
<wire x1="67.315" y1="22.185" x2="66.2" y2="23.3" width="0.3048" layer="16"/>
<wire x1="57.8" y1="23.3" x2="66.2" y2="23.3" width="0.3048" layer="16"/>
<wire x1="30.1" y1="16.2" x2="28.3" y2="18" width="0.3048" layer="16"/>
<wire x1="28.3" y1="18" x2="28.3" y2="19.5064" width="0.3048" layer="16"/>
<wire x1="28.3" y1="19.5064" x2="28.315" y2="19.5214" width="0.3048" layer="16"/>
<wire x1="30.1" y1="16.2" x2="34.3" y2="16.2" width="0.3048" layer="16"/>
<wire x1="42.3" y1="24.2" x2="56.9" y2="24.2" width="0.3048" layer="16"/>
<wire x1="34.3" y1="16.2" x2="42.3" y2="24.2" width="0.3048" layer="16"/>
<wire x1="56.9" y1="24.2" x2="57.8" y2="23.3" width="0.3048" layer="16"/>
</signal>
<signal name="IO7">
<contactref element="U2" pad="21"/>
<contactref element="U1" pad="21"/>
<contactref element="JP6" pad="5"/>
<wire x1="66.045" y1="19.2" x2="66.045" y2="19.5214" width="0.508" layer="16"/>
<wire x1="60.92" y1="13.6" x2="60.92" y2="14.32" width="0.3048" layer="16"/>
<wire x1="63.3275" y1="16.7275" x2="63.9725" y2="16.7275" width="0.3048" layer="16"/>
<wire x1="60.92" y1="14.32" x2="63.3275" y2="16.7275" width="0.3048" layer="16"/>
<wire x1="63.9725" y1="16.7275" x2="66.045" y2="18.8" width="0.3048" layer="16"/>
<wire x1="66.045" y1="18.8" x2="66.045" y2="19.2" width="0.3048" layer="16"/>
<wire x1="66.045" y1="19.5214" x2="66.045" y2="21.455" width="0.3048" layer="16"/>
<wire x1="66.045" y1="21.455" x2="65.4" y2="22.1" width="0.3048" layer="16"/>
<wire x1="65.4" y1="22.1" x2="57.6" y2="22.1" width="0.3048" layer="16"/>
<wire x1="27.045" y1="19.5214" x2="27.045" y2="18.155" width="0.3048" layer="16"/>
<wire x1="27.045" y1="18.155" x2="29.9" y2="15.3" width="0.3048" layer="16"/>
<wire x1="29.9" y1="15.3" x2="34.4" y2="15.3" width="0.3048" layer="16"/>
<wire x1="34.4" y1="15.3" x2="42.5" y2="23.4" width="0.3048" layer="16"/>
<wire x1="56.4" y1="23.3" x2="57.6" y2="22.1" width="0.3048" layer="16"/>
<wire x1="42.5" y1="23.4" x2="56.3" y2="23.4" width="0.3048" layer="16"/>
<wire x1="56.3" y1="23.4" x2="56.4" y2="23.3" width="0.3048" layer="16"/>
</signal>
<signal name="5V_VDD">
<contactref element="C2" pad="1"/>
<contactref element="C1" pad="1"/>
<contactref element="U1" pad="32"/>
<contactref element="U2" pad="32"/>
<contactref element="JP9" pad="1"/>
<wire x1="52.0264" y1="19.57" x2="52.075" y2="19.5214" width="0.508" layer="16"/>
<wire x1="52" y1="11.6" x2="52" y2="12.47" width="0.6028" layer="16"/>
<wire x1="52" y1="12.47" x2="51.97" y2="13.6" width="0.8128" layer="16"/>
<wire x1="51.97" y1="13.6" x2="51.97" y2="16.86" width="0.6028" layer="16"/>
<wire x1="51.97" y1="16.86" x2="51.98" y2="16.87" width="0.6096" layer="16"/>
<wire x1="51.98" y1="16.87" x2="52.1" y2="16.99" width="0.6096" layer="16"/>
<wire x1="52.1" y1="16.99" x2="52.1" y2="18.8" width="0.6028" layer="16"/>
<wire x1="52.1" y1="18.8" x2="52.075" y2="18.825" width="0.6096" layer="16"/>
<wire x1="52.075" y1="18.825" x2="52.075" y2="19.5214" width="0.6096" layer="16"/>
<wire x1="13.075" y1="19.5214" x2="10.53" y2="16.9764" width="0.6028" layer="16"/>
<wire x1="10.53" y1="16.9764" x2="10.53" y2="16.87" width="0.6028" layer="16"/>
<wire x1="10.53" y1="16.87" x2="10.53" y2="12.3159" width="0.6028" layer="16"/>
<wire x1="10.53" y1="12.3159" x2="12.8" y2="10.0459" width="0.6028" layer="16"/>
<wire x1="12.8" y1="10.0459" x2="50.4459" y2="10.0459" width="0.6028" layer="16"/>
<wire x1="50.4459" y1="10.0459" x2="52" y2="11.6" width="0.6028" layer="16"/>
</signal>
<signal name="CE1/1">
<contactref element="U1" pad="22"/>
<contactref element="JP8" pad="1"/>
<wire x1="64.775" y1="19.5214" x2="64.775" y2="20.825" width="0.3048" layer="16"/>
<wire x1="42" y1="16.3" x2="39.2" y2="16.3" width="0.3048" layer="16"/>
<wire x1="39.2" y1="16.3" x2="38.59" y2="15.69" width="0.3048" layer="16"/>
<wire x1="38.59" y1="15.69" x2="38.59" y2="13.6" width="0.3048" layer="16"/>
<wire x1="64.775" y1="20.825" x2="64.1" y2="21.5" width="0.3048" layer="16"/>
<wire x1="48.408" y1="22.708" x2="42" y2="16.3" width="0.3048" layer="16"/>
<wire x1="64.1" y1="21.5" x2="56.8602125" y2="21.5" width="0.3048" layer="16"/>
<wire x1="56.8602125" y1="21.5" x2="55.6522125" y2="22.708" width="0.3048" layer="16"/>
<wire x1="55.6522125" y1="22.708" x2="48.408" y2="22.708" width="0.3048" layer="16"/>
</signal>
<signal name="CE2/1">
<contactref element="U1" pad="30"/>
<contactref element="JP8" pad="4"/>
<wire x1="46.21" y1="14.3" x2="46.21" y2="13.6" width="0.381" layer="16"/>
<wire x1="46.21" y1="16.21" x2="46.21" y2="14.3" width="0.3048" layer="16"/>
<wire x1="54.615" y1="19.5214" x2="54.615" y2="20.585" width="0.3048" layer="16"/>
<wire x1="50.9" y1="20.9" x2="46.21" y2="16.21" width="0.3048" layer="16"/>
<wire x1="54.615" y1="20.585" x2="54.3" y2="20.9" width="0.3048" layer="16"/>
<wire x1="54.3" y1="20.9" x2="50.9" y2="20.9" width="0.3048" layer="16"/>
</signal>
<signal name="OE/1">
<contactref element="U1" pad="24"/>
<contactref element="JP8" pad="2"/>
<wire x1="41.13" y1="14.03" x2="41.13" y2="13.6" width="0.381" layer="16"/>
<wire x1="62.235" y1="19.5214" x2="62.235" y2="20.9755" width="0.3048" layer="16"/>
<wire x1="55.3" y1="22.2" x2="49.9" y2="22.2" width="0.3048" layer="16"/>
<wire x1="49.9" y1="22.2" x2="43.7" y2="16" width="0.3048" layer="16"/>
<wire x1="41.13" y1="14.53" x2="41.13" y2="14.03" width="0.3048" layer="16"/>
<wire x1="43.7" y1="16" x2="42.6" y2="16" width="0.3048" layer="16"/>
<wire x1="42.6" y1="16" x2="41.13" y2="14.53" width="0.3048" layer="16"/>
<wire x1="56.5245" y1="20.9755" x2="55.3" y2="22.2" width="0.3048" layer="16"/>
<wire x1="62.235" y1="20.9755" x2="56.5245" y2="20.9755" width="0.3048" layer="16"/>
</signal>
<signal name="WE/1">
<contactref element="U1" pad="29"/>
<contactref element="JP8" pad="3"/>
<wire x1="43.7" y1="13.4" x2="43.7" y2="12.53" width="0.381" layer="16"/>
<wire x1="43.7" y1="12.53" x2="43.67" y2="13.6" width="0.381" layer="16"/>
<wire x1="43.67" y1="13.6" x2="43.67" y2="14.87" width="0.3048" layer="16"/>
<wire x1="43.67" y1="14.87" x2="50.3" y2="21.5" width="0.3048" layer="16"/>
<wire x1="50.3" y1="21.5" x2="55.1" y2="21.5" width="0.3048" layer="16"/>
<wire x1="55.1" y1="21.5" x2="55.885" y2="20.715" width="0.3048" layer="16"/>
<wire x1="55.885" y1="20.715" x2="55.885" y2="19.5214" width="0.3048" layer="16"/>
</signal>
<signal name="CE1/2">
<contactref element="U2" pad="22"/>
<contactref element="JP2" pad="1"/>
<wire x1="25.775" y1="19.5214" x2="25.775" y2="16.975" width="0.381" layer="16"/>
<wire x1="24.21" y1="15.41" x2="24.21" y2="13.6" width="0.381" layer="16"/>
<wire x1="25.775" y1="16.975" x2="24.21" y2="15.41" width="0.381" layer="16"/>
</signal>
<signal name="CE2/2">
<contactref element="U2" pad="30"/>
<contactref element="JP2" pad="4"/>
<wire x1="15.615" y1="19.5214" x2="15.615" y2="16.285" width="0.381" layer="16"/>
<wire x1="15.615" y1="16.285" x2="16.6" y2="15.3" width="0.381" layer="16"/>
<wire x1="16.6" y1="15.3" x2="16.6" y2="12.91" width="0.381" layer="16"/>
<wire x1="16.6" y1="12.91" x2="16.59" y2="13.6" width="0.381" layer="16"/>
</signal>
<signal name="OE/2">
<contactref element="U2" pad="24"/>
<contactref element="JP2" pad="2"/>
<wire x1="23.235" y1="19.5214" x2="23.235" y2="16.635" width="0.381" layer="16"/>
<wire x1="21.7" y1="15.1" x2="21.7" y2="12.93" width="0.381" layer="16"/>
<wire x1="21.7" y1="12.93" x2="21.67" y2="13.6" width="0.381" layer="16"/>
<wire x1="23.235" y1="16.635" x2="21.7" y2="15.1" width="0.381" layer="16"/>
</signal>
<signal name="WE/2">
<contactref element="U2" pad="29"/>
<contactref element="JP2" pad="3"/>
<wire x1="16.885" y1="19.5214" x2="16.885" y2="17.415" width="0.381" layer="16"/>
<wire x1="19.13" y1="15.17" x2="19.13" y2="13.6" width="0.381" layer="16"/>
<wire x1="16.885" y1="17.415" x2="19.13" y2="15.17" width="0.381" layer="16"/>
</signal>
<signal name="A0">
<contactref element="U2" pad="12"/>
<contactref element="U1" pad="12"/>
<contactref element="JP4" pad="1"/>
<wire x1="27.5" y1="34.1137" x2="33.8" y2="34.1137" width="0.381" layer="16"/>
<wire x1="27.045" y1="32.6786" x2="27.045" y2="33.6587" width="0.381" layer="16"/>
<wire x1="27.045" y1="33.6587" x2="27.5" y2="34.1137" width="0.381" layer="16"/>
<wire x1="34.69" y1="37.5" x2="34.69" y2="35.0037" width="0.381" layer="16"/>
<wire x1="34.69" y1="35.0037" x2="33.8" y2="34.1137" width="0.381" layer="16"/>
<wire x1="66.045" y1="32.6786" x2="66.045" y2="31.555" width="0.3048" layer="16"/>
<wire x1="66.4" y1="31.2" x2="71.5" y2="31.2" width="0.3048" layer="16"/>
<wire x1="71.9" y1="31.6" x2="71.9" y2="39" width="0.3048" layer="16"/>
<wire x1="71.9" y1="39" x2="69.2" y2="41.7" width="0.3048" layer="16"/>
<wire x1="34.69" y1="39.39" x2="34.69" y2="37.5" width="0.3048" layer="16"/>
<wire x1="66.045" y1="31.555" x2="66.4" y2="31.2" width="0.3048" layer="16"/>
<wire x1="71.5" y1="31.2" x2="71.9" y2="31.6" width="0.3048" layer="16"/>
<wire x1="69.2" y1="41.7" x2="37" y2="41.7" width="0.3048" layer="16"/>
<wire x1="37" y1="41.7" x2="34.69" y2="39.39" width="0.3048" layer="16"/>
</signal>
<signal name="A1">
<contactref element="U1" pad="11"/>
<contactref element="U2" pad="11"/>
<contactref element="JP4" pad="2"/>
<wire x1="32.15" y1="37.5" x2="29.3987" y2="34.7487" width="0.381" layer="16"/>
<wire x1="29.3987" y1="34.7487" x2="26.75023125" y2="34.7487" width="0.381" layer="16"/>
<wire x1="25.775" y1="33.77346875" x2="25.775" y2="32.6786" width="0.381" layer="16"/>
<wire x1="26.75023125" y1="34.7487" x2="25.775" y2="33.77346875" width="0.381" layer="16"/>
<wire x1="32.15" y1="37.5" x2="32.15" y2="40.45" width="0.3048" layer="16"/>
<wire x1="34.2" y1="42.5" x2="69.5" y2="42.5" width="0.3048" layer="16"/>
<wire x1="72.9" y1="31.4" x2="72.1" y2="30.6" width="0.3048" layer="16"/>
<wire x1="72.1" y1="30.6" x2="65.1" y2="30.6" width="0.3048" layer="16"/>
<wire x1="64.775" y1="30.925" x2="64.775" y2="32.6786" width="0.3048" layer="16"/>
<wire x1="32.15" y1="40.45" x2="34.2" y2="42.5" width="0.3048" layer="16"/>
<wire x1="69.5" y1="42.5" x2="72.9" y2="39.1" width="0.3048" layer="16"/>
<wire x1="72.9" y1="39.1" x2="72.9" y2="31.4" width="0.3048" layer="16"/>
<wire x1="65.1" y1="30.6" x2="64.775" y2="30.925" width="0.3048" layer="16"/>
</signal>
<signal name="A2">
<contactref element="U2" pad="10"/>
<contactref element="U1" pad="10"/>
<contactref element="JP4" pad="3"/>
<wire x1="24.505" y1="32.6786" x2="24.505" y2="33.4015" width="0.381" layer="16"/>
<wire x1="24.505" y1="33.4015" x2="26.6035" y2="35.5" width="0.381" layer="16"/>
<wire x1="26.6035" y1="35.5" x2="28.8" y2="35.5" width="0.381" layer="16"/>
<wire x1="28.8" y1="35.5" x2="29.61" y2="36.31" width="0.381" layer="16"/>
<wire x1="29.61" y1="36.31" x2="29.61" y2="37.5" width="0.381" layer="16"/>
<wire x1="63.505" y1="32.6786" x2="63.505" y2="34.795" width="0.3048" layer="16"/>
<wire x1="63.505" y1="34.795" x2="61.6" y2="36.7" width="0.3048" layer="16"/>
<wire x1="61.6" y1="36.7" x2="45.7" y2="36.7" width="0.3048" layer="16"/>
<wire x1="36.9" y1="27.9" x2="27.8" y2="27.9" width="0.3048" layer="16"/>
<wire x1="27.8" y1="27.9" x2="24.505" y2="31.195" width="0.3048" layer="16"/>
<wire x1="24.505" y1="31.195" x2="24.505" y2="32.6786" width="0.3048" layer="16"/>
<wire x1="45.7" y1="36.7" x2="36.9" y2="27.9" width="0.3048" layer="16"/>
</signal>
<signal name="A3">
<contactref element="U1" pad="9"/>
<contactref element="U2" pad="9"/>
<contactref element="JP4" pad="4"/>
<wire x1="62.235" y1="32.6786" x2="62.235" y2="31.965" width="0.381" layer="16"/>
<wire x1="27.07" y1="37.5" x2="26.99825" y2="37.5" width="0.381" layer="16"/>
<wire x1="26.99825" y1="37.5" x2="23.235" y2="33.73675" width="0.381" layer="16"/>
<wire x1="23.235" y1="33.73675" x2="23.235" y2="32.6786" width="0.381" layer="16"/>
<wire x1="23.235" y1="32.6786" x2="23.235" y2="31.265" width="0.3048" layer="16"/>
<wire x1="27.5" y1="27" x2="36.9" y2="27" width="0.3048" layer="16"/>
<wire x1="36.9" y1="27" x2="45.8" y2="35.9" width="0.3048" layer="16"/>
<wire x1="61.2" y1="35.9" x2="62.1" y2="35" width="0.3048" layer="16"/>
<wire x1="62.1" y1="35" x2="62.1" y2="32.8136" width="0.3048" layer="16"/>
<wire x1="62.1" y1="32.8136" x2="62.235" y2="32.6786" width="0.3048" layer="16"/>
<wire x1="23.235" y1="31.265" x2="27.5" y2="27" width="0.3048" layer="16"/>
<wire x1="45.8" y1="35.9" x2="61.2" y2="35.9" width="0.3048" layer="16"/>
</signal>
<signal name="A4">
<contactref element="U2" pad="8"/>
<contactref element="U1" pad="8"/>
<contactref element="JP4" pad="5"/>
<wire x1="21.965" y1="32.6786" x2="22" y2="32.7136" width="0.381" layer="16"/>
<wire x1="22" y1="32.7136" x2="22" y2="34.18671875" width="0.381" layer="16"/>
<wire x1="22" y1="34.18671875" x2="24.53" y2="36.71671875" width="0.381" layer="16"/>
<wire x1="24.53" y1="36.71671875" x2="24.53" y2="37.5" width="0.381" layer="16"/>
<wire x1="21.965" y1="32.6786" x2="21.965" y2="31.335" width="0.3048" layer="16"/>
<wire x1="21.965" y1="31.335" x2="27.2" y2="26.1" width="0.3048" layer="16"/>
<wire x1="27.2" y1="26.1" x2="37.3" y2="26.1" width="0.3048" layer="16"/>
<wire x1="60.6" y1="35.2" x2="61.1" y2="34.7" width="0.3048" layer="16"/>
<wire x1="61.1" y1="34.7" x2="61.1" y2="32.8136" width="0.3048" layer="16"/>
<wire x1="61.1" y1="32.8136" x2="60.965" y2="32.6786" width="0.3048" layer="16"/>
<wire x1="37.3" y1="26.1" x2="46.4" y2="35.2" width="0.3048" layer="16"/>
<wire x1="46.4" y1="35.2" x2="60.6" y2="35.2" width="0.3048" layer="16"/>
</signal>
<signal name="A9">
<contactref element="U1" pad="26"/>
<contactref element="U2" pad="26"/>
<contactref element="JP5" pad="4"/>
<wire x1="6.9" y1="22.57" x2="3.87" y2="22.57" width="0.3048" layer="16"/>
<wire x1="3.2" y1="8.5" x2="7.4" y2="4.3" width="0.3048" layer="16"/>
<wire x1="7.4" y1="4.3" x2="51" y2="4.3" width="0.3048" layer="16"/>
<wire x1="51" y1="4.3" x2="56.2" y2="9.5" width="0.3048" layer="16"/>
<wire x1="56.2" y1="9.5" x2="56.2" y2="14.5" width="0.3048" layer="16"/>
<wire x1="56.2" y1="14.5" x2="59.8" y2="18.1" width="0.3048" layer="16"/>
<wire x1="59.8" y1="18.1" x2="59.8" y2="19.4164" width="0.3048" layer="16"/>
<wire x1="59.8" y1="19.4164" x2="59.695" y2="19.5214" width="0.3048" layer="16"/>
<wire x1="3.87" y1="22.57" x2="3.2" y2="21.9" width="0.3048" layer="16"/>
<wire x1="3.2" y1="21.9" x2="3.2" y2="8.5" width="0.3048" layer="16"/>
<wire x1="6.9" y1="22.57" x2="8.57" y2="22.57" width="0.3048" layer="16"/>
<wire x1="8.57" y1="22.57" x2="9.6" y2="23.6" width="0.3048" layer="16"/>
<wire x1="9.6" y1="23.6" x2="17.5" y2="23.6" width="0.3048" layer="16"/>
<wire x1="17.5" y1="23.6" x2="20.7" y2="20.4" width="0.3048" layer="16"/>
<wire x1="20.7" y1="20.4" x2="20.695" y2="20.395" width="0.3048" layer="16"/>
<wire x1="20.695" y1="20.395" x2="20.695" y2="19.5214" width="0.3048" layer="16"/>
</signal>
<signal name="A10">
<contactref element="U2" pad="23"/>
<contactref element="U1" pad="23"/>
<contactref element="JP5" pad="6"/>
<wire x1="6.9" y1="27.65" x2="17.15" y2="27.65" width="0.381" layer="16"/>
<wire x1="24.505" y1="20.295" x2="24.505" y2="19.5214" width="0.381" layer="16"/>
<wire x1="17.15" y1="27.65" x2="24.505" y2="20.295" width="0.381" layer="16"/>
<wire x1="6.9" y1="27.65" x2="4.1708" y2="27.65" width="0.3048" layer="16"/>
<wire x1="4.1708" y1="27.65" x2="1.3208" y2="24.8" width="0.3048" layer="16"/>
<wire x1="1.3208" y1="24.8" x2="1.3208" y2="7.7792" width="0.3048" layer="16"/>
<wire x1="1.3208" y1="7.7792" x2="6.8" y2="2.3" width="0.3048" layer="16"/>
<wire x1="6.8" y1="2.3" x2="51.4" y2="2.3" width="0.3048" layer="16"/>
<wire x1="58" y1="8.9" x2="58" y2="14.2" width="0.3048" layer="16"/>
<wire x1="58" y1="14.2" x2="60.8" y2="17" width="0.3048" layer="16"/>
<wire x1="60.8" y1="17" x2="62.4" y2="17" width="0.3048" layer="16"/>
<wire x1="62.4" y1="17" x2="63.4" y2="18" width="0.3048" layer="16"/>
<wire x1="63.4" y1="19.4164" x2="63.505" y2="19.5214" width="0.3048" layer="16"/>
<wire x1="51.4" y1="2.3" x2="58" y2="8.9" width="0.3048" layer="16"/>
<wire x1="63.4" y1="18" x2="63.4" y2="19.4164" width="0.3048" layer="16"/>
</signal>
<signal name="A11">
<contactref element="U1" pad="25"/>
<contactref element="U2" pad="25"/>
<contactref element="JP5" pad="5"/>
<wire x1="21.965" y1="19.5214" x2="21.965" y2="21.235" width="0.381" layer="16"/>
<wire x1="18.09" y1="25.11" x2="6.9" y2="25.11" width="0.381" layer="16"/>
<wire x1="21.965" y1="21.235" x2="18.09" y2="25.11" width="0.381" layer="16"/>
<wire x1="60.965" y1="19.5214" x2="60.965" y2="18.265" width="0.3048" layer="16"/>
<wire x1="60.965" y1="18.265" x2="57" y2="14.3" width="0.3048" layer="16"/>
<wire x1="57" y1="14.3" x2="57" y2="9" width="0.3048" layer="16"/>
<wire x1="51.3" y1="3.3" x2="7.2" y2="3.3" width="0.3048" layer="16"/>
<wire x1="7.2" y1="3.3" x2="2.3" y2="8.2" width="0.3048" layer="16"/>
<wire x1="2.3" y1="8.2" x2="2.3" y2="23.9" width="0.3048" layer="16"/>
<wire x1="2.3" y1="23.9" x2="3.51" y2="25.11" width="0.3048" layer="16"/>
<wire x1="3.51" y1="25.11" x2="6.9" y2="25.11" width="0.3048" layer="16"/>
<wire x1="57" y1="9" x2="51.3" y2="3.3" width="0.3048" layer="16"/>
</signal>
<signal name="A12">
<contactref element="U2" pad="4"/>
<contactref element="U1" pad="4"/>
<contactref element="JP1" pad="1"/>
<wire x1="13.1" y1="37.74" x2="6.9" y2="37.74" width="0.381" layer="16"/>
<wire x1="16.885" y1="32.6786" x2="16.885" y2="33.955" width="0.381" layer="16"/>
<wire x1="16.885" y1="33.955" x2="13.1" y2="37.74" width="0.381" layer="16"/>
<wire x1="55.885" y1="32.6786" x2="55.885" y2="31.5" width="0.3048" layer="16"/>
<wire x1="76.7" y1="30" x2="76.7" y2="40.4" width="0.3048" layer="16"/>
<wire x1="76.7" y1="40.4" x2="70.7" y2="46.4" width="0.3048" layer="16"/>
<wire x1="70.7" y1="46.4" x2="12.8" y2="46.4" width="0.3048" layer="16"/>
<wire x1="12.8" y1="46.4" x2="6.7" y2="40.3" width="0.3048" layer="16"/>
<wire x1="6.7" y1="40.3" x2="6.7" y2="37.94" width="0.3048" layer="16"/>
<wire x1="6.7" y1="37.94" x2="6.9" y2="37.74" width="0.3048" layer="16"/>
<wire x1="55.885" y1="31.5" x2="59.885" y2="27.5" width="0.3048" layer="16"/>
<wire x1="74.2" y1="27.5" x2="76.7" y2="30" width="0.3048" layer="16"/>
<wire x1="59.885" y1="27.5" x2="74.2" y2="27.5" width="0.3048" layer="16"/>
</signal>
<signal name="A15">
<contactref element="U1" pad="31"/>
<contactref element="U2" pad="31"/>
<contactref element="JP5" pad="1"/>
<wire x1="53.4" y1="19.4664" x2="53.345" y2="19.5214" width="0.381" layer="16"/>
<wire x1="14.345" y1="19.5214" x2="14.345" y2="20.755" width="0.3048" layer="16"/>
<wire x1="14.345" y1="20.755" x2="14" y2="21.1" width="0.3048" layer="16"/>
<wire x1="14" y1="21.1" x2="11.6" y2="21.1" width="0.3048" layer="16"/>
<wire x1="11.6" y1="21.1" x2="11.1" y2="20.6" width="0.3048" layer="16"/>
<wire x1="11.1" y1="20.6" x2="11.1" y2="19.7" width="0.3048" layer="16"/>
<wire x1="7.95" y1="14.95" x2="6.9" y2="14.95" width="0.3048" layer="16"/>
<wire x1="11.1" y1="19.7" x2="9.1" y2="17.7" width="0.3048" layer="16"/>
<wire x1="9.1" y1="17.7" x2="9.1" y2="16.1" width="0.3048" layer="16"/>
<wire x1="9.1" y1="16.1" x2="7.95" y2="14.95" width="0.3048" layer="16"/>
<wire x1="6.9" y1="14.95" x2="6.9" y2="12.3" width="0.3048" layer="16"/>
<wire x1="6.9" y1="12.3" x2="10.4" y2="8.8" width="0.3048" layer="16"/>
<wire x1="50.8" y1="8.8" x2="53.3" y2="11.3" width="0.3048" layer="16"/>
<wire x1="53.3" y1="11.3" x2="53.3" y2="19.3664" width="0.3048" layer="16"/>
<wire x1="53.3" y1="19.3664" x2="53.4" y2="19.4664" width="0.3048" layer="16"/>
<wire x1="10.4" y1="8.8" x2="50.8" y2="8.8" width="0.3048" layer="16"/>
</signal>
<signal name="A16">
<contactref element="U2" pad="2"/>
<contactref element="U1" pad="2"/>
<contactref element="JP1" pad="3"/>
<wire x1="14.345" y1="33.6" x2="14.345" y2="32.6786" width="0.381" layer="16"/>
<wire x1="53.345" y1="32.6786" x2="53.345" y2="31.555" width="0.3048" layer="16"/>
<wire x1="78.39015625" y1="41.39015625" x2="78.39015625" y2="29.5" width="0.3048" layer="16"/>
<wire x1="78.39015625" y1="41.39015625" x2="71.531296875" y2="48.249015625" width="0.3048" layer="16"/>
<wire x1="71.531296875" y1="48.249015625" x2="10.750984375" y2="48.249015625" width="0.3048" layer="16"/>
<wire x1="10.750984375" y1="48.249015625" x2="4.165" y2="41.66303125" width="0.3048" layer="16"/>
<wire x1="4.165" y1="41.66303125" x2="4.165" y2="34.535" width="0.3048" layer="16"/>
<wire x1="4.165" y1="34.535" x2="6.04" y2="32.66" width="0.3048" layer="16"/>
<wire x1="6.04" y1="32.66" x2="6.9" y2="32.66" width="0.3048" layer="16"/>
<wire x1="6.9" y1="32.66" x2="10.96" y2="32.66" width="0.3048" layer="16"/>
<wire x1="10.96" y1="32.66" x2="12.6" y2="34.3" width="0.3048" layer="16"/>
<wire x1="12.6" y1="34.3" x2="13.645" y2="34.3" width="0.3048" layer="16"/>
<wire x1="13.645" y1="34.3" x2="14.345" y2="33.6" width="0.3048" layer="16"/>
<wire x1="53.345" y1="32.6786" x2="53.345" y2="31.755" width="0.3048" layer="16"/>
<wire x1="59.1" y1="26" x2="53.345" y2="31.755" width="0.3048" layer="16"/>
<wire x1="78.39015625" y1="29.5" x2="74.89015625" y2="26" width="0.3048" layer="16"/>
<wire x1="74.89015625" y1="26" x2="59.1" y2="26" width="0.3048" layer="16"/>
</signal>
<signal name="A14">
<contactref element="U2" pad="3"/>
<contactref element="U1" pad="3"/>
<wire x1="54.615" y1="32.6786" x2="54.615" y2="31.5" width="0.381" layer="16"/>
<contactref element="JP1" pad="2"/>
<wire x1="6.9" y1="35.2" x2="14.4" y2="35.2" width="0.381" layer="16"/>
<wire x1="15.55" y1="34.05" x2="14.4" y2="35.2" width="0.381" layer="16"/>
<wire x1="15.615" y1="32.6786" x2="15.55" y2="32.7436" width="0.381" layer="16"/>
<wire x1="15.55" y1="32.7436" x2="15.55" y2="34.05" width="0.381" layer="16"/>
<wire x1="6.8" y1="35.2" x2="6.9" y2="35.2" width="0.3048" layer="16"/>
<wire x1="5.0204" y1="36.9796" x2="5.0204" y2="41" width="0.3048" layer="16"/>
<wire x1="5.0204" y1="36.9796" x2="6.8" y2="35.2" width="0.3048" layer="16"/>
<wire x1="5.0204" y1="41" x2="11.4204" y2="47.4" width="0.3048" layer="16"/>
<wire x1="70.915" y1="47.4" x2="77.7075" y2="40.6075" width="0.3048" layer="16"/>
<wire x1="11.4204" y1="47.4" x2="70.915" y2="47.4" width="0.3048" layer="16"/>
<wire x1="77.7075" y1="29.8075" x2="77.7075" y2="40.6075" width="0.3048" layer="16"/>
<wire x1="54.615" y1="31.5" x2="59.415" y2="26.7" width="0.3048" layer="16"/>
<wire x1="74.6" y1="26.7" x2="77.7075" y2="29.8075" width="0.3048" layer="16"/>
<wire x1="59.415" y1="26.7" x2="74.6" y2="26.7" width="0.3048" layer="16"/>
</signal>
<signal name="A13">
<contactref element="U1" pad="28"/>
<contactref element="U2" pad="28"/>
<contactref element="JP5" pad="2"/>
<wire x1="57.155" y1="19.5214" x2="57.155" y2="18.055" width="0.381" layer="16"/>
<wire x1="57.155" y1="18.055" x2="54.5" y2="15.4" width="0.381" layer="16"/>
<wire x1="6" y1="17.49" x2="6.9" y2="17.49" width="0.381" layer="16"/>
<wire x1="4.9315" y1="16.4215" x2="6" y2="17.49" width="0.381" layer="16"/>
<wire x1="4.9315" y1="16.4215" x2="4.9315" y2="13.17046875" width="0.381" layer="16"/>
<wire x1="4.9315" y1="13.17046875" x2="4.9315" y2="10.9685" width="0.3048" layer="16"/>
<wire x1="50.99803125" y1="7.4" x2="8.5" y2="7.4" width="0.3048" layer="16"/>
<wire x1="4.9315" y1="10.9685" x2="8.5" y2="7.4" width="0.3048" layer="16"/>
<wire x1="54.5" y1="15.4" x2="54.5" y2="10.90196875" width="0.3048" layer="16"/>
<wire x1="54.5" y1="10.90196875" x2="50.99803125" y2="7.4" width="0.3048" layer="16"/>
<wire x1="6.9" y1="17.49" x2="7.39" y2="17.49" width="0.3048" layer="16"/>
<wire x1="9.8" y1="19.9" x2="9.8" y2="21.2" width="0.3048" layer="16"/>
<wire x1="9.8" y1="21.2" x2="10.5" y2="21.9" width="0.3048" layer="16"/>
<wire x1="10.5" y1="21.9" x2="16.8" y2="21.9" width="0.3048" layer="16"/>
<wire x1="16.8" y1="21.9" x2="18.2" y2="20.5" width="0.3048" layer="16"/>
<wire x1="18.2" y1="19.5664" x2="18.155" y2="19.5214" width="0.3048" layer="16"/>
<wire x1="7.39" y1="17.49" x2="9.8" y2="19.9" width="0.3048" layer="16"/>
<wire x1="18.2" y1="20.5" x2="18.2" y2="19.5664" width="0.3048" layer="16"/>
</signal>
</signals>
</board>
</drawing>
<compatibility>
<note version="8.2" severity="warning">
Since Version 8.2, EAGLE supports online libraries. The ids
of those online libraries will not be understood (or retained)
with this version.
</note>
<note version="8.3" severity="warning">
Since Version 8.3, EAGLE supports URNs for individual library
assets (packages, symbols, and devices). The URNs of those assets
will not be understood (or retained) with this version.
</note>
<note version="8.3" severity="warning">
Since Version 8.3, EAGLE supports the association of 3D packages
with devices in libraries, schematics, and board files. Those 3D
packages will not be understood (or retained) with this version.
</note>
</compatibility>
</eagle>
