C16	24.05	68.34	180.00	100nf	C0805
C17	31.99	55.72	270.00	100uf	C1210
C31	24.53	62.71	0.00	100uf	C1210
D1	34.53	72.07	180.00		SOD123
D4	19.69	9.21	180.00	1n4007	SMA-DIODE
D5	19.69	13.49	180.00	1n4007	SMA-DIODE
D6	19.76	19.76	180.00	1n4007	SMA-DIODE
IC7	25.98	54.13	180.00	REG1117	SOT223
R22	16.91	72.23	180.00	2.2k	R0805
